<svg width="256" height="36" viewBox="0 0 256 36" fill="none" xmlns="http://www.w3.org/2000/svg">
<path d="M13.0694 31.0178C9.86424 29.6441 7.24778 27.1585 5.80872 24.0188L10.9108 21.5985C11.8266 23.4954 13.3964 24.9999 15.2934 25.7849L13.0694 31.0178Z" fill="#455278"/>
<path d="M18.6343 25.4741C14.8698 25.4741 11.7955 22.3997 11.7955 18.6352C11.7955 14.8707 14.8698 11.7964 18.6343 11.7964C22.3988 11.7964 25.4732 14.8707 25.4732 18.6352H22.0224C22.0224 16.753 20.5166 15.2472 18.6343 15.2472C16.7521 15.2472 15.2463 16.753 15.2463 18.6352C15.2463 20.5175 16.7521 22.0233 18.6343 22.0233V25.4741Z" fill="#C1C7CA"/>
<path d="M10.4787 18.6345H7.15341C7.15341 12.2348 12.361 7.08997 18.6979 7.08997V10.4153C14.1177 10.4153 10.4787 14.0543 10.4787 18.6345Z" fill="#30464F"/>
<path d="M18.6345 35.0103V30.1792C25.0342 30.1792 30.2417 24.9717 30.2417 18.572H35.0728C35.0728 27.6696 27.732 35.0103 18.6345 35.0103Z" fill="#C1C7CA"/>
<path d="M13.3034 31.1826C10.229 29.865 7.71935 27.4808 6.33902 24.4692L11.2329 22.1478C12.1113 23.9673 13.617 25.4104 15.4366 26.1632L13.3034 31.1826Z" fill="#30464F"/>
<path d="M36.3277 18.6344H30.2417C30.2417 12.2348 25.0342 7.02723 18.6345 7.02723V0.941284C28.4222 0.941284 36.3277 8.84673 36.3277 18.6344Z" fill="#30464F"/>
<path d="M18.6353 35.0719C9.60049 35.0719 2.19698 27.6684 2.19698 18.6335H3.891C3.891 26.79 10.5416 33.3779 18.6353 33.3779V35.0719Z" fill="#C1C7CA"/>
<path d="M2.32144 18.6343H0C0 8.34464 8.34465 0 18.6343 0V2.32144C9.66222 2.2587 2.32144 9.59949 2.32144 18.6343Z" fill="#C1C7CA"/>
<path d="M26.0995 15.0585C25.2212 13.239 23.7154 11.7959 21.8959 11.043L24.0291 6.02368C27.1034 7.34125 29.6131 9.72543 30.9934 12.7371L26.0995 15.0585Z" fill="#AFB5B8"/>
<path d="M22.4611 27.0415L20.2652 22.085C21.1435 21.7085 21.7709 21.0183 22.2101 20.2027L27.1667 22.4614C26.1629 24.4691 24.4688 26.1631 22.4611 27.0415Z" fill="#30464F"/>
<path d="M255.894 17.4841H218.59V19.697H255.894V17.4841Z" fill="#2F3B43"/>
<path d="M218.59 32.8691H220.856V30.3927H233.923V21.8572H218.59V32.8691ZM220.908 24.0174H231.71V28.1798H220.908V24.0174Z" fill="#2F3B43"/>
<path d="M236.187 30.3927H244.828V32.8691H247.199V30.3927H255.892V21.8572H236.187V30.3927ZM247.199 24.0174H253.627V28.1798H247.199V24.0174ZM238.452 24.0174H244.828V28.1798H238.452V24.0174Z" fill="#2F3B43"/>
<path d="M252.783 5.89239H255.313V3.73218H244.617V5.89239V13.1107V15.2183H251.73C254.786 15.2183 255.998 13.6903 255.998 11.6355C255.998 9.58062 254.839 8.10532 251.782 8.10532H247.146V5.83972H252.783V5.89239ZM251.782 10.2656C252.942 10.2656 253.416 10.9505 253.416 11.6882C253.416 12.4258 252.994 13.1107 251.782 13.1107H247.146V10.2656H251.782Z" fill="#2F3B43"/>
<path d="M237.344 13.1111H231.865V15.2713H237.555C240.927 15.2713 243.245 12.953 243.245 9.52829C243.245 6.10352 240.927 3.78522 237.555 3.78522H231.865V5.94544H237.344C238.978 5.94544 240.137 6.94652 240.505 8.5272H233.129V10.6348H240.505C240.137 12.11 238.978 13.1111 237.344 13.1111Z" fill="#2F3B43"/>
<path d="M230.127 6.89308C230.127 4.99628 228.863 3.73175 225.806 3.73175H218.588V15.2706H226.228C229.284 15.2706 230.496 13.9007 230.496 11.9512C230.496 10.6867 229.969 9.73824 228.652 9.26406C229.706 8.78987 230.127 7.99954 230.127 6.89308ZM221.117 5.892H225.912C227.071 5.892 227.545 6.57694 227.545 7.31456C227.545 8.05222 227.124 8.63178 225.912 8.63178H221.117V5.892ZM226.334 13.1103H221.117V10.3178H226.334C227.493 10.3178 227.967 10.9501 227.967 11.6877C227.967 12.4781 227.545 13.1103 226.334 13.1103Z" fill="#2F3B43"/>
<path d="M206.649 3.73218H205.903V32.8349H206.649V3.73218Z" fill="#2F3B43"/>
<path d="M51.7452 3.65735V10.3574H50.4584V7.38454H47.2637V10.3574H45.9769V3.65735H47.2637V6.34181H50.4584V3.65735H51.7452Z" fill="#2F3B43"/>
<path d="M57.4438 8.6935H54.5818L54.005 10.3574H52.6738L55.2474 3.65735H56.8004L59.3739 10.3574H58.0428L57.4438 8.6935ZM57.0888 7.71733L56.157 5.03286L56.0239 4.58914L55.8908 5.01067L54.9368 7.71733H57.0888Z" fill="#2F3B43"/>
<path d="M66.8082 9.3147V12.1767H65.6546V10.3574H60.2856V3.65735H61.5724V9.3147H64.6119V3.65735H65.8986V9.3147H66.8082Z" fill="#2F3B43"/>
<path d="M67.8766 3.65775H69.0968V8.71608L69.4074 8.22799L72.6243 3.63556H73.8445V10.3356H72.6243V5.25511L72.3359 5.69883L69.0968 10.3356H67.8766V3.65775Z" fill="#2F3B43"/>
<path d="M75.085 7.00735C75.085 4.87752 76.3274 3.50201 78.3684 3.50201C80.4095 3.50201 81.6519 4.85534 81.6519 7.00735C81.6519 9.11499 80.4095 10.4905 78.3684 10.4905C76.3274 10.4905 75.085 9.13718 75.085 7.00735ZM80.2986 7.00735C80.2986 5.45435 79.5443 4.56692 78.3906 4.56692C77.2148 4.56692 76.4605 5.47654 76.4605 7.00735C76.4605 8.53816 77.1926 9.4256 78.3906 9.4256C79.5443 9.4256 80.2986 8.56035 80.2986 7.00735Z" fill="#2F3B43"/>
<path d="M88.7054 3.65735V10.3574H87.4186V7.38454H84.2239V10.3574H82.9371V3.65735H84.2239V6.34181H87.4186V3.65735H88.7054Z" fill="#2F3B43"/>
<path d="M94.3837 8.6935H91.5439L90.9671 10.3574H89.636L92.2095 3.65735H93.7625L96.3361 10.3574H95.0049L94.3837 8.6935ZM94.0509 7.71733L93.1191 5.03286L92.986 4.58914L92.8529 5.01067L91.8989 7.71733H94.0509Z" fill="#2F3B43"/>
<path d="M96.6279 9.29251C97.1603 9.29251 97.4044 8.89316 97.6041 8.44945C97.9147 7.69514 97.9812 6.85208 98.07 5.94247L98.2474 3.65735H102.574V10.3574H101.287V4.67788H99.4011L99.2902 5.96466C99.1792 7.42891 99.0018 8.13885 98.8021 8.71568C98.314 10.069 97.5819 10.4018 96.6057 10.3574V9.29251H96.6279Z" fill="#2F3B43"/>
<path d="M109.649 8.31634C109.649 9.73623 108.717 10.3574 106.764 10.3574H104.191V3.65735H105.478V6.27526H106.764C108.739 6.27526 109.649 7.05176 109.649 8.31634ZM108.362 8.31634C108.362 7.6064 107.896 7.25143 106.764 7.25143H105.478V9.38125H106.764C107.874 9.38125 108.362 9.02629 108.362 8.31634Z" fill="#2F3B43"/>
<path d="M116.616 3.65735V10.3574H115.33V7.38454H112.135V10.3574H110.848V3.65735H112.135V6.34181H115.33V3.65735H116.616Z" fill="#2F3B43"/>
<path d="M123.713 8.31634C123.713 9.73623 122.781 10.3574 120.829 10.3574H118.255V3.65735H119.542V6.27526H120.829C122.781 6.27526 123.713 7.05176 123.713 8.31634ZM122.404 8.31634C122.404 7.6064 121.938 7.25143 120.807 7.25143H119.52V9.38125H120.807C121.938 9.38125 122.404 9.02629 122.404 8.31634ZM125.998 3.65735V10.3574H124.734V3.65735H125.998Z" fill="#2F3B43"/>
<path d="M127.67 3.65744H128.89V8.71578L129.201 8.22769L132.418 3.63526H133.638V10.3353H132.418V5.25481L132.129 5.69852L128.89 10.3353H127.67V3.65744ZM128.89 1.37231H129.822C129.867 1.99351 130.244 2.30412 130.643 2.30412C131.042 2.30412 131.42 1.97133 131.442 1.37231H132.396C132.351 2.37067 131.641 2.9475 130.643 2.9475C129.667 2.96969 128.913 2.37067 128.89 1.37231Z" fill="#2F3B43"/>
<path d="M143.814 9.3147V12.1767H142.66V10.3574H137.291V3.65735H138.578V9.3147H141.618V3.65735H142.904V9.3147H143.814Z" fill="#2F3B43"/>
<path d="M146.147 4.70007V6.40837H149.453V7.36235H146.147V9.3147H149.63V10.3574H144.882V3.65735H149.652V4.70007H146.147Z" fill="#2F3B43"/>
<path d="M156.815 3.65735V10.3574H155.529V7.38454H152.334V10.3574H151.047V3.65735H152.334V6.34181H155.529V3.65735H156.815Z" fill="#2F3B43"/>
<path d="M163.231 4.70007H161.189V10.3574H159.903V4.70007H157.862V3.65735H163.231V4.70007Z" fill="#2F3B43"/>
<path d="M169.734 5.78717C169.734 7.11831 168.891 7.917 166.85 7.917H165.563V10.3574H164.276V3.65735H166.85C168.869 3.65735 169.734 4.30073 169.734 5.78717ZM168.425 5.76499C168.425 5.01068 167.959 4.6557 166.828 4.6557H165.541V6.91864H166.828C167.959 6.91864 168.425 6.5193 168.425 5.76499Z" fill="#2F3B43"/>
<path d="M50.4362 15.8819H47.2637V21.5392H45.9769V14.8392H50.4141V15.8819H50.4362Z" fill="#2F3B43"/>
<path d="M50.9883 18.1892C50.9883 16.0594 52.2307 14.6839 54.2718 14.6839C56.3129 14.6839 57.5552 16.0372 57.5552 18.1892C57.5552 20.2969 56.3129 21.6724 54.2718 21.6724C52.2307 21.6724 50.9883 20.3191 50.9883 18.1892ZM56.1797 18.1892C56.1797 16.6362 55.4254 15.7488 54.2718 15.7488C53.0959 15.7488 52.3416 16.6584 52.3416 18.1892C52.3416 19.7201 53.0737 20.6075 54.2718 20.6075C55.4476 20.6075 56.1797 19.7422 56.1797 18.1892Z" fill="#2F3B43"/>
<path d="M58.4712 18.211C58.4712 16.0812 59.6914 14.7057 61.7103 14.7057C63.2633 14.7057 64.2838 15.5266 64.7054 16.8577L63.4408 17.2127C63.1524 16.2809 62.5534 15.7706 61.6881 15.7706C60.5345 15.7706 59.8245 16.6802 59.8245 18.211C59.8245 19.7197 60.5345 20.6293 61.6881 20.6293C62.5312 20.6293 63.1524 20.0968 63.4408 19.1872L64.7054 19.5422C64.2617 20.8733 63.2633 21.6942 61.7103 21.6942C59.6914 21.672 58.4712 20.3187 58.4712 18.211Z" fill="#2F3B43"/>
<path d="M65.8984 21.5609V20.5182C66.2534 20.5847 66.5418 20.5847 66.6305 20.5847C67.1408 20.5847 67.5623 20.3407 67.5623 19.7417C67.5623 19.5198 67.4736 19.2536 67.3183 18.9652L65.1663 14.8165H66.5418L68.4054 18.6768L70.1359 14.8165H71.4892L69.1597 19.6529C68.5163 20.9841 67.9838 21.6497 66.6971 21.6497C66.4752 21.6497 66.1646 21.6497 65.8984 21.5609Z" fill="#2F3B43"/>
<path d="M78.1946 20.4965V23.0257H77.0853V21.5614H72.3153V23.0257H71.2061V20.4965H71.8716C72.515 19.4316 72.6925 18.3889 72.8034 17.1243L72.9587 14.8392H77.3293V20.4965H78.1946ZM74.0458 17.1021C73.9571 18.3223 73.7574 19.4982 73.2693 20.4743H76.0869V15.8597H74.1124L74.0458 17.1021Z" fill="#2F3B43"/>
<path d="M83.3421 19.8753H80.5023L79.9255 21.5392H78.5944L81.1679 14.8392H82.7209L85.2944 21.5392H83.9633L83.3421 19.8753ZM83.0093 18.8992L82.0775 16.2147L81.9444 15.771L81.8113 16.1925L80.8573 18.8992H83.0093Z" fill="#2F3B43"/>
<path d="M91.6562 16.969C91.6562 18.3001 90.8131 19.0988 88.772 19.0988H87.4853V21.5392H86.1985V14.8392H88.772C90.8131 14.8392 91.6562 15.4826 91.6562 16.969ZM90.3694 16.9468C90.3694 16.1925 89.9035 15.8375 88.772 15.8375H87.4853V18.1005H88.772C89.8813 18.1005 90.3694 17.7011 90.3694 16.9468Z" fill="#2F3B43"/>
<path d="M92.4333 18.211C92.4333 16.0812 93.6536 14.7057 95.6725 14.7057C97.2255 14.7057 98.246 15.5266 98.6675 16.8577L97.4029 17.2127C97.1145 16.2809 96.5155 15.7706 95.6503 15.7706C94.4966 15.7706 93.7867 16.6802 93.7867 18.211C93.7867 19.7197 94.4966 20.6293 95.6503 20.6293C96.4933 20.6293 97.1145 20.0968 97.4029 19.1872L98.6675 19.5422C98.2238 20.8733 97.2255 21.6942 95.6725 21.6942C93.6536 21.672 92.4333 20.3187 92.4333 18.211Z" fill="#2F3B43"/>
<path d="M104.528 15.8819H102.487V21.5392H101.2V15.8819H99.1588V14.8392H104.528V15.8819Z" fill="#2F3B43"/>
<path d="M111.164 19.72C111.164 20.9181 110.255 21.5392 108.28 21.5392H105.573V14.8392H108.191C110.099 14.8392 110.898 15.416 110.898 16.5918C110.898 17.3683 110.477 17.9008 109.523 18.0561C110.499 18.167 111.164 18.766 111.164 19.72ZM106.838 15.771V17.6124H108.214C109.212 17.6124 109.7 17.2796 109.7 16.7028C109.7 16.0816 109.234 15.771 108.169 15.771H106.838ZM109.855 19.5647C109.855 18.8548 109.323 18.4998 108.191 18.4998H106.816V20.5853H108.236C109.389 20.5853 109.855 20.2081 109.855 19.5647Z" fill="#2F3B43"/>
<path d="M113.686 15.8819V17.5902H116.992V18.5442H113.686V20.4965H117.169V21.5392H112.399V14.8392H117.169V15.8819H113.686Z" fill="#2F3B43"/>
<path d="M124.357 14.8392V21.5392H123.07V18.5664H119.876V21.5392H118.589V14.8392H119.876V17.5236H123.07V14.8392H124.357Z" fill="#2F3B43"/>
<path d="M131.749 14.8392V21.5392H130.462V18.5664H127.267V21.5392H125.981V14.8392H127.267V17.5236H130.462V14.8392H131.749Z" fill="#2F3B43"/>
<path d="M133.034 18.1892C133.034 16.0594 134.276 14.6839 136.317 14.6839C138.358 14.6839 139.601 16.0372 139.601 18.1892C139.601 20.2969 138.358 21.6724 136.317 21.6724C134.276 21.6724 133.034 20.3191 133.034 18.1892ZM138.225 18.1892C138.225 16.6362 137.471 15.7488 136.317 15.7488C135.141 15.7488 134.387 16.6584 134.387 18.1892C134.387 19.7201 135.119 20.6075 136.317 20.6075C137.493 20.6075 138.225 19.7422 138.225 18.1892Z" fill="#2F3B43"/>
<path d="M140.397 17.6129H143.614V18.4781H140.397V17.6129Z" fill="#2F3B43"/>
<path d="M149.98 14.8392V21.5614H148.694V18.7439C148.294 18.9879 147.74 19.1876 147.008 19.1876C145.61 19.1876 144.456 18.522 144.456 16.9246V14.8614H145.743V16.7915C145.743 17.7677 146.253 18.1227 147.229 18.1227C147.962 18.1227 148.405 17.9008 148.694 17.6124V14.8392H149.98Z" fill="#2F3B43"/>
<path d="M155.683 19.8753H152.843L152.266 21.5392H150.935L153.509 14.8392H155.062L157.635 21.5392H156.304L155.683 19.8753ZM155.328 18.8992L154.396 16.2147L154.263 15.771L154.13 16.1925L153.176 18.8992H155.328Z" fill="#2F3B43"/>
<path d="M157.897 18.211C157.897 16.0812 159.118 14.7057 161.137 14.7057C162.69 14.7057 163.71 15.5266 164.132 16.8577L162.867 17.2127C162.579 16.2809 161.98 15.7706 161.114 15.7706C159.961 15.7706 159.251 16.6802 159.251 18.211C159.251 19.7197 159.961 20.6293 161.114 20.6293C161.957 20.6293 162.579 20.0968 162.867 19.1872L164.132 19.5422C163.688 20.8733 162.69 21.6942 161.137 21.6942C159.118 21.672 157.897 20.3187 157.897 18.211Z" fill="#2F3B43"/>
<path d="M169.997 15.8819H167.956V21.5392H166.67V15.8819H164.629V14.8392H169.997V15.8819Z" fill="#2F3B43"/>
<path d="M176.787 14.8392V21.5392H175.5V18.5664H172.305V21.5392H171.019V14.8392H172.305V17.5236H175.5V14.8392H176.787Z" fill="#2F3B43"/>
<path d="M178.07 18.1892C178.07 16.0594 179.312 14.6839 181.353 14.6839C183.394 14.6839 184.637 16.0372 184.637 18.1892C184.637 20.2969 183.394 21.6724 181.353 21.6724C179.312 21.6724 178.07 20.3191 178.07 18.1892ZM183.261 18.1892C183.261 16.6362 182.507 15.7488 181.353 15.7488C180.177 15.7488 179.423 16.6584 179.423 18.1892C179.423 19.7201 180.155 20.6075 181.353 20.6075C182.529 20.6075 183.261 19.7422 183.261 18.1892Z" fill="#2F3B43"/>
<path d="M190.363 15.8819H187.19V21.5392H185.903V14.8392H190.34V15.8819H190.363Z" fill="#2F3B43"/>
<path d="M190.913 18.1892C190.913 16.0594 192.155 14.6839 194.196 14.6839C196.237 14.6839 197.48 16.0372 197.48 18.1892C197.48 20.2969 196.237 21.6724 194.196 21.6724C192.155 21.6724 190.913 20.3191 190.913 18.1892ZM196.104 18.1892C196.104 16.6362 195.35 15.7488 194.196 15.7488C193.02 15.7488 192.266 16.6584 192.266 18.1892C192.266 19.7201 192.998 20.6075 194.196 20.6075C195.372 20.6075 196.104 19.7422 196.104 18.1892Z" fill="#2F3B43"/>
<path d="M51.7452 32.7221H50.4584V27.0647H47.2637V32.7221H45.9769V26.022H51.7452V32.7221Z" fill="#2F3B43"/>
<path d="M57.4438 31.0581H54.5818L54.005 32.7221H52.6738L55.2474 26.022H56.8004L59.3739 32.7221H58.0428L57.4438 31.0581ZM57.0888 30.082L56.157 27.3975L56.0239 26.9538L55.8908 27.3753L54.9368 30.082H57.0888Z" fill="#2F3B43"/>
<path d="M65.7622 28.1518C65.7622 29.4829 64.9192 30.2816 62.8781 30.2816H61.5913V32.7221H60.3046V26.022H62.8781C64.897 26.022 65.7622 26.6654 65.7622 28.1518ZM64.4533 28.1296C64.4533 27.3753 63.9874 27.0203 62.8559 27.0203H61.5692V29.2833H62.8559C63.9874 29.2833 64.4533 28.8839 64.4533 28.1296Z" fill="#2F3B43"/>
<path d="M71.7095 27.0647H69.6684V32.7221H68.3817V27.0647H66.3406V26.022H71.7095V27.0647Z" fill="#2F3B43"/>
<path d="M78.5009 26.022V32.7221H77.2142V29.7492H74.0194V32.7221H72.7327V26.022H74.0194V28.7064H77.2142V26.022H78.5009Z" fill="#2F3B43"/>
<path d="M81.4303 27.0647V28.773H84.736V29.727H81.4303V31.6793H84.9135V32.7221H80.1436V26.022H84.9135V27.0647H81.4303Z" fill="#2F3B43"/>
<path d="M91.7926 28.1518C91.7926 29.4829 90.9496 30.2816 88.9085 30.2816H87.6217V32.7221H86.335V26.022H88.9085C90.9274 26.022 91.7926 26.6654 91.7926 28.1518ZM90.4837 28.1296C90.4837 27.3753 90.0178 27.0203 88.8863 27.0203H87.5995V29.2833H88.8863C90.0178 29.2833 90.4837 28.8839 90.4837 28.1296Z" fill="#2F3B43"/>
<path d="M92.5452 29.3919C92.5452 27.2621 93.7654 25.8865 95.7843 25.8865C97.3373 25.8865 98.3578 26.7074 98.7794 28.0385L97.5148 28.3935C97.2264 27.4617 96.6273 26.9515 95.7621 26.9515C94.6084 26.9515 93.8985 27.8611 93.8985 29.3919C93.8985 30.9005 94.6084 31.8101 95.7621 31.8101C96.6051 31.8101 97.2264 31.2777 97.5148 30.368L98.7794 30.723C98.3356 32.0542 97.3373 32.875 95.7843 32.875C93.7876 32.8528 92.5452 31.4995 92.5452 29.3919Z" fill="#2F3B43"/>
<path d="M104.657 27.0647H102.615V32.7221H101.329V27.0647H99.2876V26.022H104.657V27.0647Z" fill="#2F3B43"/>
<path d="M111.293 30.9028C111.293 32.1009 110.384 32.7221 108.409 32.7221H105.702V26.022H108.32C110.228 26.022 111.027 26.5988 111.027 27.7746C111.027 28.5511 110.605 29.0836 109.651 29.2389C110.628 29.3498 111.293 29.9488 111.293 30.9028ZM106.945 26.9538V28.7952H108.32C109.319 28.7952 109.807 28.4624 109.807 27.8856C109.807 27.2644 109.341 26.9538 108.276 26.9538H106.945ZM109.984 30.7475C109.984 30.0376 109.452 29.6826 108.32 29.6826H106.945V31.7681H108.365C109.496 31.7681 109.984 31.3909 109.984 30.7475Z" fill="#2F3B43"/>
<path d="M116.571 31.0581H113.731L113.155 32.7221H111.823L114.397 26.022H115.95L118.524 32.7221H117.192L116.571 31.0581ZM116.216 30.082L115.284 27.3975L115.151 26.9538L115.018 27.3753L114.064 30.082H116.216Z" fill="#2F3B43"/>
</svg>
