<svg width="50" height="50" viewBox="0 0 50 50" fill="none" xmlns="http://www.w3.org/2000/svg">
<path opacity="0.08" fill-rule="evenodd" clip-rule="evenodd" d="M24.7485 7.18639C29.3484 8.36236 31.1707 12.8882 35.108 15.2139C39.1629 17.6091 45.8461 17.1019 47.9404 20.8856C50.022 24.6462 46.8373 28.9599 44.8097 32.7414C42.9884 36.1379 40.527 39.2212 36.9408 41.3993C33.3666 43.5701 29.1461 45.1271 24.7485 44.9256C20.4776 44.7299 17.073 42.2843 13.4819 40.3243C9.6505 38.2332 4.36746 36.8715 3.1806 33.1544C1.99498 29.4411 7.00413 26.3864 7.82372 22.6035C8.85743 17.8322 4.63244 11.9802 8.53907 8.42162C12.3178 4.97952 19.4263 5.82577 24.7485 7.18639Z" fill="#23346B"/>
<path d="M18.1799 10.1555C18.3507 9.92517 18.542 9.71067 18.7513 9.51463C19.6359 8.68626 20.8024 8.22534 22.0143 8.22534H23.2724C27.2964 8.22534 30.5586 11.4875 30.5586 15.5115V16.0319C30.5586 19.7685 27.5295 22.7976 23.7929 22.7976C20.0563 22.7976 17.0272 19.7685 17.0272 16.0319V13.5683C17.0272 12.3615 17.4152 11.1867 18.1341 10.2173L18.1799 10.1555Z" fill="white"/>
<path d="M38.7851 36.722C38.6782 36.867 38.5585 37.002 38.4274 37.1255L37.9297 37.5944C37.3731 38.1187 36.6373 38.4107 35.8726 38.4107L30.435 38.4107C28.7782 38.4107 27.435 37.0676 27.435 35.4107L27.435 27.8793C27.435 26.2225 28.7782 24.8793 30.435 24.8793L36.9255 24.8793C38.5824 24.8793 39.9255 26.2225 39.9255 27.8793L39.9255 34.1887C39.9255 34.8293 39.7205 35.4531 39.3403 35.9688L38.7851 36.722Z" fill="white"/>
<path d="M28.9277 37.024C27.9905 36.5133 27.4073 35.5313 27.4073 34.4639V26.2257C27.9334 26.4476 28.5116 26.5705 29.1185 26.5705C30.3532 26.5705 31.4687 26.0623 32.2685 25.244C31.1128 23.655 29.24 22.6211 27.1248 22.6211H25.5455H21.7341H20.1548C16.6436 22.6211 13.7972 25.4675 13.7972 28.9788V39.557H33.4823V39.506L28.9277 37.024Z" fill="white"/>
<path d="M39.746 25.2905C39.2294 25.2905 38.8106 25.7093 38.8106 26.2259V34.4641C38.8106 35.1894 38.4149 35.8556 37.7779 36.2027L33.5772 38.4917L29.3765 36.2027C28.7396 35.8557 28.3438 35.1895 28.3438 34.4641V27.4504C28.5991 27.4875 28.858 27.5062 29.1196 27.5062C29.199 27.5062 29.278 27.5037 29.3568 27.5002C29.3775 27.4993 29.3983 27.4985 29.4188 27.4973C29.4899 27.4934 29.5607 27.4884 29.6311 27.4816C29.6648 27.4785 29.6982 27.4743 29.7317 27.4705C29.7663 27.4664 29.8009 27.4622 29.8354 27.4576C30.7862 27.3312 31.6753 26.9536 32.4276 26.357C32.4505 26.339 32.4734 26.3209 32.4961 26.3024C32.5231 26.2802 32.5501 26.2579 32.5767 26.2352C32.6306 26.1894 32.6837 26.1427 32.7357 26.0949C32.7444 26.087 32.7529 26.0787 32.7614 26.0707C32.8212 26.0151 32.8798 25.9581 32.937 25.8997C32.9376 25.8992 32.938 25.8987 32.9386 25.8981C32.9386 25.8981 32.9388 25.8979 32.939 25.8978C33.1749 25.6566 33.3893 25.3923 33.5779 25.1067C34.0297 25.7878 34.6372 26.3664 35.3438 26.7794C35.7898 27.0401 36.3628 26.8898 36.6234 26.4437C36.8841 25.9977 36.7338 25.4247 36.2878 25.1641C35.659 24.7967 35.1512 24.2282 34.8577 23.5633C34.7082 23.2243 34.3725 23.0056 34.0019 23.0056H33.1521C32.7816 23.0056 32.4459 23.2243 32.2963 23.5633C32.2683 23.627 32.2371 23.6887 32.2056 23.75C31.3945 22.9642 30.4127 22.3784 29.3451 22.0355C30.401 21.0303 31.061 19.613 31.061 18.0436V13.7398C31.061 13.2232 30.6423 12.8044 30.1256 12.8044C29.6089 12.8044 29.1902 13.2232 29.1902 13.7398V18.0434C29.1902 20.0368 27.5809 21.6606 25.5934 21.6858H21.6884C19.7009 21.6605 18.0917 20.0367 18.0917 18.0434V13.7398C18.0917 11.7307 19.7262 10.0962 21.7353 10.0962H25.5467C26.0634 10.0962 26.4822 9.67743 26.4822 9.16078C26.4822 8.64412 26.0634 8.22534 25.5467 8.22534H21.7353C18.6946 8.22534 16.2208 10.6991 16.2208 13.7398V18.0434C16.2208 19.6116 16.88 21.028 17.9344 22.033C14.9962 22.975 12.863 25.732 12.863 28.9788V39.5571C12.863 40.0737 13.2818 40.4925 13.7984 40.4925H33.4835C33.5011 40.4925 33.5181 40.4908 33.5355 40.4899C33.5494 40.4905 33.5633 40.4925 33.5772 40.4925C33.7311 40.4925 33.8852 40.4545 34.0248 40.3785L38.6731 37.8456C39.912 37.1706 40.6815 35.8749 40.6815 34.4642V26.226C40.6815 25.7093 40.2627 25.2905 39.746 25.2905ZM14.734 38.6216V28.9789C14.734 25.9891 17.1664 23.5568 20.1562 23.5568H21.6885C21.7042 23.5568 21.7197 23.558 21.7353 23.558H22.7055V32.6436C22.7055 33.1603 23.1243 33.5791 23.641 33.5791C24.1576 33.5791 24.5764 33.1603 24.5764 32.6436V23.558H25.5466C25.5623 23.558 25.5777 23.5569 25.5934 23.5568H27.1258C28.5556 23.5568 29.9251 24.1296 30.9325 25.1208C30.54 25.3616 30.1003 25.5264 29.6355 25.5963C29.6324 25.5968 29.6294 25.5975 29.6262 25.5979C29.5538 25.6086 29.4806 25.6161 29.4072 25.6221C29.3953 25.6231 29.3836 25.6249 29.3717 25.6258C29.2937 25.6315 29.2151 25.6341 29.1362 25.6345C29.1305 25.6345 29.1249 25.635 29.1193 25.635C28.6516 25.635 28.1982 25.5438 27.7717 25.3639C27.483 25.242 27.1523 25.273 26.8909 25.4463C26.6298 25.6197 26.4727 25.9123 26.4727 26.2259V34.464C26.4727 34.9049 26.5478 35.3345 26.689 35.7374C26.9995 36.624 27.6294 37.3814 28.481 37.8455L29.9053 38.6215H14.734V38.6216Z" fill="#23346B"/>
<path d="M31.9176 31.9989L33.4839 32.8721L36.1272 30.5335" fill="#E9BEBF"/>
<path d="M33.4849 33.8072C33.329 33.8072 33.1722 33.7683 33.0297 33.6888L31.4633 32.8158C31.0121 32.5643 30.8501 31.9945 31.1017 31.5432C31.3532 31.0918 31.9229 30.9299 32.3743 31.1816L33.3618 31.732L35.5086 29.8326C35.8954 29.4901 36.4867 29.5263 36.8291 29.9133C37.1715 30.3002 37.1352 30.8914 36.7483 31.2338L34.1051 33.5724C33.9299 33.7273 33.7084 33.8072 33.4849 33.8072Z" fill="#23346B"/>
</svg>
