<svg width="56" height="51" viewBox="0 0 56 51" fill="none" xmlns="http://www.w3.org/2000/svg">
<path opacity="0.08" fill-rule="evenodd" clip-rule="evenodd" d="M26.4167 2.42301C32.004 3.90612 34.2175 9.61407 38.9999 12.5472C43.9252 15.568 52.0428 14.9282 54.5867 19.7002C57.1151 24.443 53.2469 29.8834 50.784 34.6525C48.5718 38.9361 45.5821 42.8247 41.2261 45.5717C36.8847 48.3094 31.7582 50.2731 26.4167 50.019C21.2291 49.7722 17.0937 46.6878 12.7318 44.216C8.07801 41.5787 1.66098 39.8613 0.219365 35.1733C-1.22075 30.4902 4.8636 26.6377 5.85912 21.8667C7.1147 15.8494 1.98284 8.46894 6.728 3.98086C11.3178 -0.360253 19.9521 0.707025 26.4167 2.42301Z" fill="#23346B"/>
<path d="M41.7631 27.6951C41.7631 30.8926 40.8149 34.0182 39.0385 36.6767C37.2621 39.3353 34.7373 41.4074 31.7833 42.631C28.8292 43.8546 25.5787 44.1747 22.4427 43.5509C19.3067 42.9272 16.4261 41.3875 14.1652 39.1265C11.9043 36.8656 10.3646 33.985 9.74081 30.8491C9.11702 27.7131 9.43717 24.4625 10.6608 21.5085C11.8844 18.5545 13.9565 16.0296 16.615 14.2532C19.2736 12.4768 22.3992 11.5287 25.5966 11.5287V27.6951H41.7631Z" fill="white"/>
<path d="M30.9849 7.48705C33.1079 7.48705 35.2102 7.90521 37.1716 8.71765C39.133 9.53009 40.9151 10.7209 42.4163 12.2221C43.9175 13.7233 45.1083 15.5055 45.9208 17.4669C46.7332 19.4283 47.1514 21.5305 47.1514 23.6535L30.9849 23.6535L30.9849 7.48705Z" fill="white"/>
<path d="M42.8779 27.925H26.6953L37.1828 40.2383C40.667 37.274 42.8779 32.858 42.8779 27.925Z" fill="white"/>
<path d="M42.8779 27.925H26.6953L37.1828 40.2383C40.667 37.274 42.8779 32.858 42.8779 27.925Z" fill="white"/>
<path d="M44.0014 27.9249C44.0014 27.3041 43.498 26.8007 42.8772 26.8007H27.8187V11.7643C27.8187 11.4659 27.7 11.1797 27.4888 10.9688C27.2781 10.7583 26.9922 10.64 26.6945 10.64C26.694 10.64 26.6935 10.64 26.6929 10.64C17.1748 10.6527 9.43115 18.4067 9.43115 27.9249C9.43115 37.4558 17.1852 45.2101 26.7163 45.2101C30.8156 45.2101 34.7911 43.7485 37.9105 41.0946C37.9111 41.0941 37.9115 41.0937 37.912 41.0932C41.7819 37.8 44.0014 33.0005 44.0014 27.9249C44.0014 27.925 44.0014 27.925 44.0014 27.9249ZM11.6797 27.9249C11.6797 20.0234 17.8138 13.5196 25.5702 12.9319V26.8007H17.7237C17.1028 26.8007 16.5994 27.3041 16.5994 27.9249C16.5994 28.5458 17.1028 29.0492 17.7237 29.0492H26.1751L35.5692 40.0787C33.0084 41.9447 29.9055 42.9615 26.7163 42.9615C18.425 42.9616 11.6797 36.2162 11.6797 27.9249ZM37.2823 38.6222L29.129 29.0494H41.711C41.4406 32.6719 39.8701 36.0666 37.2823 38.6222Z" fill="#23346B"/>
<path d="M46.9946 16.3687L46.9079 16.1801C46.0578 14.3463 44.896 12.6855 43.4902 11.2666L43.2921 11.0704C41.8598 9.6701 40.1864 8.51532 38.3398 7.67683L38.1607 7.59793C36.0343 6.66124 33.6853 6.13989 31.2166 6.13989L31.1779 6.14035C30.5636 6.14958 30.0703 6.65009 30.0703 7.26454V23.425C30.0703 24.0459 30.5737 24.5493 31.1946 24.5493H39.2432C39.2454 24.5493 39.2478 24.5496 39.2501 24.5496C39.2883 24.5496 39.3264 24.5474 39.3645 24.5435C39.3669 24.5433 39.369 24.5427 39.3714 24.5425C39.4056 24.5388 39.4395 24.5337 39.4733 24.527C39.4826 24.5251 39.4917 24.5224 39.501 24.5203C39.5275 24.5142 39.5538 24.5079 39.5799 24.5001C39.5903 24.4968 39.6003 24.4927 39.6105 24.4893C39.635 24.481 39.6595 24.4727 39.6835 24.4625C39.693 24.4586 39.7018 24.4539 39.7111 24.4497C39.7353 24.4388 39.7593 24.4278 39.7828 24.4151C39.7909 24.4108 39.7985 24.4058 39.8064 24.4013C39.8301 24.3877 39.8538 24.3739 39.8767 24.3584C39.884 24.3536 39.8907 24.348 39.8978 24.343C39.9204 24.327 39.943 24.3109 39.9646 24.293C39.9713 24.2876 39.9772 24.2814 39.9837 24.2759C40.0044 24.258 40.0253 24.2402 40.045 24.2205L45.5105 18.756C45.992 20.2265 46.253 21.7959 46.253 23.4252C46.253 24.046 46.7564 24.5494 47.3773 24.5494C47.9981 24.5494 48.5018 24.0458 48.5018 23.425C48.5018 20.9129 47.9625 18.5245 46.9946 16.3687ZM32.319 15.728L38.0258 10.0212C39.089 10.5635 40.0798 11.2284 40.9788 11.9977L32.3191 20.6582V15.728H32.319ZM35.7725 9.09443L32.319 12.5479V8.42832C33.514 8.51547 34.6705 8.74333 35.7725 9.09443ZM38.785 22.3008H33.8563L42.5738 13.5825C43.3485 14.4751 44.0203 15.4593 44.5697 16.517L38.785 22.3008Z" fill="#23346B"/>
</svg>
