<svg width="47" height="39" viewBox="0 0 47 39" fill="none" xmlns="http://www.w3.org/2000/svg">
<path opacity="0.08" fill-rule="evenodd" clip-rule="evenodd" d="M22.142 1.22888C26.7419 2.40485 28.5643 6.93073 32.5016 9.25644C36.5565 11.6516 43.2396 11.1444 45.334 14.9281C47.4155 18.6887 44.2309 23.0024 42.2032 26.7839C40.382 30.1804 37.9206 33.2637 34.3344 35.4418C30.7602 37.6126 26.5396 39.1696 22.142 38.9681C17.8712 38.7724 14.4666 36.3268 10.8754 34.3668C7.04406 32.2757 1.76101 30.914 0.574155 27.1968C-0.611468 23.4836 4.39769 20.4289 5.21728 16.646C6.25098 11.8747 2.02599 6.02274 5.93262 2.46412C9.71133 -0.977985 16.8198 -0.131732 22.142 1.22888Z" fill="#23346B"/>
<path d="M15.5736 4.19803C15.7445 3.96765 15.9357 3.75315 16.1451 3.55711C17.0296 2.72874 18.1962 2.26782 19.408 2.26782H20.6662C24.6902 2.26782 27.9523 5.52994 27.9523 9.55396V10.0744C27.9523 13.811 24.9232 16.8401 21.1866 16.8401C17.45 16.8401 14.4209 13.811 14.4209 10.0744V7.61081C14.4209 6.404 14.809 5.22918 15.5278 4.25983L15.5736 4.19803Z" fill="white"/>
<path d="M36.1789 30.7645C36.072 30.9094 35.9523 31.0445 35.8212 31.168L35.3235 31.6368C34.7669 32.1612 34.0311 32.4532 33.2664 32.4532L27.8288 32.4532C26.172 32.4532 24.8288 31.11 24.8288 29.4532L24.8288 21.9218C24.8288 20.2649 26.172 18.9218 27.8288 18.9218L34.3193 18.9218C35.9762 18.9218 37.3193 20.2649 37.3193 21.9218L37.3193 28.2311C37.3193 28.8718 37.1143 29.4956 36.7341 30.0113L36.1789 30.7645Z" fill="white"/>
<path d="M26.322 31.0664C25.3847 30.5558 24.8015 29.5738 24.8015 28.5064V20.2682C25.3277 20.4901 25.9058 20.6129 26.5127 20.6129C27.7475 20.6129 28.8629 20.1048 29.6628 19.2864C28.507 17.6975 26.6342 16.6636 24.519 16.6636H22.9398H19.1283H17.5491C14.0379 16.6636 11.1914 19.51 11.1914 23.0212V33.5995H30.8765V33.5484L26.322 31.0664Z" fill="white"/>
<path d="M37.1399 19.333C36.6232 19.333 36.2044 19.7517 36.2044 20.2684V28.5066C36.2044 29.2319 35.8087 29.898 35.1717 30.2452L30.971 32.5342L26.7703 30.2452C26.1334 29.8982 25.7377 29.232 25.7377 28.5066V21.4929C25.993 21.53 26.2518 21.5486 26.5135 21.5486C26.5928 21.5486 26.6718 21.5462 26.7506 21.5427C26.7713 21.5418 26.7921 21.5409 26.8126 21.5398C26.8837 21.5359 26.9546 21.5309 27.025 21.5241C27.0586 21.521 27.092 21.5167 27.1255 21.513C27.1601 21.5089 27.1947 21.5047 27.2292 21.5C28.18 21.3737 29.0691 20.9961 29.8214 20.3995C29.8444 20.3815 29.8672 20.3634 29.8899 20.3449C29.917 20.3227 29.9439 20.3004 29.9705 20.2777C30.0244 20.2319 30.0775 20.1852 30.1295 20.1374C30.1382 20.1294 30.1467 20.1212 30.1553 20.1132C30.215 20.0575 30.2736 20.0006 30.3308 19.9422C30.3314 19.9416 30.3318 19.9412 30.3324 19.9406C30.3325 19.9406 30.3327 19.9404 30.3328 19.9402C30.5687 19.6991 30.7831 19.4347 30.9717 19.1492C31.4235 19.8303 32.031 20.4089 32.7376 20.8219C33.1837 21.0826 33.7566 20.9323 34.0172 20.4862C34.278 20.0402 34.1277 19.4672 33.6816 19.2066C33.0529 18.8392 32.545 18.2707 32.2516 17.6058C32.102 17.2668 31.7663 17.048 31.3958 17.048H30.5459C30.1754 17.048 29.8398 17.2667 29.6902 17.6058C29.6621 17.6695 29.6309 17.7311 29.5994 17.7925C28.7884 17.0066 27.8065 16.4209 26.739 16.0779C27.7948 15.0728 28.4549 13.6555 28.4549 12.0861V7.78231C28.4549 7.26565 28.0361 6.84687 27.5194 6.84687C27.0028 6.84687 26.584 7.26565 26.584 7.78231V12.0859C26.584 14.0793 24.9747 15.703 22.9873 15.7282H19.0822C17.0948 15.703 15.4855 14.0792 15.4855 12.0859V7.78231C15.4855 5.77323 17.12 4.13869 19.1291 4.13869H22.9406C23.4572 4.13869 23.876 3.71991 23.876 3.20326C23.876 2.6866 23.4572 2.26782 22.9406 2.26782H19.1291C16.0884 2.26782 13.6146 4.74162 13.6146 7.78231V12.0859C13.6146 13.6541 14.2738 15.0705 15.3282 16.0755C12.3901 17.0175 10.2568 19.7744 10.2568 23.0213V33.5996C10.2568 34.1162 10.6756 34.535 11.1923 34.535H30.8774C30.8949 34.535 30.912 34.5333 30.9293 34.5324C30.9432 34.533 30.9571 34.535 30.971 34.535C31.125 34.535 31.2791 34.497 31.4187 34.421L36.067 31.8881C37.3058 31.213 38.0753 29.9174 38.0753 28.5067V20.2685C38.0753 19.7518 37.6565 19.333 37.1399 19.333ZM12.1278 32.6641V23.0214C12.1278 20.0316 14.5602 17.5992 17.55 17.5992H19.0824C19.098 17.5993 19.1135 17.6004 19.1291 17.6004H20.0993V26.6861C20.0993 27.2028 20.5181 27.6216 21.0348 27.6216C21.5514 27.6216 21.9702 27.2028 21.9702 26.6861V17.6004H22.9404C22.9561 17.6004 22.9716 17.5994 22.9872 17.5992H24.5196C25.9494 17.5992 27.319 18.172 28.3263 19.1633C27.9338 19.4041 27.4941 19.5689 27.0293 19.6388C27.0262 19.6393 27.0233 19.6399 27.02 19.6404C26.9476 19.651 26.8745 19.6585 26.801 19.6646C26.7891 19.6655 26.7775 19.6674 26.7656 19.6682C26.6875 19.674 26.6089 19.6766 26.53 19.6769C26.5244 19.6769 26.5188 19.6775 26.5132 19.6775C26.0454 19.6775 25.592 19.5863 25.1656 19.4064C24.8768 19.2845 24.5461 19.3154 24.2848 19.4888C24.0236 19.6621 23.8665 19.9547 23.8665 20.2683V28.5065C23.8665 28.9474 23.9417 29.377 24.0828 29.7799C24.3933 30.6665 25.0232 31.4239 25.8749 31.888L27.2991 32.664H12.1278V32.6641Z" fill="#23346B"/>
<path d="M29.3115 26.0414L30.8779 26.9146L33.5211 24.576" fill="#E9BEBF"/>
<path d="M30.8787 27.8496C30.7228 27.8496 30.566 27.8108 30.4235 27.7313L28.8571 26.8582C28.4059 26.6067 28.2439 26.0369 28.4955 25.5856C28.747 25.1343 29.3167 24.9724 29.7681 25.224L30.7556 25.7745L32.9024 23.875C33.2892 23.5326 33.8805 23.5687 34.2229 23.9558C34.5653 24.3427 34.529 24.9339 34.1421 25.2763L31.4989 27.6149C31.3237 27.7697 31.1022 27.8496 30.8787 27.8496Z" fill="#23346B"/>
</svg>
