<svg width="48" height="44" viewBox="0 0 48 44" fill="none" xmlns="http://www.w3.org/2000/svg">
<path opacity="0.08" fill-rule="evenodd" clip-rule="evenodd" d="M24.783 0.918796C29.9826 1.44294 29.7774 8.88846 33.8787 11.7446C37.6701 14.3849 45.2354 12.4439 47.0102 16.3978C48.7499 20.2735 43.5143 23.8729 40.8771 27.3355C38.9592 29.8536 36.1399 31.4342 33.839 33.6912C30.6372 36.832 29.5741 42.8741 24.783 43.1228C20.0824 43.3668 18.6923 37.1426 14.9145 34.6736C11.2085 32.2514 5.51666 32.3831 3.07791 28.937C0.451005 25.225 -0.39457 20.0994 1.83552 16.1922C4.01569 12.3725 10.1556 12.3245 14.0326 9.74406C18.04 7.07685 19.788 0.415291 24.783 0.918796Z" fill="#23346B"/>
<path d="M27 15.5L23 12L17 18.5L14.5 16L8.5 22L9.5 33.5L15.5059 33.2451L34.6992 33.7598V9L27 15.5Z" fill="white"/>
<path d="M14.3386 23.4989L9.27734 28.6953V33.5875H15.5326V24.8439L14.3386 23.4989Z" fill="white"/>
<path d="M34.4075 34.4515C33.9304 34.4515 33.5436 34.0646 33.5436 33.5875V18.3955L31.5925 20.2581C31.2473 20.5876 30.7005 20.575 30.3709 20.2298C30.0414 19.8846 30.054 19.3377 30.3992 19.0082L33.8109 15.7514C34.061 15.5126 34.4293 15.4458 34.7473 15.582C35.0653 15.718 35.2714 16.0305 35.2714 16.3763V33.5875C35.2715 34.0646 34.8847 34.4515 34.4075 34.4515Z" fill="#23346B"/>
<path d="M30.9954 32.7236H29.0158V22.3477C29.0158 22.3087 29.0122 22.2705 29.0073 22.2327C29.0061 22.2238 29.0047 22.2149 29.0032 22.2058C28.9973 22.1698 28.9897 22.1345 28.9794 22.1001C28.9789 22.0987 28.9787 22.0972 28.9782 22.0958C28.9671 22.0591 28.953 22.0238 28.9373 21.9893C28.9342 21.9824 28.9308 21.9757 28.9274 21.9689C28.9122 21.9379 28.8956 21.9077 28.877 21.879C28.875 21.8759 28.8733 21.8727 28.8713 21.8697C28.8509 21.839 28.8283 21.8102 28.8043 21.7824C28.7984 21.7756 28.7922 21.7691 28.7861 21.7623C28.7639 21.7383 28.7406 21.7154 28.7159 21.6941C28.7122 21.6909 28.7087 21.6874 28.7049 21.6842C28.6764 21.6604 28.646 21.639 28.6147 21.619C28.6077 21.6145 28.6006 21.6103 28.5935 21.6061C28.5607 21.5865 28.5271 21.5684 28.4917 21.5533C28.4561 21.538 28.419 21.5258 28.381 21.5154C28.3733 21.5132 28.3656 21.5114 28.3578 21.5095C28.3239 21.5012 28.2894 21.4945 28.254 21.4903C28.2507 21.4899 28.2475 21.4892 28.2441 21.4888C28.2137 21.4856 28.183 21.4838 28.1518 21.4838C28.1455 21.4838 28.1394 21.4846 28.133 21.4847C28.1233 21.4849 28.1136 21.4857 28.1039 21.4862C28.073 21.4879 28.0425 21.4911 28.0125 21.4961C28.0055 21.4972 27.9986 21.4979 27.9916 21.4993C27.9543 21.5063 27.9178 21.5156 27.8824 21.5272C27.8772 21.529 27.8722 21.531 27.8671 21.5329C27.8354 21.5439 27.8047 21.5568 27.775 21.5713C27.7685 21.5744 27.7619 21.5774 27.7555 21.5808C27.7223 21.598 27.6903 21.617 27.6598 21.6382C27.6542 21.6421 27.6488 21.6465 27.6432 21.6506C27.6166 21.67 27.5911 21.691 27.5669 21.7133C27.5632 21.7167 27.5589 21.7194 27.5552 21.723L26.9371 22.3131L23.8565 19.0411C23.6951 18.8697 23.4706 18.7715 23.2351 18.7693C23.0024 18.7684 22.7734 18.8615 22.609 19.0302L21.2781 20.3951C21.2596 20.4141 21.2423 20.4339 21.2257 20.4544C21.2054 20.4718 21.1856 20.4898 21.1668 20.5093L17.8837 23.9055C17.552 24.2485 17.5612 24.7954 17.9043 25.1271C18.2474 25.4588 18.7945 25.4495 19.126 25.1065L20.924 23.2466V32.7239H16.3967V24.8443C16.3967 24.8164 16.3952 24.7886 16.3925 24.7611C16.3914 24.7494 16.3893 24.738 16.3878 24.7264C16.3856 24.711 16.3837 24.6956 16.3808 24.6804C16.3781 24.6664 16.3745 24.6527 16.3712 24.6389C16.3682 24.6265 16.3653 24.6141 16.3617 24.6019C16.3575 24.5875 16.3526 24.5734 16.3477 24.5593C16.3437 24.548 16.3398 24.5367 16.3354 24.5255C16.3298 24.5117 16.3238 24.4982 16.3176 24.4846C16.3125 24.4734 16.3073 24.4624 16.3016 24.4514C16.2951 24.4387 16.2883 24.4263 16.2812 24.4139C16.2747 24.4025 16.2678 24.3914 16.2608 24.3803C16.2536 24.369 16.2462 24.3578 16.2384 24.3468C16.2304 24.3354 16.222 24.3243 16.2133 24.3132C16.2055 24.3031 16.1975 24.2931 16.1893 24.2835C16.1857 24.2793 16.1826 24.2749 16.1791 24.2709L14.9852 22.9258C14.8259 22.7463 14.599 22.6412 14.359 22.6357C14.1184 22.6288 13.8876 22.7247 13.7201 22.8966L8.6591 28.0928C8.50192 28.2541 8.41406 28.4704 8.41406 28.6956V33.5878C8.41406 34.0649 8.80084 34.4518 9.27801 34.4518H15.5331H21.7883C21.8067 34.4518 21.8246 34.4501 21.8427 34.449C21.8607 34.4501 21.8787 34.4518 21.8971 34.4518H28.1523H30.9959C31.473 34.4518 31.8598 34.0649 31.8598 33.5878C31.8598 33.1108 31.4726 32.7236 30.9954 32.7236ZM10.1415 29.0465L14.3094 24.7673L14.6687 25.1722V32.7236H10.1415V29.0465ZM22.7606 21.3495L23.2166 20.8819L25.7333 23.5551C26.0324 23.8728 26.4541 24.0615 26.8884 24.0731C27.0241 24.0766 27.1582 24.0642 27.2879 24.0359V32.7234H22.7606V21.3495Z" fill="#23346B"/>
<path d="M31.6777 7.32652L37.1359 5.86401L35.6734 11.3222L31.6777 7.32652Z" fill="white"/>
<path d="M37.7469 5.25308C37.5286 5.03493 37.2104 4.9495 36.9123 5.02948L31.4542 6.49199C31.1561 6.57192 30.9232 6.80478 30.8433 7.10291C30.7634 7.40099 30.8487 7.71916 31.0669 7.93743L32.5098 9.38032L26.9664 14.676L23.8663 11.3833C23.7049 11.2119 23.4804 11.1137 23.2449 11.1115C23.0101 11.1112 22.7832 11.2038 22.6188 11.3724L16.8349 17.3039L15.0115 15.2499C14.8523 15.0705 14.6254 14.9654 14.3854 14.9598C14.144 14.9538 13.914 15.0487 13.7465 15.2207L7.24508 21.8958C6.91213 22.2376 6.91934 22.7846 7.26112 23.1175C7.42908 23.2812 7.64656 23.3626 7.86393 23.3626C8.08892 23.3626 8.31361 23.2752 8.48296 23.1015L14.3361 17.092L16.1592 19.1458C16.3185 19.3252 16.5453 19.4303 16.7851 19.4359C17.0247 19.4424 17.2564 19.3472 17.4239 19.1753L23.2265 13.2245L26.3051 16.4943C26.463 16.6619 26.6811 16.7597 26.9113 16.7658C27.1393 16.7729 27.3644 16.686 27.5309 16.5268L33.732 10.6026L35.0626 11.9332C35.2268 12.0972 35.4475 12.1862 35.6735 12.1862C35.7481 12.1862 35.8231 12.1767 35.8971 12.1568C36.1953 12.0768 36.4281 11.844 36.5081 11.5458L37.9706 6.08772C38.0504 5.78953 37.9651 5.47142 37.7469 5.25308ZM35.2263 9.65309L33.347 7.77383L35.9142 7.08596L35.2263 9.65309Z" fill="#23346B"/>
</svg>
