<svg width="28" height="28" viewBox="0 0 28 28" fill="none" xmlns="http://www.w3.org/2000/svg">
<rect width="28" height="28" rx="14" fill="#B52528"/>
<path d="M8.14062 10.9541C8.86654 10.9541 9.4541 11.1755 9.90332 11.6182C10.3558 12.0609 10.582 12.6436 10.582 13.3662C10.582 14.0856 10.3493 14.6683 9.88379 15.1143C9.41829 15.557 8.81283 15.7783 8.06738 15.7783H6.67578V18H5.20117V10.9541H8.14062ZM6.67578 14.626H7.74512C8.16829 14.626 8.49707 14.5169 8.73145 14.2988C8.96582 14.0807 9.08301 13.7715 9.08301 13.3711C9.08301 12.9707 8.96582 12.6615 8.73145 12.4434C8.50033 12.2285 8.17318 12.1211 7.75 12.1211H6.67578V14.626ZM14.166 10.9541C15.2272 10.9541 16.0508 11.2568 16.6367 11.8623C17.2292 12.4743 17.5254 13.3369 17.5254 14.4502C17.5254 15.5667 17.2292 16.4375 16.6367 17.0625C16.0475 17.6875 15.224 18 14.166 18H11.4512V10.9541H14.166ZM12.9258 16.7793H13.9902C14.651 16.7793 15.154 16.5824 15.499 16.1885C15.8473 15.7913 16.0215 15.2135 16.0215 14.4551C16.0215 13.7194 15.8457 13.1546 15.4941 12.7607C15.1426 12.3669 14.6413 12.1699 13.9902 12.1699H12.9258V16.7793ZM18.4727 18V10.9541H23.0869V12.1699H19.9473V14.0596H22.8135V15.2266H19.9473V18H18.4727Z" fill="white"/>
</svg>
