<svg width="18" height="15" viewBox="0 0 18 15" fill="none" xmlns="http://www.w3.org/2000/svg">
<path fill-rule="evenodd" clip-rule="evenodd" d="M8.45148 4.38476L8.48862 4.99713L7.86967 4.92215C5.6167 4.63471 3.64844 3.65992 1.97728 2.02276L1.16027 1.21043L0.949825 1.81031C0.504182 3.14752 0.788898 4.55973 1.71732 5.50952C2.21248 6.03441 2.10107 6.1094 1.24692 5.79696C0.949825 5.69698 0.689866 5.622 0.665108 5.65949C0.578456 5.74697 0.875551 6.88423 1.11075 7.33414C1.4326 7.95901 2.08869 8.57138 2.80667 8.9338L3.41324 9.22124L2.69526 9.23374C2.00204 9.23374 1.97728 9.24623 2.05155 9.50868C2.29913 10.321 3.27707 11.1833 4.36642 11.5582L5.13392 11.8207L4.46545 12.2206C3.47514 12.7955 2.31151 13.1204 1.14789 13.1454C0.590835 13.1579 0.132812 13.2079 0.132812 13.2454C0.132812 13.3704 1.64305 14.0702 2.52196 14.3452C5.15868 15.1575 8.29056 14.8076 10.6426 13.4204C12.3137 12.4331 13.9849 10.471 14.7648 8.57138C15.1856 7.55909 15.6065 5.70948 15.6065 4.82217C15.6065 4.24729 15.6437 4.17231 16.3369 3.48495C16.7454 3.08504 17.1291 2.64763 17.2034 2.52266C17.3272 2.28521 17.3148 2.28521 16.6835 2.49766C15.6313 2.87258 15.4827 2.82259 16.0027 2.26021C16.3864 1.8603 16.8444 1.13545 16.8444 0.922994C16.8444 0.885502 16.6587 0.947989 16.4483 1.06046C16.2255 1.18544 15.7303 1.3729 15.359 1.48538L14.6905 1.69783L14.0839 1.28542C13.7497 1.06046 13.2793 0.810518 13.0317 0.735534C12.4004 0.560571 11.4348 0.585565 10.8654 0.785523C9.31801 1.3479 8.34007 2.7976 8.45148 4.38476Z" fill="white"/>
</svg>
