<svg width="184" height="59" viewBox="0 0 184 59" fill="none" xmlns="http://www.w3.org/2000/svg">
<path d="M8.5647 39.2079L11.3892 41.4041L14.2128 43.5965C14.2128 43.5965 14.6836 41.9244 15.8695 39.728L10.2214 35.3374C9.0357 37.536 8.5647 39.2079 8.5647 39.2079Z" fill="#D46726"/>
<path d="M10.5781 34.6984L16.2272 39.0909C16.8415 38.0323 17.6147 36.8804 18.5719 35.7512L12.9256 31.3606C11.9667 32.4881 11.1941 33.6374 10.5781 34.6984Z" fill="#D88422"/>
<path d="M13.405 30.8198L19.0498 35.2084C19.9366 34.2362 20.966 33.2967 22.1529 32.4637L16.5069 28.0731C15.3179 28.9081 14.2873 29.8456 13.405 30.8198Z" fill="#DC9F1B"/>
<path d="M35.4985 17.6221L41.1435 22.0126C42.0894 21.1222 43.0221 20.1348 43.9295 19.0168L38.2806 14.6259C37.3729 15.7434 36.4404 16.7336 35.4985 17.6221Z" fill="#FFD63A"/>
<path d="M22.0071 25.3585L27.654 29.7469C29.0042 29.2125 30.4674 28.6447 31.9932 27.9612L26.3451 23.5714C24.8194 24.2561 23.3575 24.824 22.0071 25.3585Z" fill="#FFE166"/>
<path d="M17.622 27.3501C17.4584 27.45 17.2991 27.5506 17.1392 27.6516L22.7892 32.0402C22.9472 31.9392 23.1068 31.8364 23.269 31.7417C24.2996 31.1305 25.5217 30.6021 26.874 30.0555L21.2271 25.6691C19.8747 26.2127 18.6536 26.7401 17.622 27.3501Z" fill="#F9B101"/>
<path d="M43.6064 5.70036L49.2538 10.0919C49.7943 8.85793 50.3095 7.53868 50.7974 6.13187L45.1497 1.74036C44.6614 3.15009 44.1462 4.46736 43.6064 5.70036Z" fill="#E49919"/>
<path d="M41.4053 10.0662L47.0534 14.4569C47.712 13.3212 48.3453 12.0991 48.9514 10.7711L43.3041 6.38135C42.6971 7.7105 42.062 8.93087 41.4053 10.0662Z" fill="#E7AC10"/>
<path d="M27.0833 23.2304L32.7313 27.6223C34.0041 27.0242 35.3159 26.3294 36.634 25.4967L30.9868 21.1069C29.6688 21.9378 28.3567 22.6295 27.0833 23.2304Z" fill="#FFF9C8"/>
<path d="M31.6318 20.6905L37.278 25.0823C38.3901 24.338 39.5034 23.4908 40.6027 22.5059L34.9568 18.1173C33.8573 19.0994 32.7422 19.9484 31.6318 20.6905Z" fill="#FFE380"/>
<path d="M38.731 14.0591L44.3791 18.4498C45.1706 17.4315 45.9431 16.3122 46.6841 15.0838L41.0362 10.6942C40.2929 11.9214 39.5214 13.0429 38.731 14.0591Z" fill="#F2B804"/>
<path d="M0.355469 32.8268L3.17903 35.0191L6.00278 37.2174C6.00278 37.2174 6.47165 35.5454 7.66068 33.3431L2.01337 28.9524C0.823567 31.1527 0.355469 32.8268 0.355469 32.8268Z" fill="#AF2624"/>
<path d="M2.36987 28.3179L8.01796 32.7077C8.63203 31.6468 9.40531 30.4973 10.3625 29.3709L4.71444 24.9803C3.75761 26.1079 2.98317 27.256 2.36987 28.3179Z" fill="#BD2525"/>
<path d="M5.1936 24.4375L10.8429 28.8282C11.7281 27.8541 12.7586 26.9161 13.9484 26.0813L8.30035 21.6918C7.11055 22.5256 6.08114 23.4647 5.1936 24.4375Z" fill="#CC2224"/>
<path d="M27.2871 11.2397L32.9352 15.6283C33.8821 14.7407 34.8128 13.7526 35.7194 12.6352L30.0723 8.24463C29.1649 9.36105 28.2321 10.3521 27.2871 11.2397Z" fill="#E63B2F"/>
<path d="M13.7957 18.9752L19.4436 23.365C20.793 22.8325 22.2582 22.2659 23.7829 21.5781L18.1348 17.1914C16.6081 17.8752 15.1468 18.4419 13.7957 18.9752Z" fill="#F4A7A2"/>
<path d="M9.41185 20.9688C9.24836 21.0665 9.08915 21.1685 8.93091 21.2693L14.5778 25.6589C14.7361 25.5573 14.8945 25.4551 15.059 25.3603C16.0894 24.7482 17.3117 24.22 18.6628 23.6742L13.0159 19.2858C11.6647 19.8313 10.4424 20.3596 9.41185 20.9688Z" fill="#E31E24"/>
<path d="M33.198 3.68463L38.8451 8.07321C39.5026 6.93986 40.1369 5.71776 40.742 4.38957L35.0939 0C34.4898 1.32721 33.8545 2.54933 33.198 3.68463Z" fill="#C02222"/>
<path d="M18.874 16.8494L24.52 21.241C25.7968 20.6399 27.1055 19.9463 28.4257 19.1144L22.7776 14.7246C21.4574 15.5557 20.1487 16.2505 18.874 16.8494Z" fill="#FADADB"/>
<path d="M23.4204 14.3073L29.0673 18.6998C30.1808 17.9577 31.2947 17.1075 32.3938 16.1256L26.7483 11.7336C25.6478 12.7181 24.5327 13.5681 23.4204 14.3073Z" fill="#F1929E"/>
<path d="M30.5208 7.67827L36.1685 12.0688C36.9591 11.0493 37.7294 9.93095 38.4739 8.70261L32.8287 4.31323C32.0813 5.54235 31.311 6.65956 30.5208 7.67827Z" fill="#D22023"/>
<path d="M16.7761 45.5909L19.5979 47.7832L22.4234 49.9795C22.4234 49.9795 22.8911 48.3095 24.0802 46.1092L18.4321 41.7167C17.2442 43.919 16.7761 45.5909 16.7761 45.5909Z" fill="#AF2624"/>
<path d="M18.7886 41.0812L24.4388 45.4679C25.05 44.411 25.8244 43.2615 26.7834 42.134L21.1353 37.7434C20.1763 38.8709 19.4048 40.0224 18.7886 41.0812Z" fill="#BD2525"/>
<path d="M21.6133 37.201L27.2606 41.5918C28.147 40.6196 29.1754 39.6796 30.3652 38.8466L24.7193 34.4561C23.5295 35.2891 22.5 36.2269 21.6133 37.201Z" fill="#CC2224"/>
<path d="M43.7058 24.0032L49.3527 28.3916C50.2996 27.5062 51.2306 26.5161 52.1379 25.3985L46.4922 21.0082C45.5844 22.1254 44.6515 23.1157 43.7058 24.0032Z" fill="#E63B2F"/>
<path d="M30.2163 31.7373L35.8625 36.1279C37.2117 35.5953 38.6757 35.0288 40.2036 34.3411L34.5565 29.9545C33.0276 30.6382 31.5667 31.2048 30.2163 31.7373Z" fill="#F4A7A2"/>
<path d="M25.8317 33.7342C25.6684 33.8309 25.5092 33.9339 25.3516 34.0328L30.9967 38.4231C31.1571 38.3204 31.3155 38.2194 31.4806 38.1228C32.5094 37.5117 33.7327 36.9854 35.0839 36.4387L29.4379 32.05C28.0846 32.5948 26.8623 33.1211 25.8317 33.7342Z" fill="#E31E24"/>
<path d="M35.2935 29.6119L40.9406 34.0044C42.215 33.4014 43.5249 32.7095 44.844 31.8768L39.1949 27.489C37.878 28.3209 36.5662 29.0138 35.2935 29.6119Z" fill="#FADADB"/>
<path d="M39.8391 27.0725L45.4872 31.4633C46.6003 30.7211 47.7126 29.8721 48.8129 28.8889L43.1668 24.4983C42.0657 25.4814 40.9522 26.3306 39.8391 27.0725Z" fill="#F1929E"/>
<path d="M46.9404 20.4424L52.5875 24.8318C53.3781 23.8135 54.1497 22.6941 54.8926 21.4648L49.2449 17.0754C48.5026 18.3046 47.7322 19.4217 46.9404 20.4424Z" fill="#D22023"/>
<path d="M95.1304 28.4483C95.1304 31.2152 94.3719 33.3751 92.8939 34.9302C91.3378 36.5618 89.0629 37.4369 86.0661 37.4369H83.4878V39.2441H78.4063V37.4369H75.8287C69.9126 37.4369 66.7654 34.0205 66.7654 28.4483C66.7654 22.3784 69.9126 18.8996 75.3729 18.8996L78.4063 18.8966V17.1307H83.4878V18.8966L86.5219 18.8996C91.9824 18.8996 95.1304 22.3784 95.1304 28.4483ZM78.4063 33.7381V22.6406H76.8128C73.6667 22.6406 71.9594 24.6936 71.9594 28.0668C71.9594 31.6709 73.7031 33.7381 77.1921 33.7381H78.4063ZM89.9352 28.0668C89.9352 24.7684 88.2281 22.6406 85.0809 22.6406H83.4878V33.7381H84.7007C88.1909 33.7381 89.9352 31.6709 89.9352 28.0668Z" fill="#2B2A29"/>
<path d="M115.164 37.4494H110.09V26.3658L102.401 37.4494H97.3267V18.9047H102.401V30.0292L110.09 18.9047H115.164V37.4494Z" fill="#2B2A29"/>
<path d="M136.257 37.4494H131.183V30.0292H123.495V37.4494H118.421V18.9047H123.495V26.3658H131.183V18.9047H136.257V37.4494Z" fill="#2B2A29"/>
<path d="M157.201 37.4493H145.763C143.68 37.4493 142.091 37.0516 140.992 36.2569C139.743 35.3496 139.005 33.853 139.005 31.9209C139.005 30.2166 139.591 28.948 140.538 27.9628C141.636 26.8275 143.302 26.3857 145.537 26.3857H152.506V25.9189C152.506 23.6084 151.431 22.6376 148.59 22.6376H140.078L140.075 18.8925H150.19C152.16 18.8925 153.604 19.2665 154.551 19.9098C156.33 21.122 157.201 23.5693 157.201 27.0918V37.4493ZM152.506 33.7561V30.0512H145.802C144.438 30.0512 143.53 30.4588 143.53 31.9351C143.53 33.2983 144.552 33.7561 145.802 33.7561H152.506Z" fill="#2B2A29"/>
<path d="M179.302 18.9158C177.336 18.9158 176.124 19.9394 175.517 21.7927L172.154 31.9049L168.793 21.7927C168.187 19.9394 166.975 18.9158 165.007 18.9158L160.364 18.9257V37.4411H165.437V24.3914L169.746 37.4512H174.563L178.872 24.3914V37.4512H183.947V18.9257L179.302 18.9158Z" fill="#2B2A29"/>
<path d="M69.4188 48.8386H66.3517L66.2498 49.2133C66.5789 49.2133 66.8743 49.3612 67.0221 49.5654C67.2149 49.8268 67.2492 50.3151 67.2492 51.5079V54.0749C67.2492 54.9042 67.2149 55.2674 67.0789 55.472C66.9425 55.6763 66.7383 55.6991 66.5789 55.6991H66.4769L66.3747 56.0742H69.2823L69.3845 55.6991C68.7146 55.7219 68.4192 55.5969 68.2714 55.4492C68.1354 55.3132 68.1124 55.1767 68.1124 55.0402C68.1124 54.8131 68.1692 54.6541 68.4986 54.2792L71.5767 50.7583V54.1998C71.5767 54.779 71.5767 55.1313 71.4177 55.3355C71.2133 55.6195 70.7478 55.6763 70.3842 55.6991L70.282 56.0742H73.3486L73.4508 55.6991C73.0876 55.6991 72.8033 55.5288 72.6672 55.3355C72.4512 55.0402 72.4401 54.5064 72.4401 53.257V50.849C72.4401 49.9517 72.4969 49.5997 72.6104 49.4404C72.7466 49.2361 72.9738 49.2133 73.1215 49.2133H73.2237L73.3259 48.8386H70.4069L70.3046 49.2133C70.9295 49.2248 71.1905 49.327 71.2701 49.3612C71.4404 49.4293 71.5767 49.5315 71.5767 49.7587C71.5767 50.0086 71.4519 50.1107 71.3496 50.2357L68.1124 53.9614V50.724C68.1124 50.1904 68.1124 49.8608 68.2374 49.645C68.3736 49.4066 68.6916 49.2248 69.3164 49.2133L69.4188 48.8386ZM74.2802 50.8943L74.178 51.2692C74.439 51.2464 74.7004 51.3601 74.814 51.5079C74.9275 51.6554 74.939 51.9053 74.939 52.3483V54.3135C74.939 55.0402 74.8822 55.2789 74.8026 55.3923C74.7115 55.5403 74.4843 55.6763 74.2346 55.6991L74.1323 56.0742H76.6312L76.7335 55.6991C76.4606 55.6991 76.1086 55.6878 75.9383 55.4835C75.8361 55.3698 75.7792 55.1537 75.7792 54.7109V53.6206H78.3124V54.177C78.3124 54.9834 78.2667 55.3131 78.1191 55.4835C77.9942 55.6195 77.7443 55.7106 77.5171 55.6991L77.4149 56.0742H79.8117L79.9139 55.6991C79.6637 55.6991 79.38 55.5742 79.2663 55.4039C79.1756 55.2674 79.1528 55.0745 79.1528 54.6198V52.496C79.1528 52.019 79.1641 51.7122 79.2891 51.5306C79.38 51.3944 79.5731 51.2579 79.8455 51.2692L79.9481 50.8943H77.5399L77.4377 51.2692C77.6536 51.2579 78.0171 51.3261 78.1647 51.5079C78.3124 51.6782 78.3124 52.0075 78.3124 52.3938V53.1093H75.7792V52.4392C75.7792 51.9964 75.7907 51.6668 75.9383 51.4963C76.0747 51.3375 76.404 51.2464 76.6539 51.2692L76.7561 50.8943H74.2802ZM80.8679 50.8943L80.7659 51.2692C81.0384 51.2464 81.3109 51.3601 81.4131 51.5193C81.5155 51.6669 81.527 51.9053 81.527 52.3483V54.3135C81.527 55.0402 81.4702 55.2789 81.3905 55.3923C81.2995 55.5403 81.0723 55.6763 80.8226 55.6991L80.7202 56.0742H81.0497C81.2541 56.0742 81.6062 56.0742 82.1854 56.1098C82.4694 56.1213 82.7648 56.144 83.1623 56.144C83.6168 56.144 84.3891 56.1326 84.8776 55.6763C85.0138 55.5516 85.3093 55.222 85.3093 54.6087C85.3093 54.2452 85.2067 53.916 84.9229 53.6547C84.7186 53.4729 84.3778 53.3253 84.0368 53.28C84.2528 53.2004 84.4687 53.0525 84.6275 52.8711C84.8093 52.655 84.9342 52.3711 84.9342 52.0532C84.9342 51.5647 84.6958 51.2692 84.4687 51.1104C84.2982 50.9854 83.9348 50.8264 83.1851 50.8264C82.9694 50.8264 82.572 50.849 82.3672 50.8605C82.1288 50.8718 81.9017 50.8943 81.4587 50.8943H80.8679ZM82.3672 53.1093V51.9283C82.3672 51.7691 82.3902 51.5875 82.5377 51.4625C82.5943 51.4168 82.7308 51.3376 83.1169 51.3376C83.3441 51.3376 83.6736 51.3714 83.878 51.5306C84.1051 51.7122 84.1394 51.9736 84.1394 52.2008C84.1394 52.4164 84.0936 52.6893 83.878 52.8822C83.7643 52.9845 83.5372 53.1093 83.0486 53.1093H82.3672ZM82.3672 53.6432C82.6173 53.5978 82.8898 53.575 83.1169 53.575C83.4009 53.575 83.8554 53.6091 84.1394 53.8592C84.4004 54.0863 84.4457 54.4157 84.4457 54.6882C84.4457 54.8699 84.4233 55.1427 84.2186 55.347C84.0598 55.506 83.7986 55.631 83.3441 55.631C83.0486 55.631 82.708 55.5742 82.3672 55.4492V53.6432ZM88.9552 53.1889H90.5341V53.0414C90.5341 52.0304 90.1366 51.474 89.8526 51.2126C89.512 50.8943 89.0691 50.7583 88.5692 50.7583C87.8763 50.7583 87.3084 50.9855 86.8652 51.4397C86.502 51.8146 86.0818 52.4621 86.0818 53.5525C86.0818 54.5064 86.4224 55.1084 86.7632 55.472C87.1153 55.8355 87.706 56.2122 88.6942 56.2122C89.4552 56.2122 89.9323 56.0399 90.1251 55.9603L90.3412 55.222C90.0459 55.2789 89.3756 55.4151 88.9326 55.4151C88.2284 55.4151 87.7288 55.1652 87.4335 54.8585C87.047 54.4495 86.8995 53.8362 86.9563 53.2685C87.5242 53.2342 88.4783 53.1889 88.9552 53.1889ZM87.0131 52.7461C87.047 52.4164 87.1607 51.9964 87.3878 51.7122C87.5696 51.474 87.8878 51.2239 88.3874 51.2239C88.6712 51.2239 88.9667 51.3033 89.2281 51.5193C89.5459 51.7803 89.637 52.0758 89.637 52.3142C89.637 52.4279 89.614 52.5301 89.4778 52.5982C89.3869 52.6435 89.2053 52.6778 88.5463 52.7004L87.0131 52.7461ZM94.9525 51.6669L94.8164 50.8375C94.4756 50.7807 94.1122 50.7583 93.9304 50.7583C93.4078 50.7583 92.749 50.9171 92.3062 51.2011C91.6927 51.5985 91.1816 52.3938 91.1816 53.5978C91.1816 54.3703 91.3973 55.0971 91.988 55.5969C92.3743 55.9377 92.965 56.2009 93.8168 56.2009C94.2029 56.2009 94.6461 56.1326 94.9414 56.0742L95.1685 55.3355C94.5324 55.4492 94.2029 55.4607 93.9871 55.4607C93.6803 55.4607 93.0443 55.4266 92.613 55.0288C92.1357 54.586 92.0904 53.8818 92.0904 53.4729C92.0904 52.8822 92.1811 52.1439 92.5104 51.7578C92.8058 51.4168 93.2148 51.3829 93.4985 51.3829C94.0554 51.3829 94.5778 51.5306 94.9525 51.6669ZM95.441 50.8943V52.5982L95.8727 52.3483V52.2346C95.8727 52.1101 95.8842 51.8257 96.1228 51.6328C96.3838 51.4168 96.7814 51.4282 97.0199 51.4282H97.3038V54.3703C97.3038 54.9381 97.2812 55.222 97.1678 55.3809C97.0426 55.5626 96.7589 55.7106 96.4181 55.6991L96.3157 56.0742H99.0873L99.1894 55.6991H99.053C98.8601 55.6991 98.508 55.6878 98.3262 55.4945C98.1559 55.3131 98.1445 54.9721 98.1445 54.7109V51.4282H98.4284C98.633 51.4282 99.0873 51.4397 99.337 51.7011C99.4962 51.8714 99.5756 52.2007 99.5756 52.4621V52.5756L100.007 52.3257V50.8943H95.441ZM100.814 50.8943L100.711 51.2692C100.973 51.2464 101.234 51.3601 101.348 51.5193C101.472 51.6896 101.472 51.9736 101.472 52.3483V54.3135C101.472 55.0402 101.416 55.2789 101.336 55.3923C101.245 55.5403 101.018 55.6763 100.768 55.6991L100.666 56.0742H103.165L103.267 55.6991C103.04 55.6991 102.688 55.6652 102.506 55.5626C102.347 55.4719 102.313 55.3585 102.313 55.222C102.313 54.9042 102.495 54.779 102.71 54.5745L104.891 52.5301V54.177C104.891 54.9834 104.846 55.3131 104.698 55.4835C104.573 55.6195 104.324 55.7106 104.096 55.6991L103.994 56.0742H106.391L106.493 55.6991C106.243 55.6991 105.959 55.5742 105.845 55.4039C105.755 55.2674 105.732 55.0745 105.732 54.6198V52.496C105.732 51.9849 105.743 51.6896 105.868 51.5193C105.959 51.3944 106.163 51.2692 106.425 51.2692L106.527 50.8943H104.096L103.994 51.2692H104.085C104.244 51.2692 104.573 51.3147 104.698 51.3829C104.835 51.451 104.891 51.5532 104.891 51.7122C104.891 51.894 104.789 52.0075 104.687 52.11L102.313 54.3474V52.4392C102.313 52.0532 102.301 51.6781 102.472 51.4963C102.62 51.326 103.017 51.2579 103.21 51.2692L103.313 50.8943H100.814ZM108.901 51.8372V50.7583C108.231 51.0082 107.708 51.1217 107.413 51.1785L107.311 51.5532C107.481 51.5532 107.89 51.61 108.015 51.7465C108.14 51.8825 108.14 52.1439 108.14 52.4507V56.8938C108.14 57.473 108.14 57.8251 107.969 58.0407C107.856 58.1886 107.64 58.3247 107.333 58.3021L107.231 58.6768H110.389L110.491 58.3021C110.093 58.3136 109.446 58.1999 109.208 57.95C108.981 57.7001 108.981 57.3365 108.981 57.0641V56.2009H109.378C110.389 56.2009 110.866 56.144 111.366 55.7674C111.729 55.4945 112.638 54.6882 112.638 53.1548C112.638 52.6435 112.558 51.9964 112.127 51.451C111.684 50.8832 111.127 50.7583 110.662 50.7583C110.162 50.7583 109.809 50.9401 109.469 51.2126C109.23 51.4056 109.048 51.6215 108.901 51.8372ZM108.981 55.472V53.8024C108.981 53.4275 109.003 52.7685 109.208 52.2576C109.366 51.8487 109.685 51.3944 110.48 51.3944C110.764 51.3944 111.127 51.474 111.388 51.8372C111.525 52.019 111.729 52.4164 111.729 53.3479C111.729 53.8477 111.684 54.6428 111.241 55.1314C110.9 55.506 110.468 55.5856 110.003 55.5856C109.446 55.5856 109.117 55.506 108.981 55.472ZM115.307 50.8943H112.808L112.706 51.2692C112.91 51.2579 113.081 51.326 113.24 51.4851C113.467 51.7122 113.603 52.0758 113.808 52.5867L115.216 56.2122L115.137 56.4734C115.023 56.8482 114.807 57.4276 114.501 57.7001C114.171 57.9839 113.728 58.0181 113.285 57.9726L113.013 58.643C113.217 58.6657 113.376 58.6768 113.479 58.6768C113.831 58.6768 114.274 58.62 114.637 58.359C115.08 58.0408 115.307 57.4958 115.5 56.9734L116.874 53.2911C116.977 53.0071 117.238 52.4279 117.375 52.1211C117.454 51.9506 117.568 51.6896 117.954 50.8943H116.216L116.114 51.2692H116.17C116.454 51.2692 116.841 51.3148 116.841 51.7011C116.841 51.7691 116.829 51.8487 116.772 52.0871C116.727 52.2689 116.659 52.4732 116.352 53.2911L115.727 54.9721L114.694 52.3825C114.592 52.1211 114.455 51.7918 114.455 51.576C114.455 51.474 114.501 51.3829 114.603 51.326C114.671 51.2922 114.785 51.2692 115.148 51.2692H115.205L115.307 50.8943ZM118.601 50.8943L118.499 51.2692C118.76 51.2464 119.022 51.3601 119.135 51.5193C119.26 51.6896 119.26 51.9736 119.26 52.3483V54.3135C119.26 55.0402 119.203 55.2789 119.124 55.3923C119.033 55.5403 118.805 55.6763 118.556 55.6991L118.453 56.0742H120.952L121.055 55.6991C120.828 55.6991 120.475 55.6652 120.294 55.5626C120.135 55.4719 120.1 55.3585 120.1 55.222C120.1 54.9042 120.282 54.779 120.498 54.5745L122.679 52.5301V54.177C122.679 54.9834 122.634 55.3131 122.486 55.4835C122.361 55.6195 122.111 55.7106 121.884 55.6991L121.781 56.0742H124.178L124.28 55.6991C124.031 55.6991 123.747 55.5742 123.633 55.4039C123.542 55.2674 123.519 55.0745 123.519 54.6198V52.496C123.519 51.9849 123.531 51.6896 123.656 51.5193C123.747 51.3944 123.951 51.2692 124.212 51.2692L124.315 50.8943H121.884L121.781 51.2692H121.872C122.031 51.2692 122.361 51.3147 122.486 51.3829C122.622 51.451 122.679 51.5532 122.679 51.7122C122.679 51.894 122.577 52.0075 122.474 52.11L120.1 54.3474V52.4392C120.1 52.0532 120.089 51.6781 120.259 51.4963C120.407 51.326 120.805 51.2579 120.998 51.2692L121.1 50.8943H118.601ZM120.316 48.3388L119.93 48.5547V49.5541C120.123 49.645 120.316 49.7246 120.555 49.7701C120.782 49.8155 121.066 49.8494 121.27 49.8494C121.656 49.8494 122.179 49.7587 122.577 49.5541C122.804 49.4404 123.031 49.259 123.201 49.0998V48.2705C123.122 48.4069 122.883 48.7365 122.497 48.9862C122.156 49.2133 121.804 49.3044 121.441 49.3044C121.259 49.3044 120.964 49.2929 120.714 49.1226C120.407 48.9069 120.35 48.6002 120.35 48.566L120.316 48.3388ZM124.973 50.8943V52.5982L125.405 52.3483V52.2346C125.405 52.1101 125.416 51.8257 125.655 51.6328C125.916 51.4168 126.313 51.4282 126.552 51.4282H126.836V54.3703C126.836 54.9381 126.813 55.222 126.7 55.3809C126.575 55.5626 126.291 55.7106 125.95 55.6991L125.848 56.0742H128.619L128.721 55.6991H128.585C128.392 55.6991 128.04 55.6878 127.858 55.4945C127.688 55.3131 127.676 54.9721 127.676 54.7109V51.4282H127.96C128.165 51.4282 128.619 51.4397 128.869 51.7011C129.028 51.8714 129.108 52.2007 129.108 52.4621V52.5756L129.539 52.3257V50.8943H124.973ZM132.913 53.1889H134.491V53.0414C134.491 52.0304 134.094 51.474 133.81 51.2126C133.469 50.8943 133.026 50.7583 132.526 50.7583C131.833 50.7583 131.266 50.9855 130.823 51.4397C130.459 51.8146 130.039 52.4621 130.039 53.5525C130.039 54.5064 130.38 55.1084 130.72 55.472C131.072 55.8355 131.663 56.2122 132.651 56.2122C133.412 56.2122 133.89 56.0399 134.082 55.9603L134.299 55.222C134.003 55.2789 133.333 55.4151 132.89 55.4151C132.186 55.4151 131.686 55.1652 131.391 54.8585C131.004 54.4495 130.857 53.8362 130.914 53.2685C131.481 53.2342 132.436 53.1889 132.913 53.1889ZM130.97 52.7461C131.004 52.4164 131.118 51.9964 131.345 51.7122C131.527 51.474 131.845 51.2239 132.345 51.2239C132.629 51.2239 132.924 51.3033 133.185 51.5193C133.503 51.7803 133.594 52.0758 133.594 52.3142C133.594 52.4279 133.571 52.5301 133.435 52.5982C133.344 52.6435 133.162 52.6778 132.504 52.7004L130.97 52.7461ZM138.297 50.8943L138.194 51.2692C138.444 51.2464 138.728 51.3601 138.841 51.5193C138.944 51.6669 138.955 51.9053 138.955 52.3483V54.3135C138.955 55.0517 138.899 55.2674 138.819 55.3923C138.717 55.5626 138.501 55.6878 138.251 55.6991L138.149 56.0742H140.739L140.841 55.6991H140.739C140.511 55.6991 140.137 55.6991 139.955 55.4835C139.853 55.3698 139.796 55.1537 139.796 54.7109V51.4057H140.739C141.272 51.4057 141.534 51.5647 141.659 51.7011C141.874 51.9283 141.897 52.2804 141.897 52.5075V52.6324L142.329 52.3825V50.8943H138.297ZM144.351 51.8372V50.7583C143.68 51.0082 143.158 51.1217 142.862 51.1785L142.76 51.5532C142.931 51.5532 143.34 51.61 143.465 51.7465C143.59 51.8825 143.59 52.1439 143.59 52.4507V56.8938C143.59 57.473 143.59 57.8251 143.419 58.0407C143.306 58.1886 143.09 58.3247 142.783 58.3021L142.681 58.6768H145.838L145.941 58.3021C145.543 58.3136 144.896 58.1999 144.657 57.95C144.43 57.7001 144.43 57.3365 144.43 57.0641V56.2009H144.828C145.838 56.2009 146.316 56.144 146.815 55.7674C147.179 55.4945 148.088 54.6882 148.088 53.1548C148.088 52.6435 148.008 51.9964 147.576 51.451C147.133 50.8832 146.577 50.7583 146.111 50.7583C145.611 50.7583 145.259 50.9401 144.919 51.2126C144.68 51.4056 144.498 51.6215 144.351 51.8372ZM144.43 55.472V53.8024C144.43 53.4275 144.453 52.7685 144.657 52.2576C144.816 51.8487 145.134 51.3944 145.929 51.3944C146.213 51.3944 146.577 51.474 146.838 51.8372C146.974 52.019 147.179 52.4164 147.179 53.3479C147.179 53.8477 147.133 54.6428 146.691 55.1314C146.35 55.506 145.918 55.5856 145.452 55.5856C144.896 55.5856 144.566 55.506 144.43 55.472ZM152.517 52.2804C152.517 51.8487 152.529 51.5193 152.279 51.2354C152.052 50.9625 151.643 50.7583 150.916 50.7583C150.643 50.7583 150.28 50.7922 149.337 51.0082L149.008 51.7235C149.927 51.5078 150.507 51.474 150.825 51.474C151.166 51.474 151.404 51.5193 151.518 51.6443C151.665 51.7918 151.677 52.0986 151.677 52.3029V52.6663L150.234 53.3024C149.871 53.4614 149.553 53.575 149.212 53.8477C148.974 54.0406 148.667 54.3589 148.667 54.9042C148.667 55.2789 148.837 55.6763 149.178 55.9262C149.496 56.1666 149.859 56.2122 150.121 56.2122C150.916 56.2122 151.416 55.7219 151.677 55.347V56.0742H153.176L153.278 55.6991C153.017 55.6538 152.778 55.6423 152.631 55.4039C152.529 55.2448 152.517 55.0062 152.517 54.6198V52.2804ZM151.677 53.9384C151.677 54.3927 151.688 54.8359 151.279 55.188C150.995 55.4266 150.632 55.506 150.405 55.506C150.2 55.506 149.984 55.4719 149.78 55.2901C149.621 55.1426 149.541 54.9608 149.541 54.7337C149.541 54.4723 149.655 54.2339 149.905 54.0295C150.087 53.8818 150.359 53.7343 150.586 53.6432L151.677 53.1774V53.9384ZM154.051 50.8943L153.948 51.2692C154.198 51.2579 154.482 51.3714 154.596 51.5306C154.698 51.6669 154.709 51.9053 154.709 52.3483V54.2792C154.709 54.9381 154.698 55.2106 154.573 55.4039C154.494 55.5173 154.323 55.6878 154.017 55.6991L153.914 56.0742H156.027L156.129 55.6991H156.038C155.857 55.6991 155.584 55.6763 155.414 55.472C155.277 55.3132 155.255 55.0402 155.255 54.7224V51.86C155.675 52.78 156.345 54.2792 157.106 56.2122L157.356 56.0742C157.878 54.586 158.208 53.9499 159.139 51.86V54.3248C159.139 54.9153 159.128 55.2335 158.98 55.4377C158.867 55.5856 158.651 55.6991 158.424 55.6991H158.333L158.231 56.0742H160.57L160.672 55.6991C160.4 55.7106 160.15 55.5856 160.037 55.4377C159.923 55.2902 159.911 55.0402 159.911 54.6771V52.496C159.911 51.9849 159.923 51.7011 160.048 51.5193C160.139 51.3944 160.332 51.2579 160.605 51.2692L160.707 50.8943H159.014C158.674 51.8257 158.31 52.7231 157.379 54.8016C156.39 52.7461 155.993 51.7465 155.686 50.8943H154.051ZM164.216 50.7583C163.421 50.7583 162.785 51.0082 162.354 51.3944C161.922 51.7918 161.502 52.5301 161.502 53.7228C161.502 54.7109 161.82 55.3017 162.149 55.631C162.649 56.1326 163.319 56.2122 163.728 56.2122C164.671 56.2122 165.25 55.8581 165.58 55.5516C165.977 55.1767 166.42 54.4838 166.42 53.2685C166.42 52.2803 166.113 51.7235 165.852 51.4167C165.364 50.849 164.693 50.7583 164.216 50.7583ZM165.511 53.8135C165.511 54.4495 165.443 54.8927 165.216 55.1652C164.943 55.4945 164.523 55.5288 164.194 55.5288C163.319 55.5288 162.831 55.2674 162.592 54.6656C162.513 54.4495 162.41 54.0634 162.41 53.1435C162.41 52.4847 162.478 52.0871 162.672 51.8372C162.967 51.4625 163.467 51.4397 163.739 51.4397C164.66 51.4397 165.102 51.735 165.318 52.2915C165.409 52.5414 165.511 52.939 165.511 53.8135ZM166.851 50.8943V52.5982L167.283 52.3483V52.2346C167.283 52.1101 167.295 51.8257 167.533 51.6328C167.794 51.4168 168.192 51.4282 168.43 51.4282H168.714V54.3703C168.714 54.9381 168.692 55.222 168.578 55.3809C168.453 55.5626 168.169 55.7106 167.829 55.6991L167.726 56.0742H170.498L170.6 55.6991H170.464C170.271 55.6991 169.919 55.6878 169.737 55.4945C169.566 55.3131 169.555 54.9721 169.555 54.7109V51.4282H169.839C170.043 51.4282 170.498 51.4397 170.747 51.7011C170.907 51.8714 170.986 52.2007 170.986 52.4621V52.5756L171.418 52.3257V50.8943H166.851ZM172.224 50.8943L172.122 51.2692C172.383 51.2464 172.645 51.3601 172.758 51.5079C172.872 51.6554 172.883 51.9053 172.883 52.3483V54.3135C172.883 55.0402 172.826 55.2789 172.747 55.3923C172.656 55.5403 172.429 55.6763 172.179 55.6991L172.076 56.0742H174.575L174.678 55.6991C174.405 55.6991 174.053 55.6878 173.882 55.4835C173.78 55.3698 173.723 55.1537 173.723 54.7109V53.6206H176.257V54.177C176.257 54.9834 176.211 55.3131 176.063 55.4835C175.938 55.6195 175.688 55.7106 175.461 55.6991L175.359 56.0742H177.756L177.858 55.6991C177.608 55.6991 177.324 55.5742 177.211 55.4039C177.12 55.2674 177.097 55.0745 177.097 54.6198V52.496C177.097 52.019 177.108 51.7122 177.233 51.5306C177.324 51.3944 177.517 51.2579 177.79 51.2692L177.892 50.8943H175.484L175.382 51.2692C175.598 51.2579 175.961 51.3261 176.109 51.5079C176.257 51.6782 176.257 52.0075 176.257 52.3938V53.1093H173.723V52.4392C173.723 51.9964 173.735 51.6668 173.882 51.4963C174.019 51.3375 174.348 51.2464 174.598 51.2692L174.7 50.8943H172.224ZM181.402 50.7583C180.607 50.7583 179.971 51.0082 179.539 51.3944C179.107 51.7918 178.687 52.5301 178.687 53.7228C178.687 54.7109 179.005 55.3017 179.335 55.631C179.834 56.1326 180.505 56.2122 180.913 56.2122C181.856 56.2122 182.436 55.8581 182.765 55.5516C183.162 55.1767 183.606 54.4838 183.606 53.2685C183.606 52.2803 183.299 51.7235 183.037 51.4167C182.549 50.849 181.879 50.7583 181.402 50.7583ZM182.697 53.8135C182.697 54.4495 182.629 54.8927 182.401 55.1652C182.129 55.4945 181.709 55.5288 181.379 55.5288C180.505 55.5288 180.016 55.2674 179.778 54.6656C179.698 54.4495 179.596 54.0634 179.596 53.1435C179.596 52.4847 179.664 52.0871 179.857 51.8372C180.152 51.4625 180.652 51.4397 180.925 51.4397C181.845 51.4397 182.288 51.735 182.504 52.2915C182.594 52.5414 182.697 52.939 182.697 53.8135Z" fill="#2B2A29"/>
</svg>
