<svg width="56" height="51" viewBox="0 0 56 51" fill="none" xmlns="http://www.w3.org/2000/svg">
<path opacity="0.08" fill-rule="evenodd" clip-rule="evenodd" d="M26.4167 2.42301C32.004 3.90612 34.2175 9.61407 38.9999 12.5472C43.9252 15.568 52.0428 14.9282 54.5867 19.7002C57.1151 24.443 53.2469 29.8834 50.784 34.6525C48.5718 38.9361 45.5821 42.8247 41.2261 45.5717C36.8847 48.3094 31.7582 50.2731 26.4167 50.019C21.2291 49.7722 17.0937 46.6878 12.7318 44.216C8.07801 41.5787 1.66098 39.8613 0.219365 35.1733C-1.22075 30.4902 4.8636 26.6377 5.85912 21.8667C7.1147 15.8494 1.98284 8.46894 6.728 3.98086C11.3178 -0.360253 19.9521 0.707025 26.4167 2.42301Z" fill="#23346B"/>
<path d="M36.1037 12.7238H28.9039V40.722H36.1037V12.7238Z" fill="white"/>
<path d="M28.9999 19.0001H20.9999V41.0001H28.9999V19.0001Z" fill="white"/>
<path d="M21.7031 23.9308H14.5033V40.7216H21.7031V23.9308Z" fill="white"/>
<path d="M13.9999 30.0001H6.99988V41.0001H13.9999V30.0001Z" fill="white"/>
<path d="M43.9999 8.00012H36.9999V41.0001H43.9999V8.00012Z" fill="white"/>
<path d="M45.4423 39.6026H44.4618V18.3278C44.4618 17.7093 43.9602 17.2077 43.3417 17.2077C42.7232 17.2077 42.2216 17.7093 42.2216 18.3278V39.6026H37.2615V8.24018H43.3417C43.9602 8.24018 44.4618 7.73857 44.4618 7.12009C44.4618 6.5016 43.9602 6 43.3417 6H36.1415C35.523 6 35.0214 6.5016 35.0214 7.12009V11.6039H28.9031C28.2846 11.6039 27.783 12.1055 27.783 12.7239V17.2076H21.7027C21.0842 17.2076 20.5826 17.7092 20.5826 18.3277V22.8116H14.5026C13.8841 22.8116 13.3825 23.3132 13.3825 23.9316V28.4153H7.22061C6.60212 28.4153 6.10052 28.9169 6.10052 29.5354V34.9727C6.10052 35.5911 6.60212 36.0928 7.22061 36.0928C7.83909 36.0928 8.3407 35.5911 8.3407 34.9727V30.6555H13.3008V39.6026H7.22061H5.12009C4.5016 39.6025 4 40.104 4 40.7226C4 41.3411 4.5016 41.8427 5.12009 41.8427H45.4424C46.0608 41.8427 46.5624 41.3411 46.5624 40.7226C46.5624 40.104 46.0608 39.6026 45.4423 39.6026ZM15.6227 25.0517H20.5828V39.6026H15.6227V25.0517ZM22.8229 23.9317V19.4479H27.783V39.6026H22.8229V23.9317ZM30.0232 39.6026V18.3278V13.8441H34.9833V39.6027H30.0232V39.6026Z" fill="#23346B"/>
</svg>
