<svg width="51" height="44" viewBox="0 0 51 44" fill="none" xmlns="http://www.w3.org/2000/svg">
<path opacity="0.08" fill-rule="evenodd" clip-rule="evenodd" d="M24.3137 1.32632C29.4563 2.641 31.4935 7.70072 35.8952 10.3007C40.4284 12.9785 47.8999 12.4113 50.2413 16.6414C52.5683 20.8456 49.0081 25.6681 46.7412 29.8956C44.7052 33.6927 41.9535 37.1397 37.9442 39.5747C33.9485 42.0016 29.2301 43.7423 24.3137 43.517C19.5391 43.2982 15.733 40.5641 11.7183 38.373C7.43495 36.0352 1.52875 34.5128 0.201903 30.3573C-1.12357 26.206 4.47643 22.791 5.39269 18.5619C6.54833 13.2279 1.82499 6.68564 6.19241 2.70726C10.4168 -1.14085 18.3638 -0.194778 24.3137 1.32632Z" fill="#23346B"/>
<rect x="14" y="10" width="22" height="29" fill="white"/>
<path d="M14.3265 28.4661H12.4377C9.28823 28.4661 6.73511 25.913 6.73511 22.7635V21.2903L13.4155 9.50269L20.0291 21.2903V22.7635C20.029 25.9129 17.4759 28.4661 14.3265 28.4661Z" fill="white"/>
<path d="M37.8697 28.4662H35.9809C32.8314 28.4662 30.2783 25.9131 30.2783 22.7636V21.2904L37.4511 9.50281L43.5723 21.2904V22.7636C43.5722 25.913 41.0191 28.4662 37.8697 28.4662Z" fill="white"/>
<path d="M44.6807 21.2062C44.6797 21.1932 44.6792 21.1802 44.6778 21.1673C44.6753 21.1452 44.6714 21.1231 44.6677 21.1011C44.6651 21.0862 44.6631 21.0714 44.66 21.0569C44.6561 21.0388 44.6509 21.0207 44.6461 21.0027C44.6413 20.9847 44.6368 20.9666 44.6311 20.9489C44.6266 20.9348 44.6209 20.9209 44.6157 20.9068C44.6079 20.8859 44.6003 20.8648 44.5913 20.8443C44.5861 20.8326 44.5801 20.821 44.5745 20.8094C44.564 20.7876 44.5533 20.7658 44.5413 20.7448C44.5394 20.7413 44.538 20.7377 44.536 20.7343L41.2125 14.9778C40.9055 14.446 40.2253 14.2635 39.6936 14.5708C39.1617 14.8779 38.9795 15.5579 39.2865 16.0897L41.647 20.1783H32.2051L37.568 10.8894H43.6062C44.2203 10.8894 44.7182 10.3915 44.7182 9.7774C44.7182 9.16335 44.2204 8.66538 43.6062 8.66538H29.3456C28.9475 7.16628 27.765 5.98379 26.2659 5.58578V3.34798C26.2659 2.73393 25.7681 2.23596 25.1539 2.23596C24.5398 2.23596 24.0419 2.73393 24.0419 3.34798V6.55291C24.0419 7.16696 24.5397 7.66493 25.1539 7.66493C25.1547 7.66493 25.1554 7.66486 25.156 7.66486C26.3201 7.66608 27.2668 8.61326 27.2668 9.77755C27.2668 10.9422 26.3196 11.8897 25.155 11.8903C25.1547 11.8903 25.1544 11.8903 25.1539 11.8903C25.1534 11.8903 25.1532 11.8903 25.1528 11.8903C23.9883 11.8896 23.041 10.9422 23.041 9.77755C23.041 9.1635 22.5432 8.66553 21.929 8.66553H6.70187C6.08766 8.66545 5.58984 9.16335 5.58984 9.7774C5.58984 10.3915 6.08766 10.8894 6.70187 10.8894H11.456L5.77211 20.7343C5.77012 20.7377 5.76867 20.7413 5.76676 20.7448C5.75484 20.7658 5.74422 20.7876 5.73359 20.8094C5.72802 20.821 5.7219 20.8326 5.71678 20.8443C5.70776 20.8648 5.70012 20.8858 5.6924 20.9068C5.68721 20.9209 5.68163 20.9348 5.67697 20.9489C5.67131 20.9666 5.66672 20.9847 5.66199 21.0027C5.6571 21.0207 5.65198 21.0387 5.64808 21.0569C5.64494 21.0715 5.64288 21.0864 5.64044 21.1011C5.63669 21.1231 5.63279 21.1451 5.63035 21.1673C5.6289 21.1801 5.62844 21.1931 5.62744 21.2062C5.62569 21.2304 5.624 21.2545 5.62378 21.2785C5.62378 21.2824 5.62324 21.2862 5.62324 21.2902V22.7634C5.62324 26.5209 8.68021 29.578 12.4377 29.578H14.3265C18.0841 29.578 21.1411 26.521 21.1411 22.7634V21.2902C21.1411 21.2862 21.1406 21.2824 21.1406 21.2785C21.1403 21.2544 21.1387 21.2302 21.1369 21.2062C21.1359 21.1932 21.1355 21.1802 21.134 21.1673C21.1316 21.1452 21.1277 21.1231 21.1239 21.1011C21.1214 21.0862 21.1193 21.0713 21.1163 21.0569C21.1124 21.0388 21.1072 21.0207 21.1024 21.0027C21.0976 20.9847 21.093 20.9666 21.0874 20.9489C21.0828 20.9348 21.0771 20.9209 21.072 20.9068C21.0642 20.8859 21.0565 20.8648 21.0476 20.8443C21.0424 20.8326 21.0363 20.821 21.0308 20.8094C21.0202 20.7876 21.0095 20.7658 20.9976 20.7448C20.9957 20.7413 20.9942 20.7377 20.9922 20.7343L17.5312 14.7397C17.2242 14.2078 16.544 14.0254 16.0123 14.3327C15.4804 14.6399 15.2982 15.3199 15.6052 15.8517L18.1032 20.1783H8.66118L14.0241 10.8894H20.9624C21.3605 12.3885 22.543 13.571 24.0421 13.969V32.7047H14.3122C13.698 32.7047 13.2001 33.2026 13.2001 33.8167V39.2654C13.2001 39.8795 13.698 40.3775 14.3122 40.3775H35.9962C36.6103 40.3775 37.1082 39.8795 37.1082 39.2654V33.8167C37.1082 33.2026 36.6104 32.7047 35.9962 32.7047H30.5288C29.9146 32.7047 29.4167 33.2026 29.4167 33.8167C29.4167 34.4307 29.9146 34.9287 30.5288 34.9287H34.8842V38.1535H15.4242V34.9287H25.1542C25.7683 34.9287 26.2662 34.4307 26.2662 33.8167V13.969C27.7653 13.571 28.9478 12.3885 29.3459 10.8894H35.0002L29.3162 20.7343C29.3142 20.7377 29.3127 20.7413 29.3108 20.7448C29.2989 20.7658 29.2883 20.7876 29.2777 20.8094C29.2721 20.821 29.266 20.8326 29.2608 20.8443C29.2518 20.8648 29.2442 20.8858 29.2365 20.9068C29.2313 20.9209 29.2257 20.9348 29.221 20.9489C29.2154 20.9666 29.2108 20.9847 29.206 21.0027C29.2012 21.0207 29.196 21.0387 29.1921 21.0569C29.189 21.0715 29.1869 21.0864 29.1845 21.1011C29.1807 21.1231 29.1769 21.1451 29.1744 21.1673C29.173 21.1801 29.1725 21.1931 29.1715 21.2062C29.1697 21.2304 29.1681 21.2545 29.1678 21.2785C29.1678 21.2824 29.1673 21.2862 29.1673 21.2902V22.7634C29.1673 26.5209 32.2243 29.578 35.9819 29.578H37.8707C41.6282 29.578 44.6851 26.521 44.6851 22.7634V21.2902C44.6851 21.2862 44.6846 21.2824 44.6846 21.2785C44.6839 21.2545 44.6824 21.2304 44.6807 21.2062ZM18.9171 22.7635C18.9171 25.2947 16.8578 27.354 14.3265 27.354H12.4377C9.90641 27.354 7.84721 25.2946 7.84721 22.7635V22.4023H18.9171V22.7635ZM42.4609 22.7635C42.4609 25.2947 40.4016 27.354 37.8704 27.354H35.9816C33.4503 27.354 31.391 25.2946 31.391 22.7635V22.4023H42.4609V22.7635Z" fill="#23346B"/>
</svg>
