<svg width="17" height="16" viewBox="0 0 17 16" fill="none" xmlns="http://www.w3.org/2000/svg">
<path d="M8.16028 14.0156L1.91219 14.0156L1.91219 6.72619L3.99489 1.51945L7.11893 1.51945L5.03624 7.24686L8.16028 7.24687L8.16028 14.0156Z" fill="white"/>
<path d="M9.20178 6.85701L5.8161 6.85701L8.18328 0.999426L3.47437 0.999425L1.01289 7.32561L1.00117 15.0576L9.20178 15.0576L9.20178 6.85701ZM8.03027 13.8861L2.17269 13.8861L2.17269 7.50134L4.27823 2.04077L6.59841 2.04077L4.38685 8.02852L8.03027 8.02852L8.03027 13.8861Z" fill="#B52528" stroke="#B52528" stroke-width="0.3"/>
<path d="M14.9591 14.0156L8.71102 14.0156L8.71102 6.72619L10.7937 1.51945L13.9178 1.51945L11.8351 7.24686L14.9591 7.24687L14.9591 14.0156Z" fill="white"/>
<path d="M16.0006 6.85701L12.6149 6.85701L14.9821 0.999426L10.2732 0.999425L7.81171 7.32561L7.8 15.0576L16.0006 15.0576L16.0006 6.85701ZM14.8291 13.8861L8.97151 13.8861L8.97151 7.50134L11.0771 2.04077L13.3972 2.04077L11.1857 8.02852L14.8291 8.02852L14.8291 13.8861Z" fill="#23346B" stroke="#23346B" stroke-width="0.3"/>
</svg>
