<svg width="60" height="60" viewBox="0 0 60 60" fill="none" xmlns="http://www.w3.org/2000/svg">
<path d="M55.8848 8.84575H41.0311C39.4417 4.28323 35.0973 1 30 1C28.1434 1 26.3676 1.42345 24.722 2.25867C23.7425 2.75586 24.5113 4.27077 25.4911 3.77392C26.8962 3.06081 28.4132 2.69922 30 2.69922C35.5021 2.69922 39.9784 7.17553 39.9784 12.6776C39.9784 18.1797 35.5021 22.656 30 22.656C24.4979 22.656 20.0216 18.1797 20.0216 12.6776C20.0216 10.2981 20.873 7.99387 22.4191 6.18941C23.1339 5.35532 21.8434 4.24936 21.1287 5.08379C20.1733 6.19882 19.4472 7.47788 18.972 8.84563H4.11523C2.39744 8.84563 1 10.2431 1 11.9609V55.8848C1 57.6026 2.39744 59 4.11523 59H55.8848C57.6026 59 59 57.6026 59 55.8848V19.125V11.961C59 10.2432 57.6026 8.84575 55.8848 8.84575ZM55.8848 10.545C56.6656 10.545 57.3008 11.1801 57.3008 11.961V18.2754H40.2458C41.5312 15.9322 41.9687 13.1726 41.4817 10.545H55.8848ZM4.11523 10.545H18.5202C18.0317 13.1734 18.4682 15.9311 19.754 18.2754H2.69922V11.961C2.69922 11.1801 3.33439 10.545 4.11523 10.545ZM55.8848 57.3008H4.11523C3.33439 57.3008 2.69922 56.6656 2.69922 55.8848V19.9746H20.8903C23.0322 22.6433 26.3197 24.3552 30 24.3552C33.687 24.3552 36.9798 22.6372 39.1215 19.9601C39.1711 19.9692 57.3008 19.9746 57.3008 19.9746V55.8848C57.3008 56.6656 56.6656 57.3008 55.8848 57.3008Z" fill="#23346B" stroke="#23346B" stroke-width="0.4"/>
<path d="M48.0307 42.0391H11.9696C5.68478 42.0391 5.67402 51.8035 11.9696 51.8035H48.0306C54.3155 51.8035 54.3263 42.0391 48.0307 42.0391ZM48.0307 50.1042H11.9696C7.87394 50.1042 7.84573 43.7383 11.9696 43.7383H48.0306C52.1264 43.7383 52.1544 50.1042 48.0307 50.1042Z" fill="#23346B" stroke="#23346B" stroke-width="0.4"/>
<path d="M14.7231 46.0723C13.6297 46.0723 13.6279 47.7715 14.7231 47.7715C15.8163 47.7715 15.8182 46.0723 14.7231 46.0723Z" fill="#23346B" stroke="#23346B" stroke-width="0.4"/>
<path d="M19.0893 46.0723C17.9959 46.0723 17.9941 47.7715 19.0893 47.7715C20.1827 47.7715 20.1845 46.0723 19.0893 46.0723Z" fill="#23346B" stroke="#23346B" stroke-width="0.4"/>
<path d="M23.4526 46.0723C22.3592 46.0723 22.3574 47.7715 23.4526 47.7715C24.5459 47.7715 24.5478 46.0723 23.4526 46.0723Z" fill="#23346B" stroke="#23346B" stroke-width="0.4"/>
<path d="M27.8178 46.0723C26.7244 46.0723 26.7226 47.7715 27.8178 47.7715C28.9112 47.7715 28.913 46.0723 27.8178 46.0723Z" fill="#23346B" stroke="#23346B" stroke-width="0.4"/>
<path d="M32.1821 46.0723C31.0887 46.0723 31.0868 47.7715 32.1821 47.7715C33.2754 47.7715 33.2773 46.0723 32.1821 46.0723Z" fill="#23346B" stroke="#23346B" stroke-width="0.4"/>
<path d="M36.5473 46.0723C35.4539 46.0723 35.4521 47.7715 36.5473 47.7715C37.6406 47.7715 37.6424 46.0723 36.5473 46.0723Z" fill="#23346B" stroke="#23346B" stroke-width="0.4"/>
<path d="M40.9115 46.0723C39.8182 46.0723 39.8163 47.7715 40.9115 47.7715C42.0049 47.7715 42.0067 46.0723 40.9115 46.0723Z" fill="#23346B" stroke="#23346B" stroke-width="0.4"/>
<path d="M45.2758 46.0723C44.1824 46.0723 44.1806 47.7715 45.2758 47.7715C46.3692 47.7715 46.371 46.0723 45.2758 46.0723Z" fill="#23346B" stroke="#23346B" stroke-width="0.4"/>
<path d="M48.0307 29.2207H11.9696C5.68478 29.2207 5.67402 38.9851 11.9696 38.9851H40.5689C41.6674 38.9851 41.6674 37.2859 40.5689 37.2859H11.9696C7.87394 37.2859 7.84573 30.9199 11.9696 30.9199H48.0306C52.1262 30.9199 52.1544 37.2859 48.0306 37.2859H45.1002C44.0017 37.2859 44.0017 38.9851 45.1002 38.9851H48.0306C54.3155 38.9851 54.3263 29.2207 48.0307 29.2207Z" fill="#23346B" stroke="#23346B" stroke-width="0.4"/>
<path d="M46.1258 34.1035C46.1258 33.6343 45.7454 33.2539 45.2762 33.2539H14.7243C13.6258 33.2539 13.6258 34.9531 14.7243 34.9531H45.2762C45.7454 34.9531 46.1258 34.5727 46.1258 34.1035Z" fill="#23346B" stroke="#23346B" stroke-width="0.4"/>
<path d="M30.0004 5.76953C28.3344 5.76953 26.9791 7.12483 26.9791 8.79086V10.7948C25.9837 10.8994 25.2051 11.7434 25.2051 12.766V17.1506C25.2051 18.2436 26.0944 19.133 27.1875 19.133H32.8133C33.9063 19.133 34.7957 18.2436 34.7957 17.1506V12.766C34.7957 11.7433 34.0172 10.8994 33.0217 10.7948V8.79086C33.0217 7.12483 31.6664 5.76953 30.0004 5.76953ZM28.6783 8.79074C28.6783 7.13684 31.3226 7.06116 31.3226 8.79074V10.7835H28.6783V8.79074ZM33.0965 17.1506C33.0965 17.3067 32.9694 17.4338 32.8133 17.4338H27.1875C27.0314 17.4338 26.9043 17.3067 26.9043 17.1506V12.766C26.9043 12.6099 27.0314 12.4828 27.1875 12.4828H32.8133C32.9694 12.4828 33.0965 12.6099 33.0965 12.766V17.1506Z" fill="#D01417" stroke="#D01417" stroke-width="0.1"/>
<path d="M30.0004 14.1094C28.907 14.1094 28.9052 15.8086 30.0004 15.8086C31.0938 15.8086 31.0956 14.1094 30.0004 14.1094Z" fill="#D01417" stroke="#D01417" stroke-width="0.1"/>
</svg>
