<svg width="53" height="55" viewBox="0 0 53 55" fill="none" xmlns="http://www.w3.org/2000/svg">
<path d="M12.0738 40.0137H7.81711C7.22947 40.0137 6.75293 40.4901 6.75293 41.0778V45.3346C6.75293 45.9223 7.22947 46.3987 7.81711 46.3987H12.0738C12.6615 46.3987 13.138 45.9223 13.138 45.3346V41.0778C13.138 40.4901 12.6616 40.0137 12.0738 40.0137ZM11.0096 44.2704H8.88128V42.142H11.0096V44.2704Z" fill="#D01417"/>
<path d="M25.4333 44.2715H16.2946C15.707 44.2715 15.2305 44.7479 15.2305 45.3357C15.2305 45.9234 15.707 46.3998 16.2946 46.3998H25.4333C26.0209 46.3998 26.4974 45.9234 26.4974 45.3357C26.4974 44.7479 26.021 44.2715 25.4333 44.2715Z" fill="#23346B"/>
<path d="M17.5328 13.6227H19.0778C19.6655 13.6227 20.142 13.1463 20.142 12.5585C20.142 11.9708 19.6655 11.4943 19.0778 11.4943H17.5328C17.3981 11.4943 17.2885 11.3847 17.2885 11.25V10.2173H18.6712C19.2588 10.2173 19.7354 9.74089 19.7354 9.15314C19.7354 8.56539 19.2588 8.08896 18.6712 8.08896H17.2885V7.05628C17.2885 6.92156 17.3981 6.81195 17.5328 6.81195H19.0778C19.6655 6.81195 20.142 6.33552 20.142 5.74777C20.142 5.16003 19.6655 4.68359 19.0778 4.68359H17.5328C16.2245 4.68359 15.1602 5.74798 15.1602 7.05628V11.25C15.1602 12.5583 16.2245 13.6227 17.5328 13.6227Z" fill="#23346B"/>
<path d="M24.7153 11.4943H22.8884C22.3008 11.4943 21.8242 11.9708 21.8242 12.5585C21.8242 13.1463 22.3008 13.6227 22.8884 13.6227H24.7153C26.241 13.6227 27.4821 12.3814 27.4821 10.8558C27.4821 9.33022 26.241 8.08896 24.7153 8.08896H24.5911C24.2389 8.08896 23.9526 7.80259 23.9526 7.45046C23.9526 7.09832 24.2389 6.81195 24.5911 6.81195H25.8162C26.4038 6.81195 26.8803 6.33552 26.8803 5.74777C26.8803 5.16003 26.4038 4.68359 25.8162 4.68359H24.5911C23.0654 4.68359 21.8242 5.92485 21.8242 7.45046C21.8242 8.97606 23.0654 10.2173 24.5911 10.2173H24.7153C25.0674 10.2173 25.3538 10.5037 25.3538 10.8558C25.3538 11.208 25.0674 11.4943 24.7153 11.4943Z" fill="#23346B"/>
<path d="M13.0096 4.68359H9.49777C8.91013 4.68359 8.43359 5.16003 8.43359 5.74777C8.43359 6.33552 8.91013 6.81195 9.49777 6.81195H10.1895V12.5585C10.1895 13.1463 10.666 13.6227 11.2537 13.6227C11.8413 13.6227 12.3178 13.1463 12.3178 12.5585V6.81195H13.0096C13.5972 6.81195 14.0737 6.33552 14.0737 5.74777C14.0737 5.16003 13.5973 4.68359 13.0096 4.68359Z" fill="#23346B"/>
<path d="M29.9831 6.81195H30.6748V12.5585C30.6748 13.1463 31.1514 13.6227 31.739 13.6227C32.3267 13.6227 32.8032 13.1463 32.8032 12.5585V6.81195H33.4949C34.0825 6.81195 34.5591 6.33552 34.5591 5.74777C34.5591 5.16003 34.0825 4.68359 33.4949 4.68359H29.9831C29.3955 4.68359 28.9189 5.16003 28.9189 5.74777C28.9189 6.33552 29.3955 6.81195 29.9831 6.81195Z" fill="#23346B"/>
<path d="M12.0738 17.8809H7.81711C7.22947 17.8809 6.75293 18.3573 6.75293 18.945V23.2017C6.75293 23.7895 7.22947 24.2659 7.81711 24.2659H12.0738C12.6615 24.2659 13.138 23.7895 13.138 23.2017V18.945C13.138 18.3573 12.6616 17.8809 12.0738 17.8809ZM11.0096 22.1376H8.88128V20.0092H11.0096V22.1376Z" fill="#D01417"/>
<path d="M33.6934 23.1989C33.6934 23.4788 33.8071 23.7534 34.0052 23.9513C34.2032 24.1493 34.4777 24.2631 34.7575 24.2631C35.0374 24.2631 35.312 24.1493 35.5098 23.9513C35.7088 23.7534 35.8217 23.4788 35.8217 23.1989C35.8217 22.9191 35.7088 22.6445 35.5098 22.4466C35.312 22.2486 35.0384 22.1348 34.7575 22.1348C34.4777 22.1348 34.2031 22.2486 34.0052 22.4466C33.8071 22.6445 33.6934 22.9191 33.6934 23.1989Z" fill="#23346B"/>
<path d="M30.5014 22.1348H16.2946C15.707 22.1348 15.2305 22.6112 15.2305 23.1989C15.2305 23.7867 15.707 24.2631 16.2946 24.2631H30.5014C31.0891 24.2631 31.5656 23.7867 31.5656 23.1989C31.5656 22.6112 31.0892 22.1348 30.5014 22.1348Z" fill="#23346B"/>
<path d="M12.0738 28.9473H7.81711C7.22947 28.9473 6.75293 29.4237 6.75293 30.0114V34.2682C6.75293 34.8559 7.22947 35.3323 7.81711 35.3323H12.0738C12.6615 35.3323 13.138 34.8559 13.138 34.2682V30.0114C13.138 29.4237 12.6616 28.9473 12.0738 28.9473ZM11.0096 33.204H8.88128V31.0756H11.0096V33.204Z" fill="#D01417"/>
<path d="M50.974 8.46979C50.0385 7.92961 48.9486 7.78627 47.9053 8.06583C46.8619 8.34539 45.9899 9.01454 45.45 9.95006L44.4257 11.724V11.7242V11.7243L42.9928 14.2062V3.6182C42.9928 1.62308 41.3697 0 39.3746 0H3.6182C1.62308 0 0 1.62308 0 3.6182V50.8677C0 52.8628 1.62308 54.4859 3.6182 54.4859H39.3746C41.3697 54.4859 42.9928 52.8628 42.9928 50.8677V30.5419C42.9928 30.4936 42.9884 30.4464 42.9821 30.3998L51.4299 15.7679L52.4542 13.9938C53.569 12.0628 52.9051 9.58473 50.974 8.46979ZM48.4563 10.1216C48.9505 9.98901 49.4667 10.0571 49.9098 10.3129C50.8246 10.8411 51.1391 12.0149 50.6109 12.9297L50.1187 13.7822L46.8009 11.8666L47.2931 11.0141C47.5491 10.571 47.962 10.254 48.4563 10.1216ZM35.5033 39.0968L32.1855 37.1813L45.7368 13.7098L49.0545 15.6253L35.5033 39.0968ZM31.5754 39.2866L33.9851 40.6779L31.0892 42.9114L31.5754 39.2866ZM40.8643 50.8677C40.8643 51.6892 40.196 52.3575 39.3745 52.3575H3.6181C2.79655 52.3575 2.12825 51.6892 2.12825 50.8677V3.6182C2.12825 2.79666 2.79655 2.12836 3.6181 2.12836H39.3745C40.196 2.12836 40.8643 2.79666 40.8643 3.6182V17.8782C40.8643 17.8827 40.865 17.8869 40.865 17.8913L32.0253 33.2023H16.2951C15.7075 33.2023 15.2309 33.6788 15.2309 34.2665C15.2309 34.8543 15.7075 35.3307 16.2951 35.3307H30.7964L29.8103 37.0387C29.7409 37.159 29.6957 37.2917 29.6771 37.4293L28.6357 45.1924C28.5784 45.62 28.7847 46.0398 29.1584 46.2555C29.3237 46.351 29.5073 46.3981 29.6903 46.3981C29.9206 46.3981 30.15 46.3234 30.3403 46.1766L36.5427 41.3931C36.6526 41.3083 36.7449 41.2027 36.8144 41.0826L40.8643 34.0679V50.8677Z" fill="#23346B"/>
</svg>
