<svg width="57" height="57" viewBox="0 0 57 57" fill="none" xmlns="http://www.w3.org/2000/svg">
<path d="M49.8728 10.3531C50.4876 10.3531 50.986 9.85466 50.986 9.23983V3.3397C50.986 1.49819 49.4878 0 47.6463 0H3.3397C1.49819 0 0 1.49819 0 3.3397V53.6578C0 55.4993 1.49819 56.9975 3.3397 56.9975H47.6463C49.4878 56.9975 50.986 55.4993 50.986 53.6578V50.5407C50.986 49.9259 50.4876 49.4275 49.8728 49.4275C49.258 49.4275 48.7596 49.9259 48.7596 50.5407V53.6578C48.7596 54.2716 48.2602 54.771 47.6463 54.771H3.3397C2.72586 54.771 2.22646 54.2716 2.22646 53.6578V3.3397C2.22646 2.72586 2.72586 2.22646 3.3397 2.22646H47.6463C48.2602 2.22646 48.7596 2.72586 48.7596 3.3397V9.23983C48.7596 9.85466 49.258 10.3531 49.8728 10.3531Z" fill="#23346B"/>
<path d="M44.5299 5.34375H6.45601C5.84117 5.34375 5.34277 5.84214 5.34277 6.45698V29.7235C5.34277 30.3384 5.84117 30.8368 6.45601 30.8368C7.07084 30.8368 7.56924 30.3384 7.56924 29.7235V7.57021H43.4166V9.35139C43.4166 9.96622 43.9152 10.4646 44.5299 10.4646C45.1447 10.4646 45.6431 9.96622 45.6431 9.35139V6.45698C45.6431 5.84214 45.1447 5.34375 44.5299 5.34375Z" fill="#23346B"/>
<path d="M7.24306 33.0547C7.036 32.8476 6.7499 32.7285 6.45601 32.7285C6.16323 32.7285 5.87601 32.8476 5.66895 33.0547C5.46189 33.2618 5.34277 33.549 5.34277 33.8417C5.34277 34.1345 5.46189 34.4217 5.66895 34.6288C5.87601 34.8359 6.16323 34.955 6.45601 34.955C6.7499 34.955 7.036 34.8359 7.24306 34.6288C7.45124 34.4217 7.56924 34.1345 7.56924 33.8417C7.56924 33.549 7.45124 33.2618 7.24306 33.0547Z" fill="#23346B"/>
<path d="M44.5299 46.9791C43.915 46.9791 43.4166 47.4774 43.4166 48.0923V49.4282H7.56924V38.1289C7.56924 37.514 7.07084 37.0156 6.45601 37.0156C5.84117 37.0156 5.34277 37.514 5.34277 38.1289V50.5414C5.34277 51.1562 5.84117 51.6546 6.45601 51.6546H44.5299C45.1447 51.6546 45.6431 51.1562 45.6431 50.5414V48.0923C45.6431 47.4774 45.1447 46.9791 44.5299 46.9791Z" fill="#23346B"/>
<path d="M34.4997 39.3339C34.065 38.8991 33.3602 38.8991 32.9254 39.3338L30.7252 41.5341L29.3576 40.1664C28.494 39.303 27.0893 39.303 26.2257 40.1664L25.3358 41.0563C24.9011 41.4911 24.9011 42.196 25.3358 42.6308C25.7705 43.0655 26.4754 43.0655 26.9102 42.6308L27.7917 41.7493L29.1593 43.117C29.591 43.5488 30.1581 43.7646 30.7252 43.7646C31.2923 43.7646 31.8593 43.5488 32.2911 43.117L34.4997 40.9084C34.9344 40.4737 34.9344 39.7688 34.4997 39.3339Z" fill="#D01417"/>
<path d="M56.4853 23.3534C56.9759 22.588 57.1224 21.6453 56.8871 20.7672C56.6517 19.8891 56.0537 19.146 55.246 18.7285C54.8958 18.5475 54.6814 18.1762 54.6998 17.7824C54.742 16.8742 54.3975 15.9848 53.7547 15.3419C53.112 14.6991 52.2227 14.3541 51.3142 14.3969C50.9186 14.416 50.5491 14.2007 50.3681 13.8506C49.9506 13.043 49.2075 12.4449 48.3294 12.2096C47.451 11.9741 46.5086 12.1207 45.7434 12.6113C45.4115 12.8242 44.9827 12.8241 44.651 12.6113C43.8856 12.1206 42.9432 11.9742 42.0649 12.2096C41.1868 12.4449 40.4437 13.043 40.0263 13.8506C39.8453 14.2008 39.4729 14.4147 39.0801 14.3969C38.1716 14.3544 37.2825 14.6991 36.6397 15.3419C35.9968 15.9848 35.6524 16.8742 35.6946 17.7823C35.7129 18.1762 35.4984 18.5475 35.1483 18.7285C34.3408 19.146 33.7426 19.889 33.5073 20.7672C33.395 21.1861 33.3706 21.6197 33.4281 22.0417H14.0022C13.3874 22.0417 12.889 22.5401 12.889 23.155C12.889 23.7698 13.3874 24.2682 14.0022 24.2682H33.9969C33.973 24.3293 33.9452 24.3893 33.9089 24.4459C33.4183 25.2112 33.2718 26.1539 33.5072 27.032C33.5395 27.1526 33.5792 27.2704 33.6248 27.3853H14.0019C13.3871 27.3853 12.8887 27.8837 12.8887 28.4985C12.8887 29.1133 13.3871 29.6117 14.0019 29.6117H35.6281C35.6765 29.739 35.7008 29.8762 35.6942 30.0168C35.652 30.925 35.9965 31.8145 36.6394 32.4574C37.2821 33.1002 38.1713 33.4453 39.0798 33.4024C39.4731 33.3831 39.8449 33.5984 40.0259 33.9487C40.1596 34.2074 40.3272 34.4442 40.5214 34.6549V45.0517C40.5214 45.5014 40.7921 45.907 41.2073 46.0797C41.6224 46.2523 42.1009 46.1581 42.4198 45.8409L45.197 43.0782L47.9742 45.8409C48.187 46.0526 48.4708 46.1649 48.7596 46.1649C48.9034 46.1649 49.0486 46.137 49.1867 46.0795C49.602 45.9069 49.8726 45.5013 49.8726 45.0516V34.6548C50.0668 34.4442 50.2344 34.2073 50.3681 33.9485C50.5491 33.5983 50.9209 33.3844 51.3142 33.4023C52.2233 33.4453 53.1119 33.1002 53.7546 32.4573C54.3975 31.8144 54.742 30.9249 54.6998 30.0167C54.6814 29.623 54.8959 29.2516 55.246 29.0706C56.0536 28.6531 56.6517 27.9102 56.8871 27.0319C57.1224 26.1537 56.9759 25.2111 56.4853 24.4457C56.2724 24.114 56.2724 23.6852 56.4853 23.3534ZM47.6461 42.374L45.9821 40.7187C45.5478 40.2866 44.8461 40.2866 44.4118 40.7187L42.7479 42.374V35.6955C43.4139 35.7269 44.0814 35.5528 44.6509 35.1879C44.9827 34.9751 45.4115 34.9752 45.7433 35.1879C46.269 35.525 46.8784 35.6997 47.4933 35.6997C47.5443 35.6997 47.5951 35.6971 47.6461 35.6946V42.374ZM54.7364 26.4558C54.6618 26.7342 54.4796 26.9606 54.2235 27.0929C53.1032 27.6721 52.417 28.8604 52.4756 30.1204C52.4891 30.4084 52.3841 30.6792 52.1803 30.8831C51.9765 31.087 51.7056 31.1916 51.4176 31.1785C50.157 31.1202 48.9694 31.8059 48.3902 32.9264C48.2578 33.1825 48.0315 33.3647 47.753 33.4392C47.4747 33.5137 47.1875 33.4693 46.9449 33.3137C46.4139 32.9732 45.8055 32.8031 45.1969 32.8031C44.5885 32.8031 43.9799 32.9734 43.449 33.3137C43.2063 33.4692 42.9192 33.5137 42.6408 33.4392C42.3623 33.3647 42.1361 33.1824 42.0036 32.9264C41.4244 31.806 40.237 31.1196 38.9762 31.1785C38.6888 31.1917 38.4173 31.087 38.2135 30.8831C38.0095 30.6792 37.9047 30.4084 37.9181 30.1203C37.9594 29.231 37.6285 28.3785 37.037 27.7496C37.0196 27.7306 37.0019 27.7119 36.9832 27.6941C36.7484 27.456 36.4762 27.2511 36.1702 27.0929C35.9142 26.9606 35.7321 26.7344 35.6575 26.4558C35.5829 26.1773 35.6274 25.8902 35.7831 25.6476C36.4638 24.5858 36.4638 23.2136 35.7831 22.1518C35.6275 21.9092 35.5829 21.6221 35.6575 21.3435C35.7321 21.0651 35.9143 20.8388 36.1704 20.7064C37.2907 20.1272 37.9768 18.9389 37.9182 17.679C37.9048 17.391 38.0098 17.1201 38.2136 16.9162C38.4174 16.7123 38.6888 16.6076 38.9763 16.6209C40.237 16.6793 41.4246 15.9934 42.0037 14.873C42.1361 14.6168 42.3624 14.4347 42.6409 14.3601C42.9193 14.2856 43.2064 14.3301 43.449 14.4857C44.5109 15.1665 45.8832 15.1665 46.9448 14.4857C47.1875 14.3302 47.4745 14.2854 47.753 14.3601C48.0315 14.4347 48.2577 14.6169 48.3902 14.873C48.9694 15.9933 50.1576 16.6796 51.4176 16.6209C51.7057 16.6077 51.9765 16.7123 52.1803 16.9162C52.3843 17.1201 52.4891 17.391 52.4756 17.679C52.4171 18.9388 53.1031 20.1272 54.2236 20.7064C54.4797 20.8388 54.6618 21.065 54.7364 21.3435C54.811 21.6221 54.7665 21.9092 54.6108 22.1517C53.9301 23.2135 53.9301 24.5857 54.6108 25.6475C54.7665 25.8902 54.8111 26.1773 54.7364 26.4558Z" fill="#23346B"/>
<path d="M50.4912 20.871C50.0565 20.4362 49.3516 20.4362 48.9169 20.871L45.222 24.566L43.7511 23.0951C43.3164 22.6604 42.6115 22.6604 42.1766 23.0951C41.7419 23.5298 41.7419 24.2347 42.1766 24.6695L44.4347 26.9276C44.6521 27.145 44.937 27.2537 45.2219 27.2537C45.5067 27.2537 45.7917 27.145 46.009 26.9276L50.4912 22.4454C50.926 22.0107 50.926 21.3058 50.4912 20.871Z" fill="#D01417"/>
<path d="M13.5897 13.4629C13.3827 13.2558 13.0955 13.1367 12.8027 13.1367C12.5099 13.1367 12.2227 13.2558 12.0156 13.4629C11.8086 13.67 11.6895 13.9572 11.6895 14.25C11.6895 14.5427 11.8086 14.8299 12.0156 15.037C12.2227 15.2441 12.5099 15.3632 12.8027 15.3632C13.0955 15.3632 13.3827 15.2441 13.5897 15.037C13.7968 14.8299 13.9159 14.5427 13.9159 14.25C13.9159 13.9572 13.7968 13.67 13.5897 13.4629Z" fill="#23346B"/>
<path d="M22.3757 13.1367H16.958C16.3431 13.1367 15.8447 13.6351 15.8447 14.25C15.8447 14.8648 16.3431 15.3632 16.958 15.3632H22.3757C22.9906 15.3632 23.489 14.8648 23.489 14.25C23.489 13.6351 22.9906 13.1367 22.3757 13.1367Z" fill="#23346B"/>
<path d="M33.712 32.7285H20.9853C20.3705 32.7285 19.8721 33.2269 19.8721 33.8417C19.8721 34.4566 20.3705 34.955 20.9853 34.955H33.7119C34.3267 34.955 34.8251 34.4566 34.8251 33.8417C34.8251 33.2269 34.3268 32.7285 33.712 32.7285Z" fill="#23346B"/>
</svg>
