<svg width="45" height="45" viewBox="0 0 45 45" fill="none" xmlns="http://www.w3.org/2000/svg">
<path d="M43.4032 9.9675L40.799 6.49452L44.8577 0H42.0967C41.1321 0 40.619 0.585726 40.2793 0.973306C39.9629 1.33476 39.8373 1.45161 39.5542 1.45161C39.2712 1.45161 39.1456 1.33476 38.8292 0.973306C38.4895 0.585726 37.9763 0 37.0117 0C36.0471 0 35.5347 0.586452 35.1958 0.974032C34.8808 1.33476 34.7545 1.45161 34.4736 1.45161C34.1927 1.45161 34.0664 1.33476 33.7507 0.974032C33.4117 0.586452 32.8993 0 31.9355 0H29.1745L33.2339 6.49524L30.629 9.9675C29.5998 11.3407 29.0322 13.0413 29.0322 14.7578V15.2419C29.0322 19.644 32.6141 23.2258 37.0161 23.2258C41.4181 23.2258 45 19.644 45 15.2419V14.7578C45 13.042 44.4331 11.3407 43.4032 9.9675ZM31.9355 1.45161C32.2163 1.45161 32.3426 1.56847 32.6576 1.92919C32.9966 2.31677 33.509 2.90323 34.4736 2.90323C35.4375 2.90323 35.9499 2.31677 36.2888 1.92919C36.6046 1.56847 36.7301 1.45161 37.0117 1.45161C37.2948 1.45161 37.4204 1.56847 37.7368 1.92992C38.0765 2.3175 38.5896 2.90323 39.5542 2.90323C40.5188 2.90323 41.032 2.3175 41.3717 1.92992C41.6881 1.56847 41.8137 1.45161 42.0967 1.45161H42.239L39.5172 5.80645H34.5157L31.7939 1.45161H31.9355ZM43.5484 15.2419C43.5484 18.8441 40.6175 21.7742 37.0161 21.7742C33.4146 21.7742 30.4838 18.8441 30.4838 15.2419V14.7578C30.4838 13.3534 30.9476 11.9613 31.7903 10.8385L34.4758 7.25806H39.5564L42.2419 10.8385C43.0846 11.962 43.5484 13.3541 43.5484 14.7578V15.2419Z" fill="#D01417"/>
<path d="M37.7423 11.6127C38.1422 11.6127 38.4681 11.9379 38.4681 12.3385H39.9197C39.9197 11.138 38.9428 10.1611 37.7423 10.1611V8.70947H36.2907V10.1611H34.1133V12.3385C34.1133 13.539 35.0902 14.5159 36.2907 14.5159H37.7423C38.1422 14.5159 38.4681 14.8411 38.4681 15.2417V15.9675H36.2907C35.8908 15.9675 35.5649 15.6424 35.5649 15.2417H34.1133C34.1133 16.4422 35.0902 17.4191 36.2907 17.4191V18.8708H37.7423V17.4191H39.9197V15.2417C39.9197 14.0412 38.9428 13.0643 37.7423 13.0643H36.2907C35.8908 13.0643 35.5649 12.7392 35.5649 12.3385V11.6127H37.7423Z" fill="#D01417"/>
<path d="M10.8877 17.4195C14.4892 17.4195 17.42 14.4894 17.42 10.8872C17.42 7.28506 14.4892 4.35498 10.8877 4.35498C7.28628 4.35498 4.35547 7.28506 4.35547 10.8872C4.35547 14.4894 7.28628 17.4195 10.8877 17.4195ZM10.8877 5.80659C13.6893 5.80659 15.9684 8.08635 15.9684 10.8872C15.9684 13.6881 13.6893 15.9679 10.8877 15.9679C8.08611 15.9679 5.80708 13.6881 5.80708 10.8872C5.80708 8.08635 8.08611 5.80659 10.8877 5.80659Z" fill="#D01417"/>
<path d="M10.8868 14.5164C12.8879 14.5164 14.5159 12.8884 14.5159 10.8873C14.5159 8.88628 12.8879 7.2583 10.8868 7.2583C8.8858 7.2583 7.25781 8.88628 7.25781 10.8873C7.25781 12.8884 8.8858 14.5164 10.8868 14.5164ZM10.8868 8.70991C12.0873 8.70991 13.0643 9.68685 13.0643 10.8873C13.0643 12.0878 12.0873 13.0648 10.8868 13.0648C9.68636 13.0648 8.70943 12.0878 8.70943 10.8873C8.70943 9.68685 9.68636 8.70991 10.8868 8.70991Z" fill="#D01417"/>
<path d="M40.6452 27.5806H36.7156L34.8387 29.4576V39.1936H33.3871V30.4839H29.4576L27.5806 32.3608V39.1936H26.129V31.9355H22.1995L20.3226 33.8124V39.1936H18.871V33.3871H14.9415L13.0645 35.264V39.1936H5.80645V38.9439L14.2672 30.4839H22.9769L26.2169 27.2431L28.8893 29.9156L29.8343 19.5213L19.44 20.4663L22.1124 23.1387L20.5715 24.6774H11.8619L5.80645 30.7336V20.1186L6.92056 19.4444C7.16008 19.5561 7.40105 19.657 7.64274 19.7463L8.14065 21.7742H13.6335L14.1322 19.7463C14.3731 19.657 14.6141 19.5561 14.8544 19.4444L16.6442 20.5273L20.5287 16.6427L19.4451 14.8536C19.5569 14.6141 19.6577 14.3731 19.7477 14.1315L21.7742 13.6335V8.14065L19.7463 7.64202C19.657 7.40032 19.5561 7.15936 19.4436 6.91984L20.5273 5.13073L16.6427 1.24621L14.8536 2.32984C14.6134 2.21806 14.3724 2.11718 14.1315 2.0279L13.6335 0H8.14065L7.64202 2.0279C7.40105 2.11718 7.16008 2.21806 6.91984 2.32984L5.13073 1.24694L1.24621 5.13073L2.32984 6.92056C2.21806 7.16008 2.11718 7.40105 2.02718 7.64202L0 8.14065V12.3387V13.6335V45H45V39.1936H40.6452V27.5806ZM36.2903 30.0585L37.3166 29.0323H39.1936V39.1936H36.2903V30.0585ZM29.0323 32.9618L30.0585 31.9355H31.9355V39.1936H29.0323V32.9618ZM21.7742 34.4134L22.8005 33.3871H24.6774V39.1936H21.7742V34.4134ZM14.5161 35.865L15.5424 34.8387H17.4194V39.1936H14.5161V35.865ZM12.4628 26.129H21.1725L24.1643 23.138L22.6575 21.6312L28.231 21.1246L27.7244 26.6981L26.2176 25.1913L22.3759 29.0323H13.6662L5.80645 36.8913V32.7861L12.4628 26.129ZM1.45161 9.27871L3.15363 8.85992L3.27702 8.47234C3.40911 8.05718 3.58548 7.63548 3.80105 7.21815L3.98831 6.85669L3.07815 5.3521L5.35282 3.07815L6.85742 3.98903L7.2196 3.80105C7.63621 3.58476 8.05718 3.40839 8.47161 3.27702L8.86065 3.15436L9.27871 1.45161H12.4955L12.9143 3.15508L13.3033 3.27774C13.7177 3.40911 14.1387 3.58548 14.5553 3.80177L14.9175 3.98976L16.4221 3.07887L18.6968 5.35282L17.7859 6.85815L17.9739 7.2196C18.1887 7.63403 18.3651 8.05573 18.4979 8.47306L18.6213 8.86065L20.3226 9.27871V12.4955L18.6206 12.9143L18.4972 13.3019C18.3644 13.7185 18.1887 14.1402 17.9731 14.5553L17.7852 14.9168L18.696 16.4221L16.4214 18.696L14.9168 17.7852L14.5546 17.9731C14.138 18.1894 13.717 18.3658 13.3026 18.4972L12.9135 18.6198L12.4955 20.3226H9.27871L8.85992 18.6206L8.47234 18.4972C8.05645 18.3651 7.63476 18.1887 7.21887 17.9724L6.85669 17.7844L5.3521 18.6953L3.07742 16.4214L3.98831 14.9175L3.80105 14.556C3.58548 14.1409 3.40911 13.7192 3.27702 13.3019L3.15363 12.9143L1.45161 12.4955V12.3387V9.27871ZM2.0279 14.1322C2.11718 14.3731 2.21806 14.6141 2.32984 14.8536L1.45161 16.3052V13.9906L2.0279 14.1322ZM43.5484 40.6452V43.5484H1.45161V16.8489L4.35484 19.7521V40.6452H13.0645H18.871H20.3226H26.129H27.5806H33.3871H34.8387H40.6452H43.5484Z" fill="#23346B"/>
</svg>
