<svg width="44" height="50" viewBox="0 0 44 50" fill="none" xmlns="http://www.w3.org/2000/svg">
<path d="M36.6522 40.8975H16.3002C15.9749 40.8975 15.7109 41.161 15.7109 41.4868C15.7109 41.8121 15.9749 42.076 16.3002 42.076H36.6522C36.9776 42.076 37.2415 41.8121 37.2415 41.4868C37.2415 41.161 36.9776 40.8975 36.6522 40.8975Z" fill="#D01417" stroke="#D01417" stroke-width="0.4"/>
<path d="M24.5893 37.1786H36.3793C36.7047 37.1786 36.9686 36.9146 36.9686 36.5893C36.9686 36.2636 36.7047 36 36.3793 36H24.5893C24.264 36 24 36.2636 24 36.5893C24 36.9146 24.264 37.1786 24.5893 37.1786Z" fill="#23346B" stroke="#23346B" stroke-width="0.4"/>
<path d="M24.5893 31.1786H36.3793C36.7047 31.1786 36.9686 30.9146 36.9686 30.5893C36.9686 30.2636 36.7047 30 36.3793 30H24.5893C24.264 30 24 30.2636 24 30.5893C24 30.9146 24.264 31.1786 24.5893 31.1786Z" fill="#23346B" stroke="#23346B" stroke-width="0.4"/>
<path d="M24.5893 25.1786H36.3793C36.7047 25.1786 36.9686 24.9146 36.9686 24.5893C36.9686 24.2636 36.7047 24 36.3793 24H24.5893C24.264 24 24 24.2636 24 24.5893C24 24.9146 24.264 25.1786 24.5893 25.1786Z" fill="#23346B" stroke="#23346B" stroke-width="0.4"/>
<path d="M1.69825 12.2333L2.06886 12.5118C2.29176 12.6779 2.36082 12.9814 2.23191 13.2281L2.02128 13.6329C1.76731 14.1216 1.75887 14.7017 1.99826 15.1978C2.23766 15.6938 2.6969 16.048 3.23785 16.1531L3.68097 16.2394C3.95489 16.292 4.15017 16.536 4.14058 16.8149L4.126 17.271C4.11526 17.8254 4.36694 18.3522 4.80545 18.6913C4.85878 18.7423 4.9217 18.7819 4.99076 18.8068V29.3699C4.98193 29.5798 5.08935 29.7773 5.27006 29.884C5.45728 29.9884 5.68632 29.9838 5.8697 29.8725L10.589 26.9813V48.3841C10.5833 48.5353 10.64 48.6818 10.7459 48.7893C10.8522 48.8967 10.998 48.955 11.1488 48.9512H42.3746C42.7 48.9512 43 48.7098 43 48.3841V13.8216C42.9931 13.667 42.9279 13.5212 42.8178 13.413L35.4317 5.72961C35.3181 5.61145 35.162 5.54316 34.9982 5.54009H18.9995C18.9511 5.53587 18.9032 5.52704 18.8563 5.51361L18.4132 5.4319C18.1397 5.38049 17.9444 5.13687 17.9536 4.85834L17.9682 4.40332C17.9851 3.85278 17.7415 3.32641 17.3106 2.98342C16.8798 2.64005 16.3123 2.51997 15.7795 2.66L15.3394 2.7751C15.0701 2.84684 14.7889 2.71141 14.6761 2.45629L14.4904 2.03772C14.2667 1.53437 13.8186 1.16568 13.2815 1.04368C12.7444 0.921291 12.1812 1.05941 11.7618 1.41659L11.4154 1.71123C11.2036 1.8927 10.8906 1.8927 10.6788 1.71123L10.3324 1.41659C9.91302 1.05941 9.34944 0.921291 8.81271 1.04368C8.27559 1.16568 7.82749 1.53437 7.60382 2.03772L7.41813 2.4559C7.30572 2.71141 7.02412 2.84646 6.75479 2.7751L6.31474 2.66C5.78185 2.52036 5.21443 2.64044 4.78358 2.98381C4.35274 3.32718 4.10912 3.85393 4.12639 4.40447L4.14097 4.86064C4.15056 5.13917 3.95528 5.38356 3.68135 5.43612L3.23823 5.52205C2.69728 5.62756 2.23805 5.98129 1.99865 6.47735C1.75887 6.97341 1.76731 7.55349 2.02128 8.04227L2.23114 8.44625C2.36005 8.69294 2.29099 8.9968 2.06732 9.1633L1.69978 9.438C1.25973 9.76794 1.00038 10.2855 1 10.8353C0.999617 11.385 1.2582 11.903 1.69786 12.2329L1.69825 12.2333ZM6.16934 19.0543C6.2242 19.0378 6.28021 19.0247 6.33699 19.0159L6.76592 18.9004C7.03409 18.8291 7.31377 18.9649 7.42388 19.2196L7.60727 19.6386C7.83017 20.1415 8.27789 20.5102 8.81462 20.6326C9.35135 20.7546 9.91456 20.6165 10.3335 20.2597L10.6796 19.965C10.8917 19.7832 11.2044 19.7832 11.4162 19.965L11.7626 20.2597C12.0761 20.5286 12.4754 20.6767 12.8886 20.6771C13.0214 20.6767 13.1534 20.6618 13.2826 20.6326C13.8205 20.5121 14.2694 20.1431 14.4911 19.6386L14.6768 19.2196C14.7896 18.9645 15.0708 18.8291 15.3402 18.9004L15.791 19.0159C15.8562 19.0355 15.9233 19.0481 15.9908 19.0543V28.3179L11.3659 25.4896C11.1829 25.3738 10.9497 25.3738 10.7666 25.4896L6.16934 28.3175V19.0543ZM11.7676 47.7726V27.1056L16.2659 29.8725C16.3557 29.9293 16.4601 29.9592 16.5663 29.9592C16.6691 29.9592 16.7708 29.9335 16.861 29.884C17.049 29.7808 17.1667 29.5844 17.1694 29.3699V18.8068C17.1694 18.7719 17.2692 18.7335 17.3214 18.6913C17.753 18.3491 17.995 17.8212 17.9736 17.2707L17.9563 16.8149C17.9463 16.5363 18.1408 16.292 18.4144 16.2394L18.8571 16.1531C19.3977 16.048 19.8569 15.6938 20.0963 15.1978C20.3353 14.7017 20.3269 14.122 20.0729 13.6332L19.8623 13.2281C19.7334 12.9818 19.8024 12.6779 20.0253 12.5118L20.3959 12.2333C20.8356 11.903 21.0942 11.385 21.0938 10.8353C21.0934 10.2855 20.8341 9.76794 20.394 9.43838L20.0265 9.1633C19.8032 8.99718 19.7338 8.69294 19.8631 8.44625L20.0729 8.03383C20.287 7.62907 20.3311 7.15603 20.1961 6.71867H34.4553V13.8216C34.4461 13.9693 34.4998 14.1143 34.603 14.2206C34.7066 14.3269 34.8501 14.3848 34.9982 14.3794H41.8214V47.7726H11.7676ZM35.6339 7.60989L40.9908 13.2009H35.6339V7.60989ZM2.40647 10.3822L2.77401 10.1071C3.46037 9.59606 3.67368 8.66187 3.27698 7.90377L3.06712 7.4994C2.98425 7.34057 2.98157 7.15181 3.05945 6.99029C3.13733 6.82878 3.28695 6.7133 3.46305 6.67915L3.90617 6.59283C4.74867 6.43208 5.34794 5.68089 5.3184 4.82381L5.3042 4.36764C5.29845 4.18848 5.37786 4.01737 5.5179 3.90573C5.65793 3.79408 5.84285 3.75495 6.01588 3.80022L6.45593 3.91532C7.28462 4.13515 8.14975 3.71927 8.49504 2.9347L8.68111 2.51613C8.75401 2.35232 8.89941 2.23262 9.07436 2.19272C9.24892 2.15282 9.4323 2.1977 9.5685 2.31395L9.91494 2.6086C10.5664 3.16681 11.5278 3.16681 12.1793 2.6086L12.5257 2.31395C12.6619 2.19809 12.8453 2.15282 13.0198 2.19272C13.1948 2.23262 13.3402 2.35232 13.4131 2.51613L13.5992 2.93508C13.9444 3.71927 14.8096 4.13515 15.6379 3.9157L16.0783 3.80022C16.2513 3.75495 16.4363 3.79408 16.5763 3.90573C16.7163 4.01737 16.7958 4.18848 16.79 4.36764L16.7758 4.82381C16.7463 5.68089 17.3455 6.43169 18.188 6.59283L18.6311 6.67915C18.8072 6.7133 18.9565 6.82839 19.0344 6.98991C19.1122 7.15104 19.1096 7.3398 19.0271 7.49863L18.8172 7.903C18.4205 8.6611 18.6338 9.59529 19.3202 10.1063L19.6877 10.3814C19.8308 10.4888 19.9152 10.6569 19.9152 10.836C19.9156 11.0148 19.8312 11.1832 19.6885 11.2907L19.3175 11.5692C18.6327 12.0806 18.4205 13.0136 18.8168 13.771L19.0275 14.1761C19.1099 14.3353 19.1126 14.5241 19.0347 14.6852C18.9569 14.8467 18.8072 14.9618 18.6315 14.996L18.1884 15.0823C17.3459 15.2434 16.7466 15.9942 16.7762 16.8513L16.7904 17.3075C16.7961 17.4866 16.7167 17.6578 16.5767 17.7694C16.4367 17.8814 16.2517 17.9202 16.0783 17.8749L15.6383 17.7598C14.81 17.54 13.9448 17.9559 13.5995 18.74L13.4135 19.159C13.3406 19.3228 13.1948 19.4425 13.0202 19.4824C12.8457 19.5223 12.6623 19.4774 12.5261 19.3612L12.1793 19.0665C11.5278 18.5083 10.5668 18.5083 9.91532 19.0665L9.56888 19.3612C9.4323 19.4774 9.2493 19.5223 9.07436 19.4824C8.89979 19.4425 8.75401 19.3228 8.6815 19.159L8.49542 18.74C8.14975 17.9559 7.28462 17.54 6.45631 17.7598L6.01626 17.8749C5.84285 17.9202 5.65831 17.8814 5.51828 17.7694C5.37786 17.6578 5.29883 17.4866 5.30458 17.3075L5.31878 16.8513C5.34832 15.9942 4.74867 15.2434 3.90655 15.0823L3.46305 14.996C3.28734 14.9618 3.1381 14.8467 3.06022 14.6852C2.98233 14.5237 2.98502 14.3353 3.06751 14.1761L3.27813 13.771C3.67406 13.0136 3.4619 12.0806 2.77708 11.5692L2.40647 11.2907C2.26337 11.1832 2.17935 11.0148 2.17935 10.836C2.17935 10.6569 2.26375 10.4888 2.40686 10.3814L2.40647 10.3822Z" fill="#23346B" stroke="#23346B" stroke-width="0.4"/>
<path d="M20.4515 20.1401H20V18.0303H21.2782C21.7488 18.0303 21.9396 18.2377 21.9396 18.7669C21.9396 19.3034 21.7488 19.5179 21.2846 19.5179H20.4515V20.1401ZM20.4515 19.0959H21.2019C21.4308 19.0959 21.4944 18.9958 21.4944 18.7669C21.4944 18.5595 21.4372 18.4451 21.2019 18.4451H20.4515V19.0959Z" fill="#D01417"/>
<path d="M23.682 20.1385H22.8553C22.3529 20.1385 22.1621 19.9311 22.1621 19.4161V18.751C22.1621 18.1717 22.3402 18 22.8553 18H23.682C24.1462 18 24.3624 18.1573 24.3624 18.751V19.4161C24.3624 19.9454 24.2034 20.1385 23.682 20.1385ZM22.9634 19.7237H23.5611C23.8473 19.7237 23.9109 19.6521 23.9109 19.3661V18.801C23.9109 18.4935 23.8219 18.422 23.5484 18.422H22.9697C22.6899 18.422 22.6073 18.5006 22.6073 18.801V19.3661C22.6136 19.645 22.6899 19.7237 22.9634 19.7237Z" fill="#D01417"/>
<path d="M26.8233 19.409C26.8233 19.974 26.6962 20.1385 26.1429 20.1385H25.3098C24.7884 20.1385 24.623 19.9597 24.623 19.3947V18.7939C24.623 18.1788 24.8011 18 25.348 18H26.092C26.5372 18 26.8106 18.143 26.8106 18.7367H26.3591C26.3591 18.515 26.2574 18.422 25.9966 18.422H25.4179C25.1191 18.422 25.0555 18.4792 25.0555 18.8082V19.3303C25.0555 19.6521 25.1636 19.7165 25.4179 19.7165H25.9966C26.2637 19.7165 26.3591 19.6593 26.3591 19.409H26.8233Z" fill="#D01417"/>
<path d="M27.5741 19.7239H27.6376L28.7823 18.036H29.539V20.1458H29.0875V18.4508H29.024L27.8984 20.1387H27.1289V18.0288H27.5804V19.7239H27.5741Z" fill="#D01417"/>
<path d="M30.2953 18.837H31.4526V18.0288H31.9041V20.1387H31.4526V19.259H30.2953V20.1387H29.8438V18.0288H30.2953V18.837Z" fill="#D01417"/>
<path d="M33.9079 18.0288V18.1933H34.4866C34.9508 18.1933 35.1734 18.3435 35.1734 18.9371V19.2232C35.1734 19.7525 35.0144 19.9527 34.4866 19.9527H33.9079V20.1387H33.4564V19.9527H32.8777C32.3562 19.9527 32.1973 19.7596 32.1973 19.2304V18.9443C32.1973 18.3507 32.4135 18.1933 32.8777 18.1933H33.4564V18.0288H33.9079ZM33.0049 18.6153C32.7378 18.6153 32.6424 18.6868 32.6424 18.9943V19.1803C32.6424 19.4664 32.706 19.5379 32.9922 19.5379H33.45V18.6153H33.0049ZM33.9079 19.5308H34.3721C34.6583 19.5308 34.7219 19.4592 34.7219 19.1731V18.9872C34.7219 18.6797 34.6328 18.6081 34.3658 18.6081H33.9143V19.5308H33.9079Z" fill="#D01417"/>
<path d="M35.9115 20.1387H35.46V18.0288H36.7382C37.2087 18.0288 37.3995 18.2362 37.3995 18.7655C37.3995 19.3019 37.2087 19.5164 36.7445 19.5164H35.9115V20.1387ZM35.9115 19.0945H36.6619C36.8908 19.0945 36.9544 18.9943 36.9544 18.7655C36.9544 18.5581 36.8971 18.4436 36.6619 18.4436H35.9115V19.0945Z" fill="#D01417"/>
<path d="M37.3545 20.1387L38.3465 18.0288H39.0142L39.9999 20.1387H39.4721L39.2305 19.6094H38.124L37.8823 20.1387H37.3545ZM39.0524 19.2089L38.6963 18.4222H38.6772L38.3084 19.2089H39.0524Z" fill="#D01417"/>
<path d="M11.0471 17.1641C14.5411 17.1645 17.3736 14.332 17.3736 10.8377C17.374 7.34374 14.5414 4.51123 11.0471 4.51123C7.55321 4.51123 4.7207 7.34374 4.7207 10.8377C4.72454 14.3301 7.55475 17.1603 11.0471 17.1641ZM11.0471 5.68981C13.8904 5.68981 16.195 7.9948 16.195 10.8377C16.1954 13.6809 13.8904 15.9859 11.0471 15.9859C8.20427 15.9859 5.89928 13.6809 5.89928 10.8377C5.90235 7.99595 8.20542 5.69326 11.0471 5.68981Z" fill="#D01417" stroke="#D01417" stroke-width="0.4"/>
<path d="M11.0468 13.7331C12.6459 13.7331 13.9422 12.4364 13.9422 10.8373C13.9422 9.23826 12.6459 7.94189 11.0468 7.94189C9.44735 7.94189 8.15098 9.23826 8.15137 10.8373C8.1529 12.436 9.4485 13.7312 11.0468 13.7331ZM11.0468 9.12048C11.9952 9.12048 12.7636 9.88932 12.7636 10.8373C12.7636 11.7857 11.9952 12.5546 11.0468 12.5546C10.0984 12.5546 9.32995 11.7857 9.32995 10.8373C9.33072 9.8897 10.0988 9.12163 11.0468 9.12048Z" fill="#D01417" stroke="#D01417" stroke-width="0.4"/>
</svg>
