<svg width="43" height="45" viewBox="0 0 43 45" fill="none" xmlns="http://www.w3.org/2000/svg">
<path d="M23.9059 32.4297H13.8083C13.3196 32.4297 12.9233 32.826 12.9233 33.3148C12.9233 33.8037 13.3196 34.2 13.8083 34.2H23.9059C24.3946 34.2 24.7909 33.8037 24.7909 33.3148C24.7909 32.826 24.3946 32.4297 23.9059 32.4297Z" fill="#D01417"/>
<path d="M9.08643 37.8529C9.08643 38.3418 9.48264 38.7381 9.9714 38.7381H14.9119C15.4007 38.7381 15.7969 38.3418 15.7969 37.8529C15.7969 37.3641 15.4007 36.9678 14.9119 36.9678H9.9714C9.48264 36.9678 9.08643 37.3641 9.08643 37.8529Z" fill="#D01417"/>
<path d="M21.9185 37.8529C21.9185 38.3418 22.3148 38.7381 22.8034 38.7381H27.7439C28.2327 38.7381 28.6289 38.3418 28.6289 37.8529C28.6289 37.3641 28.2326 36.9678 27.7439 36.9678H22.8034C22.3148 36.9678 21.9185 37.3641 21.9185 37.8529Z" fill="#D01417"/>
<path d="M18.8483 36.9678C18.3596 36.9678 17.9634 37.3641 17.9634 37.8529C17.9634 38.3418 18.3596 38.7381 18.8483 38.7381H18.8658C19.3545 38.7381 19.7507 38.3418 19.7507 37.8529C19.7507 37.3641 19.3545 36.9678 18.8658 36.9678H18.8483Z" fill="#D01417"/>
<path d="M0.884971 14.6364C1.37373 14.6364 1.76994 14.2401 1.76994 13.7513V13.7338C1.76994 13.2449 1.37373 12.8486 0.884971 12.8486C0.396211 12.8486 0 13.2449 0 13.7338V13.7513C0 14.2401 0.396211 14.6364 0.884971 14.6364Z" fill="#D01417"/>
<path d="M41.1914 34.9187L37.2149 30.9422V8.52882C37.2149 8.50052 37.2133 8.47239 37.2106 8.44436C37.2095 8.43258 37.2074 8.42106 37.2059 8.40946C37.2038 8.39373 37.2017 8.37809 37.1988 8.36253C37.1961 8.34847 37.1927 8.33467 37.1893 8.32087C37.1863 8.30821 37.1832 8.29556 37.1796 8.28308C37.1754 8.26849 37.1706 8.25416 37.1656 8.23983C37.1616 8.22841 37.1575 8.21698 37.1531 8.20564C37.1476 8.19149 37.1417 8.17752 37.1354 8.16372C37.1303 8.15247 37.1248 8.14131 37.1193 8.13023C37.1127 8.11723 37.1059 8.10422 37.0987 8.09156C37.0921 8.07996 37.0851 8.06871 37.078 8.05737C37.0707 8.04586 37.0636 8.03435 37.0557 8.02318C37.0473 8.01114 37.0383 7.99945 37.0293 7.98776C37.0217 7.97801 37.0143 7.96816 37.0064 7.95867C37.0042 7.95604 37.0024 7.95331 37.0002 7.95067L30.4112 0.307178C30.4056 0.300674 30.3992 0.294961 30.3934 0.288633C30.3807 0.274834 30.368 0.261123 30.3544 0.248115C30.3454 0.239414 30.3361 0.231152 30.3267 0.222891C30.3132 0.211025 30.2996 0.199424 30.2854 0.18835C30.2758 0.180791 30.2659 0.173496 30.256 0.166289C30.2409 0.155479 30.2254 0.145195 30.2097 0.135264C30.2001 0.129287 30.1905 0.123311 30.1808 0.117686C30.1634 0.107754 30.1455 0.0985254 30.1274 0.0897363C30.1184 0.0854297 30.1097 0.0808594 30.1007 0.0768164C30.0807 0.0679395 30.0603 0.0601172 30.0397 0.0527344C30.0317 0.049834 30.024 0.0466699 30.016 0.0440332C29.9938 0.0368262 29.9711 0.0308496 29.9483 0.0253125C29.9412 0.0235547 29.9341 0.0213574 29.927 0.0198633C29.903 0.0146777 29.8785 0.0109863 29.8538 0.00791016C29.8475 0.00711914 29.8412 0.00571289 29.8349 0.00500977C29.804 0.0018457 29.7727 0 29.741 0H3.9578C1.77548 0 0 1.77688 0 3.96105V9.78908C0 10.2779 0.396211 10.6742 0.884971 10.6742C1.37373 10.6742 1.76994 10.2779 1.76994 9.78908V3.96105C1.76994 2.753 2.75142 1.77029 3.9578 1.77029H28.856V7.47536C28.856 8.54438 29.7266 9.41405 30.7968 9.41405H35.4449V29.1723L33.5008 27.2283C33.496 27.2232 33.4918 27.2177 33.4869 27.2128C33.4818 27.2078 33.4764 27.2036 33.4713 27.1987L29.2983 23.0259C30.1521 21.3954 30.6359 19.542 30.6359 17.5773C30.6359 11.0823 25.3528 5.79823 18.859 5.79823C12.3637 5.79823 7.07959 11.0823 7.07959 17.5773C7.07959 20.6775 8.2836 23.5013 10.2477 25.607C10.2881 25.6611 10.3349 25.7106 10.3875 25.7547C12.5311 27.9754 15.5363 29.359 18.859 29.359C20.8225 29.359 22.6748 28.8751 24.3043 28.0215L28.4758 32.1945C28.4808 32.1998 28.4851 32.2054 28.4903 32.2105C28.4954 32.2156 28.501 32.2199 28.5062 32.2249L35.445 39.1664V41.039C35.445 42.2471 34.4635 43.2298 33.2571 43.2298H3.9578C2.75142 43.2298 1.76994 42.247 1.76994 41.039V17.6795C1.76994 17.1906 1.37373 16.7943 0.884971 16.7943C0.396211 16.7943 0 17.1906 0 17.6795V41.0389C0 43.2231 1.77548 45 3.9578 45H33.2571C35.4394 45 37.2149 43.2231 37.2149 41.0389V40.6721C37.6999 40.9206 38.1919 41.0311 38.6673 41.0311C39.6085 41.031 40.4846 40.6021 41.111 39.9752C42.3556 38.7298 42.8068 36.5344 41.1914 34.9187ZM30.626 7.47536V3.26733L34.3985 7.64376H30.7969C30.7042 7.64376 30.626 7.56659 30.626 7.47536ZM18.859 7.56844C24.3768 7.56844 28.8659 12.0584 28.8659 17.5772C28.8659 19.4061 28.3728 21.1218 27.5132 22.5988C27.4507 22.6728 27.402 22.7544 27.3676 22.8406C27.1934 23.1213 27.0058 23.3929 26.8056 23.6543C25.7534 21.708 24.0384 20.2228 22.0086 19.4427C23.2077 18.4786 23.9773 17.0007 23.9773 15.3456C23.9773 12.446 21.6198 10.0869 18.722 10.0869C15.8229 10.0869 13.4643 12.4459 13.4643 15.3456C13.4643 16.9989 14.2326 18.4756 15.4302 19.4398C14.7329 19.7075 14.0665 20.0604 13.4446 20.4973C12.3318 21.2792 11.4188 22.2826 10.7527 23.443C9.55617 21.7934 8.84944 19.7664 8.84944 17.5772C8.84944 12.0584 13.3397 7.56844 18.859 7.56844ZM15.2342 15.3457C15.2342 13.4222 16.7988 11.8573 18.7219 11.8573C20.6437 11.8573 22.2072 13.4222 22.2072 15.3457C22.2072 17.2679 20.6438 18.8316 18.7219 18.8316C16.7988 18.8316 15.2342 17.2678 15.2342 15.3457ZM12.0051 24.8663C13.217 22.2939 15.8481 20.6018 18.7219 20.6018C21.6795 20.6018 24.342 22.3654 25.5165 25.0446C25.0832 25.4317 24.6161 25.7817 24.1203 26.0895C24.0331 26.1242 23.9505 26.1735 23.8757 26.2368C22.3998 27.0959 20.6858 27.5886 18.8589 27.5886C16.2094 27.5886 13.7974 26.5533 12.0051 24.8663ZM27.1008 25.9842C27.1616 25.9373 27.2154 25.8833 27.2614 25.8236C27.6474 25.43 28.0062 25.0097 28.3344 24.5654L31.6086 27.8395L29.1167 30.332L25.8433 27.0573C26.2874 26.7289 26.7075 26.3702 27.1008 25.9842ZM39.8592 38.7236C39.2907 39.2926 38.3582 39.5757 37.4462 38.6647L30.3681 31.5838L32.8603 29.0911L35.6877 31.9185C35.6989 31.9302 35.7102 31.9417 35.722 31.9528L39.9399 36.1706C40.8465 37.0774 40.3884 38.1942 39.8592 38.7236Z" fill="#23346B"/>
<mask id="mask0" mask-type="alpha" maskUnits="userSpaceOnUse" x="8" y="7" width="21" height="21">
<circle cx="18.8525" cy="17.71" r="9.88769" fill="#C4C4C4"/>
</mask>
<g mask="url(#mask0)">
<path d="M41.1909 34.9187L37.2144 30.9422V8.52882C37.2144 8.50052 37.2128 8.47239 37.2101 8.44436C37.209 8.43258 37.2069 8.42106 37.2055 8.40946C37.2033 8.39373 37.2012 8.37809 37.1983 8.36253C37.1956 8.34847 37.1922 8.33467 37.1888 8.32087C37.1858 8.30821 37.1827 8.29556 37.1791 8.28308C37.1749 8.26849 37.1701 8.25416 37.1651 8.23983C37.1612 8.22841 37.157 8.21698 37.1526 8.20564C37.1471 8.19149 37.1412 8.17752 37.1349 8.16372C37.1298 8.15247 37.1243 8.14131 37.1188 8.13023C37.1122 8.11723 37.1054 8.10422 37.0982 8.09156C37.0916 8.07996 37.0846 8.06871 37.0775 8.05737C37.0702 8.04586 37.0631 8.03435 37.0553 8.02318C37.0468 8.01114 37.0378 7.99945 37.0288 7.98776C37.0212 7.97801 37.0139 7.96816 37.0059 7.95867C37.0037 7.95604 37.0019 7.95331 36.9997 7.95067L30.4107 0.307178C30.4051 0.300674 30.3987 0.294961 30.3929 0.288633C30.3802 0.274834 30.3675 0.261123 30.3539 0.248115C30.3449 0.239414 30.3356 0.231152 30.3262 0.222891C30.3127 0.211025 30.2991 0.199424 30.2849 0.18835C30.2753 0.180791 30.2654 0.173496 30.2555 0.166289C30.2404 0.155479 30.2249 0.145195 30.2092 0.135264C30.1996 0.129287 30.19 0.123311 30.1803 0.117686C30.1629 0.107754 30.145 0.0985254 30.1269 0.0897363C30.118 0.0854297 30.1093 0.0808594 30.1002 0.0768164C30.0803 0.0679395 30.0599 0.0601172 30.0392 0.0527344C30.0312 0.049834 30.0235 0.0466699 30.0155 0.0440332C29.9933 0.0368262 29.9707 0.0308496 29.9478 0.0253125C29.9407 0.0235547 29.9336 0.0213574 29.9265 0.0198633C29.9025 0.0146777 29.878 0.0109863 29.8533 0.00791016C29.847 0.00711914 29.8407 0.00571289 29.8344 0.00500977C29.8035 0.0018457 29.7722 0 29.7405 0H3.95731C1.77499 0 -0.000488281 1.77688 -0.000488281 3.96105V9.78908C-0.000488281 10.2779 0.395723 10.6742 0.884482 10.6742C1.37324 10.6742 1.76945 10.2779 1.76945 9.78908V3.96105C1.76945 2.753 2.75093 1.77029 3.95731 1.77029H28.8555V7.47536C28.8555 8.54438 29.7261 9.41405 30.7963 9.41405H35.4444V29.1723L33.5003 27.2283C33.4955 27.2232 33.4913 27.2177 33.4864 27.2128C33.4814 27.2078 33.4759 27.2036 33.4708 27.1987L29.2978 23.0259C30.1516 21.3954 30.6355 19.542 30.6355 17.5773C30.6355 11.0823 25.3524 5.79823 18.8585 5.79823C12.3633 5.79823 7.0791 11.0823 7.0791 17.5773C7.0791 20.6775 8.28311 23.5013 10.2472 25.607C10.2876 25.6611 10.3344 25.7106 10.387 25.7547C12.5306 27.9754 15.5358 29.359 18.8586 29.359C20.822 29.359 22.6743 28.8751 24.3038 28.0215L28.4753 32.1945C28.4803 32.1998 28.4846 32.2054 28.4898 32.2105C28.4949 32.2156 28.5005 32.2199 28.5057 32.2249L35.4445 39.1664V41.039C35.4445 42.2471 34.463 43.2298 33.2566 43.2298H3.95731C2.75093 43.2298 1.76945 42.247 1.76945 41.039V17.6795C1.76945 17.1906 1.37324 16.7943 0.884482 16.7943C0.395723 16.7943 -0.000488281 17.1906 -0.000488281 17.6795V41.0389C-0.000488281 43.2231 1.77499 45 3.95731 45H33.2566C35.4389 45 37.2144 43.2231 37.2144 41.0389V40.6721C37.6994 40.9206 38.1914 41.0311 38.6668 41.0311C39.608 41.031 40.4841 40.6021 41.1105 39.9752C42.3551 38.7298 42.8063 36.5344 41.1909 34.9187ZM30.6255 7.47536V3.26733L34.398 7.64376H30.7964C30.7037 7.64376 30.6255 7.56659 30.6255 7.47536ZM18.8585 7.56844C24.3763 7.56844 28.8654 12.0584 28.8654 17.5772C28.8654 19.4061 28.3723 21.1218 27.5127 22.5988C27.4502 22.6728 27.4015 22.7544 27.3672 22.8406C27.193 23.1213 27.0053 23.3929 26.8051 23.6543C25.753 21.708 24.0379 20.2228 22.0081 19.4427C23.2072 18.4786 23.9768 17.0007 23.9768 15.3456C23.9768 12.446 21.6193 10.0869 18.7215 10.0869C15.8225 10.0869 13.4638 12.4459 13.4638 15.3456C13.4638 16.9989 14.2321 18.4756 15.4297 19.4398C14.7324 19.7075 14.0661 20.0604 13.4441 20.4973C12.3314 21.2792 11.4183 22.2826 10.7522 23.443C9.55568 21.7934 8.84896 19.7664 8.84896 17.5772C8.84896 12.0584 13.3392 7.56844 18.8585 7.56844ZM15.2337 15.3457C15.2337 13.4222 16.7983 11.8573 18.7214 11.8573C20.6433 11.8573 22.2067 13.4222 22.2067 15.3457C22.2067 17.2679 20.6433 18.8316 18.7214 18.8316C16.7983 18.8316 15.2337 17.2678 15.2337 15.3457ZM12.0046 24.8663C13.2165 22.2939 15.8476 20.6018 18.7214 20.6018C21.6791 20.6018 24.3415 22.3654 25.516 25.0446C25.0827 25.4317 24.6156 25.7817 24.1198 26.0895C24.0326 26.1242 23.95 26.1735 23.8752 26.2368C22.3993 27.0959 20.6854 27.5886 18.8584 27.5886C16.2089 27.5886 13.7969 26.5533 12.0046 24.8663ZM27.1003 25.9842C27.1611 25.9373 27.2149 25.8833 27.2609 25.8236C27.6469 25.43 28.0057 25.0097 28.334 24.5654L31.6081 27.8395L29.1162 30.332L25.8428 27.0573C26.2869 26.7289 26.707 26.3702 27.1003 25.9842ZM39.8587 38.7236C39.2902 39.2926 38.3577 39.5757 37.4457 38.6647L30.3676 31.5838L32.8598 29.0911L35.6872 31.9185C35.6984 31.9302 35.7097 31.9417 35.7215 31.9528L39.9394 36.1706C40.846 37.0774 40.3879 38.1942 39.8587 38.7236Z" fill="#D01417"/>
</g>
</svg>
