<svg width="17" height="15" viewBox="0 0 17 15" fill="none" xmlns="http://www.w3.org/2000/svg">
<path d="M16.9947 3.09822C17.0118 2.9399 16.9816 2.77505 16.8961 2.62666C15.9626 1.00645 14.2259 0 12.3636 0C10.8826 0 9.48136 0.637086 8.5 1.71274C7.51864 0.637086 6.11748 0 4.63636 0C2.77409 0 1.03731 1.00645 0.103855 2.62666C0.035803 2.74474 0 2.87876 0 3.01516V12.1552V14.2241C0 14.6526 0.345976 15 0.772727 15H16.2273C16.654 15 17 14.6526 17 14.2241V12.1552V3.1859C17 3.15621 16.998 3.12703 16.9947 3.09822ZM10.8182 1.8946V6.48367H12.3636V1.55172C13.6101 1.55172 14.7766 2.19212 15.4545 3.23503V10.1573C14.5701 9.50798 13.4899 9.14002 12.3636 9.14002C11.2373 9.14002 10.1572 9.50871 9.27273 10.1581V3.2341C9.65621 2.64445 10.1961 2.18374 10.8182 1.8946ZM1.54545 3.2341C2.2235 2.1915 3.39006 1.55172 4.63636 1.55172C5.88282 1.55172 7.04928 2.19212 7.72727 3.23503V10.1581C6.84276 9.50871 5.76269 9.14002 4.63636 9.14002C3.51014 9.14002 2.42992 9.50803 1.54545 10.1573V3.2341ZM1.54545 12.3751C2.22334 11.3321 3.38985 10.6917 4.63636 10.6917C5.88288 10.6917 7.04938 11.3321 7.72727 12.3751V13.4483H1.54545V12.3751ZM9.27273 13.4483V12.3741C9.95067 11.3315 11.1173 10.6917 12.3636 10.6917C13.6101 10.6917 14.7767 11.3321 15.4545 12.3751V13.4483H9.27273Z" fill="#23346B"/>
<mask id="mask0" mask-type="alpha" maskUnits="userSpaceOnUse" x="0" y="13" width="17" height="2">
<rect y="13" width="17" height="2" fill="#C4C4C4"/>
</mask>
<g mask="url(#mask0)">
<path d="M16.9947 3.09822C17.0118 2.9399 16.9816 2.77505 16.8961 2.62666C15.9626 1.00645 14.2259 0 12.3636 0C10.8826 0 9.48136 0.637086 8.5 1.71274C7.51864 0.637086 6.11748 0 4.63636 0C2.77409 0 1.03731 1.00645 0.103855 2.62666C0.035803 2.74474 0 2.87876 0 3.01516V12.1552V14.2241C0 14.6526 0.345976 15 0.772727 15H16.2273C16.654 15 17 14.6526 17 14.2241V12.1552V3.1859C17 3.15621 16.998 3.12703 16.9947 3.09822ZM10.8182 1.8946V6.48367H12.3636V1.55172C13.6101 1.55172 14.7766 2.19212 15.4545 3.23503V10.1573C14.5701 9.50798 13.4899 9.14002 12.3636 9.14002C11.2373 9.14002 10.1572 9.50871 9.27273 10.1581V3.2341C9.65621 2.64445 10.1961 2.18374 10.8182 1.8946ZM1.54545 3.2341C2.2235 2.1915 3.39006 1.55172 4.63636 1.55172C5.88282 1.55172 7.04928 2.19212 7.72727 3.23503V10.1581C6.84276 9.50871 5.76269 9.14002 4.63636 9.14002C3.51014 9.14002 2.42992 9.50803 1.54545 10.1573V3.2341ZM1.54545 12.3751C2.22334 11.3321 3.38985 10.6917 4.63636 10.6917C5.88288 10.6917 7.04938 11.3321 7.72727 12.3751V13.4483H1.54545V12.3751ZM9.27273 13.4483V12.3741C9.95067 11.3315 11.1173 10.6917 12.3636 10.6917C13.6101 10.6917 14.7767 11.3321 15.4545 12.3751V13.4483H9.27273Z" fill="#D01417"/>
</g>
<mask id="mask1" mask-type="alpha" maskUnits="userSpaceOnUse" x="10" y="3" width="3" height="4">
<rect x="10" y="3" width="3" height="4" fill="#C4C4C4"/>
</mask>
<g mask="url(#mask1)">
<path d="M16.9947 3.09822C17.0118 2.9399 16.9816 2.77505 16.8961 2.62666C15.9626 1.00645 14.2259 0 12.3636 0C10.8826 0 9.48136 0.637086 8.5 1.71274C7.51864 0.637086 6.11748 0 4.63636 0C2.77409 0 1.03731 1.00645 0.103855 2.62666C0.035803 2.74474 0 2.87876 0 3.01516V12.1552V14.2241C0 14.6526 0.345976 15 0.772727 15H16.2273C16.654 15 17 14.6526 17 14.2241V12.1552V3.1859C17 3.15621 16.998 3.12703 16.9947 3.09822ZM10.8182 1.8946V6.48367H12.3636V1.55172C13.6101 1.55172 14.7766 2.19212 15.4545 3.23503V10.1573C14.5701 9.50798 13.4899 9.14002 12.3636 9.14002C11.2373 9.14002 10.1572 9.50871 9.27273 10.1581V3.2341C9.65621 2.64445 10.1961 2.18374 10.8182 1.8946ZM1.54545 3.2341C2.2235 2.1915 3.39006 1.55172 4.63636 1.55172C5.88282 1.55172 7.04928 2.19212 7.72727 3.23503V10.1581C6.84276 9.50871 5.76269 9.14002 4.63636 9.14002C3.51014 9.14002 2.42992 9.50803 1.54545 10.1573V3.2341ZM1.54545 12.3751C2.22334 11.3321 3.38985 10.6917 4.63636 10.6917C5.88288 10.6917 7.04938 11.3321 7.72727 12.3751V13.4483H1.54545V12.3751ZM9.27273 13.4483V12.3741C9.95067 11.3315 11.1173 10.6917 12.3636 10.6917C13.6101 10.6917 14.7767 11.3321 15.4545 12.3751V13.4483H9.27273Z" fill="#D01417"/>
</g>
</svg>
