<svg width="15" height="15" viewBox="0 0 15 15" fill="none" xmlns="http://www.w3.org/2000/svg">
<path d="M2 2L12.8952 12.8952" stroke="#C9CDDB" stroke-width="2" stroke-linecap="round" stroke-linejoin="round"/>
<path d="M2.43945 13L13.3347 2.1048" stroke="#C9CDDB" stroke-width="2" stroke-linecap="round" stroke-linejoin="round"/>
</svg>
