<svg width="210" height="47" viewBox="0 0 210 47" fill="none" xmlns="http://www.w3.org/2000/svg">
<path d="M23.0968 31.9483C18.6296 31.9483 15.0254 28.3441 15.0254 23.8769C15.0254 19.4097 18.6296 15.8055 23.0968 15.8055C27.564 15.8055 31.1682 19.4097 31.1682 23.8769H27.0564C27.0564 21.6941 25.2796 19.9174 23.0968 19.9174C20.914 19.9174 19.1372 21.6941 19.1372 23.8769C19.1372 26.0598 20.914 27.8365 23.0968 27.8365V31.9483Z" fill="#D01417"/>
<path d="M13.401 23.8773H9.44141C9.44141 16.3135 15.5838 10.2219 23.0968 10.2219V14.1814C17.7666 14.1814 13.401 18.4963 13.401 23.8773Z" fill="#23346B"/>
<path d="M23.0977 43.2178V37.5323C30.6614 37.5323 36.7531 31.3899 36.7531 23.8769H42.4386C42.4386 34.5372 33.758 43.2178 23.0977 43.2178Z" fill="#D01417"/>
<path d="M16.753 38.6997C13.1488 37.126 10.2045 34.334 8.5293 30.7805L14.3163 28.0393C15.3316 30.1714 17.1083 31.8466 19.2912 32.8111L16.753 38.6997Z" fill="#23346B"/>
<path d="M16.753 38.6997C13.1488 37.126 10.2045 34.334 8.5293 30.7805L14.3163 28.0393C15.3316 30.1714 17.1083 31.8466 19.2912 32.8111L16.753 38.6997Z" fill="#23346B"/>
<path d="M43.9615 23.8763H36.7531C36.7531 16.3126 30.6107 10.2209 23.0977 10.2209V3.01251C34.5702 3.01251 43.9615 12.353 43.9615 23.8763Z" fill="#23346B"/>
<path d="M23.0968 43.2685C12.3856 43.2685 3.70508 34.5372 3.70508 23.8769H5.68486C5.68486 33.4712 13.5024 41.2888 23.0968 41.2888V43.2685Z" fill="#D01417"/>
<path d="M3.80764 23.877H1.06641C1.06641 11.7445 10.9653 1.84558 23.0978 1.84558V4.58681C12.4374 4.58681 3.80764 13.2166 3.80764 23.877Z" fill="#D01417"/>
<path d="M31.8791 19.7139C30.8639 17.5818 29.0871 15.9066 26.9043 14.9421L29.4425 9.05356C33.0467 10.6272 35.991 13.4192 37.6662 16.9727L31.8791 19.7139Z" fill="#D01417"/>
<path d="M27.5655 33.8272L24.9258 27.9386C25.9411 27.4817 26.7533 26.6695 27.2101 25.705L33.048 28.3447C31.9312 30.8321 30.0021 32.7611 27.5655 33.8272Z" fill="#23346B"/>
<path d="M54.8566 31.0994H51.2754V16.2198H61.4137C65.1463 16.2198 66.6594 17.6825 66.6594 21.4151C66.6594 25.198 65.1463 26.7112 61.4642 26.7112H54.8566V31.0994ZM54.8566 23.7353H60.8085C62.6243 23.7353 63.1287 23.0291 63.1287 21.4151C63.1287 19.9523 62.6747 19.1453 60.8085 19.1453H54.8566V23.7353Z" fill="#23346B"/>
<path d="M80.4808 31.0983H73.9237C69.939 31.0983 68.4258 29.6356 68.4258 26.0039V21.3131C68.4258 17.2275 69.8381 16.0169 73.9237 16.0169H80.4808C84.1629 16.0169 85.8779 17.1266 85.8779 21.3131V26.0039C85.8779 29.7365 84.6169 31.0983 80.4808 31.0983ZM74.7812 28.1728H79.5225C81.7923 28.1728 82.2967 27.6684 82.2967 25.6509V21.6661C82.2967 19.4972 81.5905 18.9928 79.4216 18.9928H74.8316C72.6123 18.9928 71.9565 19.5477 71.9565 21.6661V25.6509C72.007 27.618 72.6123 28.1728 74.7812 28.1728Z" fill="#23346B"/>
<path d="M105.397 25.9535C105.397 29.9382 104.389 31.0983 100 31.0983H93.3928C89.2567 31.0983 87.9453 29.8373 87.9453 25.8526V21.6157C87.9453 17.2779 89.3576 16.0169 93.6954 16.0169H99.5968C103.128 16.0169 105.297 17.0257 105.297 21.2122H101.715C101.715 19.6486 100.908 18.9928 98.8403 18.9928H94.2503C91.8796 18.9928 91.3752 19.3964 91.3752 21.7166V25.3987C91.3752 27.6684 92.2327 28.1224 94.2503 28.1224H98.8403C100.959 28.1224 101.715 27.7189 101.715 25.9535H105.397Z" fill="#23346B"/>
<path d="M111.349 28.1728H111.854L120.933 16.2691H126.935V31.1488H123.354V19.1946H122.849L113.922 31.0983H107.818V16.2187H111.4V28.1728H111.349Z" fill="#D01417"/>
<path d="M132.937 21.9183H142.117V16.2187H145.698V31.0983H142.117V24.8943H132.937V31.0983H129.355V16.2187H132.937V21.9183Z" fill="#D01417"/>
<path d="M161.588 16.2187V17.3788H166.178C169.86 17.3788 171.625 18.438 171.625 22.6245V24.6421C171.625 28.3746 170.364 29.7869 166.178 29.7869H161.588V31.0983H158.007V29.7869H153.417C149.281 29.7869 148.02 28.425 148.02 24.6925V22.6749C148.02 18.4884 149.734 17.3788 153.417 17.3788H158.007V16.2187H161.588ZM154.425 20.3547C152.307 20.3547 151.55 20.8591 151.55 23.028V24.3394C151.55 26.357 152.055 26.8614 154.324 26.8614H157.956V20.3547H154.425ZM161.588 26.811H165.27C167.54 26.811 168.044 26.3066 168.044 24.289V22.9776C168.044 20.8087 167.338 20.3043 165.219 20.3043H161.638V26.811H161.588Z" fill="#D01417"/>
<path d="M177.476 31.0983H173.895V16.2187H184.033C187.765 16.2187 189.279 17.6814 189.279 21.4139C189.279 25.1969 187.765 26.7101 184.083 26.7101H177.476V31.0983ZM177.476 23.7341H183.428C185.243 23.7341 185.748 23.028 185.748 21.4139C185.748 19.9512 185.294 19.1442 183.428 19.1442H177.476V23.7341Z" fill="#D01417"/>
<path d="M188.926 31.0983L196.794 16.2187H202.091L209.909 31.0983H205.722L203.805 27.3658H195.029L193.112 31.0983H188.926ZM202.393 24.5412L199.569 18.9928H199.417L196.492 24.5412H202.393Z" fill="#D01417"/>
</svg>
