<svg width="47" height="47" viewBox="0 0 47 47" fill="none" xmlns="http://www.w3.org/2000/svg">
<path d="M23.0968 31.9483C18.6296 31.9483 15.0254 28.3441 15.0254 23.8769C15.0254 19.4097 18.6296 15.8055 23.0968 15.8055C27.564 15.8055 31.1682 19.4097 31.1682 23.8769H27.0564C27.0564 21.6941 25.2796 19.9174 23.0968 19.9174C20.914 19.9174 19.1372 21.6941 19.1372 23.8769C19.1372 26.0598 20.914 27.8365 23.0968 27.8365V31.9483Z" fill="#D01417"/>
<path d="M13.401 23.8773H9.44141C9.44141 16.3135 15.5838 10.2219 23.0968 10.2219V14.1814C17.7666 14.1814 13.401 18.4963 13.401 23.8773Z" fill="#23346B"/>
<path d="M23.0977 43.2178V37.5323C30.6614 37.5323 36.7531 31.3899 36.7531 23.8769H42.4386C42.4386 34.5372 33.758 43.2178 23.0977 43.2178Z" fill="#D01417"/>
<path d="M16.752 38.6997C13.1478 37.126 10.2035 34.334 8.52832 30.7805L14.3154 28.0393C15.3306 30.1714 17.1074 31.8466 19.2902 32.8111L16.752 38.6997Z" fill="#23346B"/>
<path d="M16.752 38.6997C13.1478 37.126 10.2035 34.334 8.52832 30.7805L14.3154 28.0393C15.3306 30.1714 17.1074 31.8466 19.2902 32.8111L16.752 38.6997Z" fill="#23346B"/>
<path d="M43.9615 23.8763H36.7531C36.7531 16.3126 30.6107 10.2209 23.0977 10.2209V3.01251C34.5702 3.01251 43.9615 12.353 43.9615 23.8763Z" fill="#23346B"/>
<path d="M23.0968 43.2685C12.3856 43.2685 3.70508 34.5372 3.70508 23.8769H5.68486C5.68486 33.4712 13.5024 41.2888 23.0968 41.2888V43.2685Z" fill="#D01417"/>
<path d="M3.80666 23.877H1.06543C1.06543 11.7445 10.9643 1.84558 23.0968 1.84558V4.58681C12.4365 4.58681 3.80666 13.2166 3.80666 23.877Z" fill="#D01417"/>
<path d="M31.8801 19.7139C30.8648 17.5818 29.0881 15.9066 26.9053 14.9421L29.4435 9.05356C33.0477 10.6272 35.992 13.4192 37.6672 16.9727L31.8801 19.7139Z" fill="#D01417"/>
<path d="M27.5645 33.8272L24.9248 27.9386C25.9401 27.4817 26.7523 26.6695 27.2092 25.705L33.047 28.3447C31.9302 30.8321 30.0012 32.7611 27.5645 33.8272Z" fill="#23346B"/>
</svg>
