<svg width="200" height="78" xmlns="http://www.w3.org/2000/svg">
 <!-- Created with Method Draw - http://github.com/duopixel/Method-Draw/ -->

 <g id="Layer_1">
  <title>Layer 1</title>
  <g stroke="null" id="svg_12">
   <path stroke="null" id="svg_4" fill="#39464F" d="m108.48984,51.8139l14.52835,0l0,-3.0804l-47.95641,0l0,3.0804l33.42806,0z"/>
   <path stroke="null" id="svg_5" fill="#39464F" d="m75.06178,70.48526l2.94348,0l0,-3.49615l16.80015,0l0,-12.07606l-19.74364,0l0,15.57221zm2.92628,-12.49181l13.85667,0l0,5.89632l-13.85667,0l0,-5.89632z"/>
   <path stroke="null" id="svg_6" fill="#39464F" d="m97.66448,66.98911l11.12031,0l0,3.49615l3.06392,0l0,-3.49615l11.17136,0l0,-12.07606l-25.3556,0l0,12.07606zm14.18424,-8.99566l8.24452,0l0,5.89632l-8.24452,0l0,-5.89632zm-11.25739,0l8.17551,0l0,5.89632l-8.17551,0l0,-5.89632z"/>
   <path stroke="null" id="svg_7" fill="#39464F" d="m119.00701,32.34873l3.21896,0l0,-3.02375l-13.75315,0l0,3.0804l0,10.18618l0,3.0049l9.12276,0c3.90719,0 5.50863,-2.15445 5.50863,-5.04587c0,-2.87257 -1.49746,-4.97028 -5.40559,-4.97028l-5.98982,0l0,-3.21273l7.29821,0l0,-0.01885zm-1.30838,6.21754c1.49746,0 2.06562,0.92604 2.06562,2.02212c0,1.07723 -0.56816,1.98432 -2.06562,1.98432l-5.98982,0l0,-4.00644l5.98982,0z"/>
   <path stroke="null" id="svg_8" fill="#39464F" d="m99.17801,42.57271l-7.02301,0l0,3.02375l7.31513,0c4.33827,0 7.28119,-3.30727 7.28119,-8.14521c0,-4.83795 -2.95993,-8.12627 -7.28119,-8.12627l-7.31513,0l0,3.02375l7.02301,0c2.06562,0 3.59711,1.41739 4.06223,3.62848l-9.50166,0l0,2.94806l9.50166,0c-0.48214,2.23004 -1.99661,3.64743 -4.06223,3.64743z"/>
   <path stroke="null" id="svg_9" fill="#39464F" d="m89.86608,33.80554c0,-2.68359 -1.61799,-4.45999 -5.52546,-4.45999l-9.27789,0l0,16.27138l9.84596,0c3.90738,0 5.50826,-1.96538 5.50826,-4.68676c0,-1.7764 -0.70571,-3.09934 -2.341,-3.77967c1.23937,-0.69917 1.79014,-1.83314 1.79014,-3.34497zm-11.56728,-1.45518l6.14515,0c1.48035,0 2.06553,0.98269 2.06553,2.00327c0,1.02048 -0.56797,1.83314 -2.06553,1.83314l-6.14515,0l0,-3.83641zm6.71312,10.24292l-6.71312,0l0,-3.912l6.71312,0c1.51485,0 2.06562,0.88825 2.06562,1.94653c0,1.05828 -0.55077,1.96547 -2.06562,1.96547z"/>
   <path stroke="null" id="svg_10" fill="#39464F" d="m7.32426,7.31736l-1.16324,0l0,-5.84951l-2.95888,0l0,5.84951l-1.16323,0l0,-6.80263l5.28536,0l0,6.80263zm5.6777,-2.47623c0,0.78181 -0.17536,1.40632 -0.52619,1.87351c-0.35082,0.46407 -0.82171,0.69621 -1.41256,0.69621c-0.54773,0 -0.98626,-0.18228 -1.31554,-0.54665l0,2.39673l-1.12169,0l0,-6.99881l1.03399,0l0.04616,0.51394c0.32927,-0.40492 0.77703,-0.60738 1.34328,-0.60738c0.60929,0 1.08632,0.2305 1.431,0.69148c0.3477,0.45786 0.52156,1.09483 0.52156,1.9109l0,0.07008zm-1.11704,-0.09812c0,-0.50459 -0.10002,-0.90484 -0.30006,-1.20074c-0.19692,-0.29591 -0.48006,-0.44386 -0.84936,-0.44386c-0.45852,0 -0.7878,0.19156 -0.98783,0.57468l0,2.24262c0.20311,0.39245 0.53546,0.58869 0.99707,0.58869c0.35695,0 0.63545,-0.14485 0.83549,-0.43452c0.20316,-0.29279 0.30469,-0.73508 0.30469,-1.32689zm5.18844,-2.4809l1.11704,0l0,5.05525l-1.11704,0l0,-3.37328l-1.95728,3.37328l-1.11704,0l0,-5.05525l1.11704,0l0,3.37328l1.95728,-3.37328zm8.89965,5.05525l-1.12167,0l0,-4.13951l-1.94802,0l0,4.13951l-1.12167,0l0,-5.05525l4.19136,0l0,5.05525zm0.98327,-2.57435c0,-0.49525 0.0969,-0.94065 0.29079,-1.33623c0.19389,-0.39869 0.46616,-0.70394 0.81698,-0.91575c0.35082,-0.21491 0.75402,-0.32237 1.2094,-0.32237c0.67395,0 1.22018,0.21959 1.63869,0.65877c0.42163,0.43918 0.64937,1.02164 0.68321,1.74738l0.00463,0.26631c0,0.49836 -0.09539,0.94377 -0.28626,1.33623c-0.18765,0.39251 -0.4585,0.69612 -0.81235,0.91103c-0.35082,0.215 -0.75705,0.32246 -1.21867,0.32246c-0.70467,0 -1.26943,-0.23673 -1.69409,-0.71018c-0.42163,-0.47659 -0.63235,-1.11044 -0.63235,-1.90159l0,-0.05606zm1.12167,0.09812c0,0.52016 0.10616,0.9282 0.31849,1.2241c0.21233,0.29279 0.50775,0.43919 0.88628,0.43919c0.37852,0 0.67244,-0.14952 0.88165,-0.44853c0.21233,-0.29902 0.31849,-0.73664 0.31849,-1.31287c0,-0.51082 -0.10919,-0.91574 -0.32776,-1.21475c-0.21535,-0.29902 -0.50927,-0.44852 -0.88165,-0.44852c-0.36614,0 -0.65703,0.14795 -0.87238,0.44386c-0.21545,0.29279 -0.32313,0.73196 -0.32313,1.31754zm4.15903,1.5698c0.31084,-0.35193 0.51853,-0.68521 0.62318,-0.99981c0.10768,-0.3177 0.17234,-0.72263 0.19389,-1.21475l0.06457,-1.93426l3.46665,0l0,4.14882l0.69238,0l0,2.41089l-1.11704,0l0,-1.50446l-3.20355,0l0,1.50446l-1.13557,0l0.00463,-2.41089l0.41086,0zm1.31557,0l1.91569,0l0,-3.17235l-1.26017,0l-0.03233,0.96714c-0.04311,0.9282 -0.2508,1.66328 -0.62318,2.20521zm4.63909,0c0.31084,-0.35193 0.51853,-0.68521 0.62318,-0.99981c0.10768,-0.3177 0.17234,-0.72263 0.19389,-1.21475l0.06457,-1.93426l3.46665,0l0,4.14882l0.69248,0l0,2.41089l-1.11714,0l0,-1.50446l-3.20355,0l0,1.50446l-1.13548,0l0.00463,-2.41089l0.41076,0zm1.31557,0l1.91569,0l0,-3.17235l-1.26017,0l-0.03233,0.96714c-0.04311,0.9282 -0.2508,1.66328 -0.62318,2.20521zm6.7256,0.99991c-0.71091,0 -1.28787,-0.22582 -1.73106,-0.67755c-0.44007,-0.45471 -0.66005,-1.05897 -0.66005,-1.81274l0,-0.14017c0,-0.50459 0.09539,-0.95467 0.28616,-1.35024c0.19389,-0.39869 0.46474,-0.70861 0.81245,-0.92976c0.3477,-0.22115 0.73549,-0.33172 1.16327,-0.33172c0.68009,0 1.20477,0.21959 1.57403,0.65877c0.37238,0.43918 0.55852,1.06058 0.55852,1.86418l0,0.45787l-3.26349,0c0.03384,0.41737 0.17073,0.74753 0.41076,0.99049c0.24315,0.24292 0.54784,0.36444 0.91398,0.36444c0.51399,0 0.93251,-0.21026 1.25563,-0.63075l0.60465,0.58405c-0.20004,0.30208 -0.46777,0.53727 -0.80318,0.70549c-0.33239,0.16506 -0.70628,0.24763 -1.12167,0.24763zm-0.13386,-4.33111c-0.30772,0 -0.55701,0.10901 -0.74778,0.32705c-0.18775,0.21803 -0.30781,0.52171 -0.36009,0.91106l2.13718,0l0,-0.0841c-0.02458,-0.38 -0.1246,-0.66655 -0.29996,-0.85967c-0.17546,-0.19623 -0.41851,-0.29435 -0.72935,-0.29435zm7.38565,1.76139c0,0.78181 -0.17546,1.40632 -0.52628,1.87351c-0.35082,0.46407 -0.82162,0.69621 -1.41247,0.69621c-0.54774,0 -0.9863,-0.18228 -1.31557,-0.54665l0,2.39673l-1.12167,0l0,-6.99881l1.03394,0l0.04623,0.51394c0.32927,-0.40492 0.77699,-0.60738 1.34327,-0.60738c0.60929,0 1.08622,0.2305 1.4309,0.69148c0.3478,0.45786 0.52165,1.09483 0.52165,1.9109l0,0.07008zm-1.11714,-0.09812c0,-0.50459 -0.10002,-0.90484 -0.29996,-1.20074c-0.19701,-0.29591 -0.48015,-0.44386 -0.84941,-0.44386c-0.4585,0 -0.78777,0.19156 -0.98781,0.57468l0,2.24262c0.20306,0.39245 0.53545,0.58869 0.99708,0.58869c0.35697,0 0.63547,-0.14485 0.83551,-0.43452c0.20306,-0.29279 0.3046,-0.73508 0.3046,-1.32689zm6.39321,0.54197l-0.59539,0l0,2.03238l-1.12177,0l0,-2.03238l-0.59085,0l-1.14937,2.03238l-1.3756,0l1.65722,-2.63041l-1.56949,-2.42484l1.37097,0l1.13094,1.98565l0.52619,0l0,-1.98565l1.12177,0l0,1.98565l0.53082,0l1.13548,-1.98565l1.37097,0l-1.56477,2.41082l1.66639,2.64443l-1.39403,0l-1.14947,-2.03238zm5.01307,0.03271l-0.56779,0l0,1.99967l-1.12167,0l0,-5.05525l1.12167,0l0,2.01836l0.49386,0l1.38023,-2.01836l1.38477,0l-1.80479,2.42016l1.95719,2.63509l-1.4587,0l-1.38477,-1.99967zm5.5854,2.09315c-0.71091,0 -1.28787,-0.22582 -1.73106,-0.67755c-0.44007,-0.45471 -0.66005,-1.05897 -0.66005,-1.81274l0,-0.14017c0,-0.50459 0.09539,-0.95467 0.28616,-1.35024c0.19389,-0.39869 0.46465,-0.70861 0.81245,-0.92976c0.3477,-0.22115 0.73549,-0.33172 1.16327,-0.33172c0.68009,0 1.20477,0.21959 1.57403,0.65877c0.37238,0.43918 0.55852,1.06058 0.55852,1.86418l0,0.45787l-3.26349,0c0.03384,0.41737 0.17073,0.74753 0.41076,0.99049c0.24315,0.24292 0.54784,0.36444 0.91398,0.36444c0.51399,0 0.93251,-0.21026 1.25563,-0.63075l0.60465,0.58405c-0.20004,0.30208 -0.46777,0.53727 -0.80318,0.70549c-0.33239,0.16506 -0.70628,0.24763 -1.12167,0.24763zm-0.13386,-4.33111c-0.30772,0 -0.55701,0.10901 -0.74778,0.32705c-0.18775,0.21803 -0.30781,0.52171 -0.36009,0.91106l2.13718,0l0,-0.0841c-0.02458,-0.38 -0.1246,-0.66655 -0.29996,-0.85967c-0.17546,-0.19623 -0.41861,-0.29435 -0.72935,-0.29435zm3.68815,3.04156c0.2093,0 0.37087,0.06074 0.48469,0.18221c0.11392,0.11833 0.17083,0.26789 0.17083,0.44854c0,0.1775 -0.05691,0.32543 -0.17083,0.44379c-0.11382,0.1153 -0.27538,0.1729 -0.48469,0.1729c-0.19994,0 -0.35848,-0.0576 -0.47542,-0.1729c-0.11694,-0.11521 -0.17536,-0.26313 -0.17536,-0.44379c0,-0.18065 0.05691,-0.33021 0.17073,-0.44854c0.11392,-0.12147 0.27387,-0.18221 0.48006,-0.18221zm0,-3.96664c0.2093,0 0.37087,0.06074 0.48469,0.18221c0.11392,0.11836 0.17083,0.26787 0.17083,0.44852c0,0.17754 -0.05691,0.32549 -0.17083,0.44386c-0.11382,0.11524 -0.27538,0.17287 -0.48469,0.17287c-0.19994,0 -0.35848,-0.05762 -0.47542,-0.17287c-0.11694,-0.11524 -0.17536,-0.2632 -0.17536,-0.44386c0,-0.18065 0.05691,-0.33016 0.17073,-0.44852c0.11392,-0.12147 0.27387,-0.18221 0.48006,-0.18221z"/>
   <path stroke="null" id="svg_11" fill="white" d="m6.2718,19.19392c0,0.78184 -0.17541,1.40629 -0.52624,1.87352c-0.35082,0.46407 -0.82165,0.69621 -1.41251,0.69621c-0.54776,0 -0.98629,-0.18228 -1.31557,-0.54665l0,2.39673l-1.12169,0l0,-6.99881l1.03399,0l0.04616,0.51393c0.32927,-0.40494 0.77703,-0.60741 1.34327,-0.60741c0.60932,0 1.0863,0.23051 1.43097,0.69152c0.34774,0.45785 0.52161,1.09483 0.52161,1.91093l0,0.07004zm-1.11709,-0.09808c0,-0.50464 -0.10001,-0.9049 -0.30004,-1.20075c-0.19695,-0.29595 -0.48007,-0.44388 -0.84935,-0.44388c-0.45852,0 -0.7878,0.19156 -0.98783,0.57469l0,2.24267c0.20311,0.39241 0.53546,0.58866 0.99707,0.58866c0.35697,0 0.63547,-0.14487 0.8355,-0.43451c0.2031,-0.2928 0.30465,-0.73505 0.30465,-1.32687z"/>
  </g>
 </g>
</svg>