<svg width="50" height="50" viewBox="0 0 50 50" fill="none" xmlns="http://www.w3.org/2000/svg">
<path opacity="0.08" fill-rule="evenodd" clip-rule="evenodd" d="M24.7485 7.18639C29.3484 8.36236 31.1707 12.8882 35.108 15.2139C39.1629 17.6091 45.8461 17.1019 47.9404 20.8856C50.022 24.6462 46.8373 28.9599 44.8097 32.7414C42.9884 36.1379 40.527 39.2212 36.9408 41.3993C33.3666 43.5701 29.1461 45.1271 24.7485 44.9256C20.4776 44.7299 17.073 42.2843 13.4819 40.3243C9.6505 38.2332 4.36746 36.8715 3.1806 33.1544C1.99498 29.4411 7.00413 26.3864 7.82372 22.6035C8.85743 17.8322 4.63244 11.9802 8.53907 8.42162C12.3178 4.97952 19.4263 5.82577 24.7485 7.18639Z" fill="#23346B"/>
<path d="M18.1796 10.1555C18.3504 9.92517 18.5417 9.71067 18.751 9.51463C19.6356 8.68626 20.8021 8.22534 22.014 8.22534H23.2721C27.2961 8.22534 30.5583 11.4875 30.5583 15.5115V16.0319C30.5583 19.7685 27.5291 22.7976 23.7926 22.7976C20.056 22.7976 17.0269 19.7685 17.0269 16.0319V13.5683C17.0269 12.3615 17.4149 11.1867 18.1338 10.2173L18.1796 10.1555Z" fill="white"/>
<path d="M38.7848 36.7219C38.678 36.8669 38.5582 37.002 38.4271 37.1255L37.9294 37.5943C37.3729 38.1186 36.637 38.4106 35.8724 38.4106L30.4348 38.4106C28.7779 38.4106 27.4348 37.0675 27.4348 35.4106L27.4348 27.8792C27.4348 26.2224 28.7779 24.8792 30.4348 24.8792L36.9253 24.8792C38.5821 24.8792 39.9253 26.2224 39.9253 27.8792L39.9253 34.1886C39.9253 34.8293 39.7202 35.4531 39.3401 35.9687L38.7848 36.7219Z" fill="white"/>
<path d="M28.9274 37.0239C27.9902 36.5133 27.407 35.5313 27.407 34.4639V26.2257C27.9331 26.4476 28.5113 26.5704 29.1182 26.5704C30.3529 26.5704 31.4684 26.0623 32.2682 25.2439C31.1125 23.655 29.2397 22.6211 27.1245 22.6211H25.5452H21.7338H20.1545C16.6433 22.6211 13.7969 25.4675 13.7969 28.9787V39.557H33.482V39.5059L28.9274 37.0239Z" fill="white"/>
<path d="M39.7458 25.2905C39.2292 25.2905 38.8104 25.7093 38.8104 26.2259V34.4641C38.8104 35.1894 38.4147 35.8556 37.7777 36.2027L33.577 38.4917L29.3763 36.2027C28.7393 35.8557 28.3436 35.1895 28.3436 34.4641V27.4504C28.5989 27.4875 28.8578 27.5062 29.1194 27.5062C29.1988 27.5062 29.2778 27.5037 29.3566 27.5002C29.3773 27.4993 29.398 27.4985 29.4186 27.4973C29.4897 27.4934 29.5605 27.4884 29.6309 27.4816C29.6646 27.4785 29.698 27.4743 29.7315 27.4705C29.7661 27.4664 29.8007 27.4622 29.8352 27.4576C30.786 27.3312 31.6751 26.9536 32.4274 26.357C32.4503 26.339 32.4732 26.3209 32.4959 26.3024C32.5229 26.2802 32.5498 26.2579 32.5765 26.2352C32.6304 26.1894 32.6834 26.1427 32.7355 26.0949C32.7442 26.087 32.7526 26.0787 32.7612 26.0707C32.821 26.0151 32.8796 25.9581 32.9368 25.8997C32.9374 25.8992 32.9378 25.8987 32.9384 25.8981C32.9384 25.8981 32.9386 25.8979 32.9387 25.8978C33.1746 25.6566 33.3891 25.3923 33.5777 25.1067C34.0295 25.7878 34.637 26.3664 35.3436 26.7794C35.7896 27.0401 36.3626 26.8898 36.6232 26.4437C36.8839 25.9977 36.7336 25.4247 36.2875 25.1641C35.6588 24.7967 35.1509 24.2282 34.8575 23.5633C34.708 23.2243 34.3723 23.0056 34.0017 23.0056H33.1519C32.7814 23.0056 32.4457 23.2243 32.2961 23.5633C32.2681 23.627 32.2369 23.6887 32.2054 23.75C31.3943 22.9642 30.4124 22.3784 29.3449 22.0355C30.4008 21.0303 31.0608 19.613 31.0608 18.0436V13.7398C31.0608 13.2232 30.642 12.8044 30.1254 12.8044C29.6087 12.8044 29.1899 13.2232 29.1899 13.7398V18.0434C29.1899 20.0368 27.5807 21.6606 25.5932 21.6858H21.6882C19.7007 21.6605 18.0915 20.0367 18.0915 18.0434V13.7398C18.0915 11.7307 19.726 10.0962 21.7351 10.0962H25.5465C26.0632 10.0962 26.482 9.67743 26.482 9.16078C26.482 8.64412 26.0632 8.22534 25.5465 8.22534H21.7351C18.6944 8.22534 16.2206 10.6991 16.2206 13.7398V18.0434C16.2206 19.6116 16.8797 21.028 17.9342 22.033C14.996 22.975 12.8628 25.732 12.8628 28.9788V39.5571C12.8628 40.0737 13.2816 40.4925 13.7982 40.4925H33.4833C33.5008 40.4925 33.5179 40.4908 33.5352 40.4899C33.5492 40.4905 33.563 40.4925 33.577 40.4925C33.7309 40.4925 33.885 40.4545 34.0246 40.3785L38.6729 37.8456C39.9117 37.1706 40.6812 35.8749 40.6812 34.4642V26.226C40.6813 25.7093 40.2625 25.2905 39.7458 25.2905ZM14.7338 38.6216V28.9789C14.7338 25.9891 17.1662 23.5568 20.1559 23.5568H21.6883C21.704 23.5568 21.7195 23.558 21.7351 23.558H22.7053V32.6436C22.7053 33.1603 23.1241 33.5791 23.6407 33.5791C24.1574 33.5791 24.5762 33.1603 24.5762 32.6436V23.558H25.5464C25.5621 23.558 25.5775 23.5569 25.5932 23.5568H27.1255C28.5554 23.5568 29.9249 24.1296 30.9323 25.1208C30.5398 25.3616 30.1 25.5264 29.6353 25.5963C29.6322 25.5968 29.6292 25.5975 29.626 25.5979C29.5536 25.6086 29.4804 25.6161 29.407 25.6221C29.3951 25.6231 29.3834 25.6249 29.3715 25.6258C29.2935 25.6315 29.2149 25.6341 29.1359 25.6345C29.1303 25.6345 29.1247 25.635 29.1191 25.635C28.6514 25.635 28.198 25.5438 27.7715 25.3639C27.4827 25.242 27.1521 25.273 26.8907 25.4463C26.6296 25.6197 26.4725 25.9123 26.4725 26.2259V34.464C26.4725 34.9049 26.5476 35.3345 26.6888 35.7374C26.9993 36.624 27.6291 37.3814 28.4808 37.8455L29.9051 38.6215H14.7338V38.6216Z" fill="#23346B"/>
<path d="M31.9175 31.9989L33.4838 32.8721L36.127 30.5334" fill="#E9BEBF"/>
<path d="M33.4846 33.8072C33.3287 33.8072 33.172 33.7683 33.0294 33.6888L31.4631 32.8158C31.0118 32.5643 30.8499 31.9945 31.1015 31.5432C31.353 31.0918 31.9227 30.9299 32.3741 31.1816L33.3616 31.732L35.5083 29.8326C35.8952 29.4901 36.4864 29.5263 36.8288 29.9133C37.1712 30.3002 37.135 30.8914 36.7481 31.2338L34.1049 33.5724C33.9296 33.7273 33.7081 33.8072 33.4846 33.8072Z" fill="#23346B"/>
</svg>
