<svg width="85" height="29" viewBox="0 0 85 29" fill="none" xmlns="http://www.w3.org/2000/svg">
<mask id="mask0" mask-type="alpha" maskUnits="userSpaceOnUse" x="0" y="0" width="86" height="29">
<path fill-rule="evenodd" clip-rule="evenodd" d="M9.14259 5.06812H8.13181H7.97523H2.45885H2.30147H1.29096C0.578584 5.06812 0 5.64616 0 6.35853V6.37677V8.49243V15.6931C0 16.2111 0.459542 16.632 1.02633 16.632H1.04697C1.61349 16.632 2.07304 16.2111 2.07304 15.6931V8.31735C2.12344 8.30636 2.17626 8.29912 2.23042 8.29912C2.25481 8.29912 2.27734 8.30288 2.30147 8.30475V14.8059V16.0776V27.2948C2.30147 28.0053 2.8771 28.5823 3.58759 28.5823H3.61333C4.32436 28.5823 4.90027 28.0058 4.90027 27.2948V16.0567C4.99169 15.9963 5.09894 15.9601 5.21717 15.9601C5.33488 15.9601 5.44292 15.9974 5.53462 16.0577C5.53462 16.0693 5.53301 16.0802 5.53301 16.0918V27.2948C5.53301 28.005 6.10891 28.582 6.81914 28.582H6.84568C7.55644 28.582 8.13288 28.0058 8.13288 27.2948V16.0918C8.13288 16.0869 8.13181 16.0827 8.13181 16.0776H8.13288V8.30449C8.15701 8.30234 8.17953 8.29885 8.20474 8.29885C8.25916 8.29885 8.31091 8.30609 8.36239 8.31709V15.6928C8.36239 16.2108 8.82166 16.6318 9.38845 16.6318H9.40909C9.97561 16.6318 10.4343 16.2108 10.4343 15.6928V8.49216V6.3765V6.35827C10.4333 5.64616 9.85603 5.06812 9.14259 5.06812Z" fill="white"/>
<path fill-rule="evenodd" clip-rule="evenodd" d="M7.52642 2.30997C7.52642 3.58618 6.49231 4.61922 5.21691 4.61922C3.94124 4.61922 2.9082 3.58591 2.9082 2.30997C2.9082 1.03537 3.9415 0.000732422 5.21691 0.000732422C6.49204 0.000732422 7.52642 1.03537 7.52642 2.30997Z" fill="white"/>
<path fill-rule="evenodd" clip-rule="evenodd" d="M27.7832 5.06787H26.7724H26.6159H21.0995H20.9421H19.9316C19.2192 5.06787 18.6406 5.64592 18.6406 6.35829V6.37652V8.49219V15.6928C18.6406 16.2108 19.1002 16.6318 19.667 16.6318H19.6876C20.2541 16.6318 20.7137 16.2108 20.7137 15.6928V8.31711C20.7641 8.30612 20.8169 8.29888 20.871 8.29888C20.8954 8.29888 20.918 8.30263 20.9421 8.30451V14.8057V16.0773V27.2946C20.9421 28.0051 21.5177 28.582 22.2282 28.582H22.254C22.965 28.582 23.5409 28.0056 23.5409 27.2946V16.0564C23.6323 15.9961 23.7396 15.9599 23.8578 15.9599C23.9755 15.9599 24.0835 15.9972 24.1752 16.0575C24.1752 16.069 24.1736 16.08 24.1736 16.0915V27.2946C24.1736 28.0048 24.7495 28.5818 25.4598 28.5818H25.4863C26.1971 28.5818 26.7735 28.0056 26.7735 27.2946V16.0915C26.7735 16.0867 26.7724 16.0824 26.7724 16.0773H26.7735V8.30424C26.7976 8.3021 26.8202 8.29861 26.8454 8.29861C26.8998 8.29861 26.9515 8.30585 27.003 8.31684V15.6926C27.003 16.2106 27.4623 16.6315 28.0291 16.6315H28.0497C28.6162 16.6315 29.075 16.2106 29.075 15.6926V8.49192V6.37625V6.35802C29.0739 5.64592 28.4967 5.06787 27.7832 5.06787Z" fill="white"/>
<path fill-rule="evenodd" clip-rule="evenodd" d="M26.167 2.30973C26.167 3.58594 25.1329 4.61897 23.8575 4.61897C22.5819 4.61897 21.5488 3.58567 21.5488 2.30973C21.5488 1.03513 22.5821 0.000488281 23.8575 0.000488281C25.1327 0.000488281 26.167 1.03513 26.167 2.30973Z" fill="white"/>
<path fill-rule="evenodd" clip-rule="evenodd" d="M46.4258 5.06738H45.415H45.2584H39.7421H39.5847H38.5742C37.8618 5.06738 37.2832 5.64543 37.2832 6.3578V6.37603V8.4917V15.6924C37.2832 16.2104 37.7427 16.6313 38.3095 16.6313H38.3302C38.8967 16.6313 39.3562 16.2104 39.3562 15.6924V8.31662C39.4066 8.30563 39.4595 8.29839 39.5136 8.29839C39.538 8.29839 39.5605 8.30214 39.5847 8.30402V14.8052V16.0768V27.2941C39.5847 28.0046 40.1603 28.5815 40.8708 28.5815H40.8965C41.6076 28.5815 42.1835 28.0051 42.1835 27.2941V16.0559C42.2749 15.9956 42.3821 15.9594 42.5004 15.9594C42.6181 15.9594 42.7261 15.9967 42.8178 16.057C42.8178 16.0685 42.8162 16.0795 42.8162 16.091V27.2941C42.8162 28.0043 43.3921 28.5813 44.1023 28.5813H44.1289C44.8396 28.5813 45.4161 28.0051 45.4161 27.2941V16.091C45.4161 16.0862 45.415 16.0819 45.415 16.0768H45.4161V8.30375C45.4402 8.30161 45.4627 8.29812 45.4879 8.29812C45.5424 8.29812 45.5941 8.30536 45.6456 8.31635V15.6921C45.6456 16.2101 46.1049 16.631 46.6717 16.631H46.6923C47.2588 16.631 47.7176 16.2101 47.7176 15.6921V8.49143V6.37577V6.35753C47.7165 5.64543 47.1392 5.06738 46.4258 5.06738Z" fill="white"/>
<path fill-rule="evenodd" clip-rule="evenodd" d="M44.8096 2.30924C44.8096 3.58545 43.7755 4.61848 42.5001 4.61848C41.2244 4.61848 40.1914 3.58518 40.1914 2.30924C40.1914 1.03464 41.2247 0 42.5001 0C43.7752 0 44.8096 1.03464 44.8096 2.30924Z" fill="white"/>
<path fill-rule="evenodd" clip-rule="evenodd" d="M65.0664 5.06738H64.0556H63.8991H58.3827H58.2253H57.2148C56.5024 5.06738 55.9238 5.64543 55.9238 6.3578V6.37603V8.4917V15.6924C55.9238 16.2104 56.3834 16.6313 56.9502 16.6313H56.9708C57.5373 16.6313 57.9969 16.2104 57.9969 15.6924V8.31662C58.0473 8.30563 58.1001 8.29839 58.1542 8.29839C58.1786 8.29839 58.2012 8.30214 58.2253 8.30402V14.8052V16.0768V27.2941C58.2253 28.0046 58.8009 28.5815 59.5114 28.5815H59.5372C60.2482 28.5815 60.8241 28.0051 60.8241 27.2941V16.0559C60.9155 15.9956 61.0228 15.9594 61.141 15.9594C61.2587 15.9594 61.3668 15.9967 61.4584 16.057C61.4584 16.0685 61.4568 16.0795 61.4568 16.091V27.2941C61.4568 28.0043 62.0327 28.5813 62.743 28.5813H62.7695C63.4803 28.5813 64.0567 28.0051 64.0567 27.2941V16.091C64.0567 16.0862 64.0556 16.0819 64.0556 16.0768H64.0567V8.30375C64.0808 8.30161 64.1034 8.29812 64.1286 8.29812C64.183 8.29812 64.2347 8.30536 64.2862 8.31635V15.6921C64.2862 16.2101 64.7455 16.631 65.3123 16.631H65.3329C65.8994 16.631 66.3582 16.2101 66.3582 15.6921V8.49143V6.37577V6.35753C66.3571 5.64543 65.7799 5.06738 65.0664 5.06738Z" fill="white"/>
<path fill-rule="evenodd" clip-rule="evenodd" d="M63.4502 2.30924C63.4502 3.58545 62.4161 4.61848 61.1407 4.61848C59.8651 4.61848 58.832 3.58518 58.832 2.30924C58.832 1.03464 59.8653 0 61.1407 0C62.4159 0 63.4502 1.03464 63.4502 2.30924Z" fill="white"/>
<path fill-rule="evenodd" clip-rule="evenodd" d="M83.709 5.06738H82.6982H82.5416H77.0253H76.8679H75.8574C75.145 5.06738 74.5664 5.64543 74.5664 6.3578V6.37603V8.4917V15.6924C74.5664 16.2104 75.0259 16.6313 75.5927 16.6313H75.6134C76.1799 16.6313 76.6394 16.2104 76.6394 15.6924V8.31662C76.6898 8.30563 76.7427 8.29839 76.7968 8.29839C76.8212 8.29839 76.8437 8.30214 76.8679 8.30402V14.8052V16.0768V27.2941C76.8679 28.0046 77.4435 28.5815 78.154 28.5815H78.1797C78.8908 28.5815 79.4667 28.0051 79.4667 27.2941V16.0559C79.5581 15.9956 79.6653 15.9594 79.7836 15.9594C79.9013 15.9594 80.0093 15.9967 80.101 16.057C80.101 16.0685 80.0994 16.0795 80.0994 16.091V27.2941C80.0994 28.0043 80.6753 28.5813 81.3855 28.5813H81.4121C82.1229 28.5813 82.6993 28.0051 82.6993 27.2941V16.091C82.6993 16.0862 82.6982 16.0819 82.6982 16.0768H82.6993V8.30375C82.7234 8.30161 82.7459 8.29812 82.7711 8.29812C82.8256 8.29812 82.8773 8.30536 82.9288 8.31635V15.6921C82.9288 16.2101 83.3881 16.631 83.9549 16.631H83.9755C84.542 16.631 85.0008 16.2101 85.0008 15.6921V8.49143V6.37577V6.35753C84.9997 5.64543 84.4224 5.06738 83.709 5.06738Z" fill="white"/>
<path fill-rule="evenodd" clip-rule="evenodd" d="M82.0928 2.30924C82.0928 3.58545 81.0587 4.61848 79.7833 4.61848C78.5076 4.61848 77.4746 3.58518 77.4746 2.30924C77.4746 1.03464 78.5079 0 79.7833 0C81.0585 0 82.0928 1.03464 82.0928 2.30924Z" fill="white"/>
</mask>
<g mask="url(#mask0)">
<rect x="-13.9512" y="-4.92432" width="109.154" height="38.5732" fill="#DDE0E9"/>
<rect x="-4.92383" y="-4.92432" width="37.7525" height="36.1111" fill="#23346B"/>
</g>
</svg>
