<svg width="50" height="50" viewBox="0 0 50 50" fill="none" xmlns="http://www.w3.org/2000/svg">
<circle cx="25" cy="25" r="25" fill="#F5F6F8"/>
<path d="M26.4864 26.9553H22.6563C21.3934 26.9553 20.3696 25.9087 20.3696 24.6176V22.3179H28.7731V24.6176C28.773 25.9087 27.7493 26.9553 26.4864 26.9553Z" fill="white"/>
<path d="M26.4865 27.6059H22.6563C21.0444 27.6059 19.733 26.2653 19.733 24.6175V22.3178C19.733 21.9584 20.0181 21.667 20.3696 21.667H28.7731C29.1247 21.667 29.4097 21.9584 29.4097 22.3178V24.6176C29.4097 26.2654 28.0983 27.6059 26.4865 27.6059ZM21.0062 22.9686V24.6175C21.0062 25.5476 21.7464 26.3043 22.6562 26.3043H26.4864C27.3962 26.3043 28.1364 25.5476 28.1364 24.6175V22.9686H21.0062Z" fill="#23346B"/>
<path d="M30.5614 14.1337L29.3157 12.8602C29.1846 12.7262 29.0067 12.6509 28.8213 12.6509H20.3219C20.1365 12.6509 19.9586 12.7262 19.8275 12.8602L18.5818 14.1337C18.4508 14.2677 18.3771 14.4495 18.3771 14.6391V19.2391H30.7661V14.6391C30.7661 14.4495 30.6925 14.2677 30.5614 14.1337ZM28.2633 18.5996H20.8799V15.4028L21.069 15.2095H28.0742L28.2633 15.4028V18.5997V18.5996Z" fill="white"/>
<path d="M30.7661 19.8899H18.3771C18.0255 19.8899 17.7405 19.5985 17.7405 19.2391V14.639C17.7405 14.2743 17.8795 13.9313 18.1317 13.6734L19.3774 12.3999C19.6298 12.142 19.9652 12 20.3219 12H28.8214C29.1781 12 29.5135 12.142 29.7658 12.3998L31.0116 13.6734C31.2639 13.9313 31.4029 14.2742 31.4029 14.639V19.239C31.4028 19.5985 31.1177 19.8899 30.7661 19.8899ZM28.9 18.5883H30.1295V14.639C30.1295 14.6222 30.1228 14.6057 30.1111 14.5939L28.8655 13.3204C28.8539 13.3086 28.8377 13.3017 28.8213 13.3017H20.3219C20.3054 13.3017 20.2893 13.3086 20.2776 13.3205L19.032 14.5939C19.0204 14.6059 19.0137 14.6223 19.0137 14.6391V18.5883H20.2432V15.4029C20.2432 15.2303 20.3103 15.0648 20.4297 14.9427L20.6188 14.7493C20.7382 14.6273 20.9001 14.5587 21.0689 14.5587H28.0742C28.243 14.5587 28.405 14.6273 28.5244 14.7493L28.7135 14.9427C28.8329 15.0648 28.8999 15.2303 28.8999 15.4029V18.5883H28.9ZM21.5165 17.9488H27.6267V15.8603H21.5165V17.9488Z" fill="#23346B"/>
<path d="M33.4847 35.1429H15.6582C14.1925 35.1429 13 33.9239 13 32.4254V19.9606C13 18.4622 14.1925 17.2432 15.6582 17.2432H33.4847C34.9504 17.2432 36.1429 18.4622 36.1429 19.9606V23.2054C36.1429 23.5647 35.8578 23.8562 35.5062 23.8562C35.1547 23.8562 34.8696 23.5647 34.8696 23.2054V19.9606C34.8696 19.18 34.2484 18.5448 33.4847 18.5448H15.6582C14.8945 18.5448 14.2733 19.18 14.2733 19.9606V32.4255C14.2733 33.2061 14.8946 33.8413 15.6582 33.8413H33.4847C34.2484 33.8413 34.8696 33.2061 34.8696 32.4255V26.7875C34.8696 26.4281 35.1546 26.1367 35.5062 26.1367C35.8578 26.1367 36.1429 26.4281 36.1429 26.7875V32.4255C36.1429 33.9239 34.9505 35.1429 33.4847 35.1429Z" fill="#23346B"/>
<circle cx="34.2143" cy="31.2857" r="5.78571" fill="white"/>
<path d="M35.5062 23.2051V19.9604C35.5062 18.8191 34.6011 17.8938 33.4846 17.8938H15.6582C14.5417 17.8938 13.6366 18.8191 13.6366 19.9604V23.2051H35.5062Z" fill="white"/>
<path d="M35.5062 23.8561H13.6366C13.285 23.8561 13 23.5647 13 23.2053V19.9606C13 18.4622 14.1925 17.2432 15.6582 17.2432H33.4847C34.9504 17.2432 36.1429 18.4622 36.1429 19.9606V23.2053C36.1429 23.5648 35.8578 23.8561 35.5062 23.8561ZM14.2733 22.5545H34.8696V19.9606C34.8696 19.18 34.2483 18.5448 33.4847 18.5448H15.6582C14.8945 18.5448 14.2733 19.18 14.2733 19.9606V22.5545Z" fill="#23346B"/>
<path d="M34.2143 37.0714C31.024 37.0714 28.4286 34.476 28.4286 31.2857C28.4286 28.0954 31.024 25.5 34.2143 25.5C35.9555 25.5 37.5876 26.2732 38.692 27.6216C38.936 27.9193 38.8924 28.3586 38.5945 28.6025C38.2968 28.8464 37.8575 28.8029 37.6135 28.505C36.775 27.4813 35.536 26.8943 34.2144 26.8943C31.7929 26.8943 29.8228 28.8643 29.8228 31.2858C29.8228 33.7073 31.7929 35.6774 34.2144 35.6774C36.6359 35.6774 38.6059 33.7073 38.6059 31.2858C38.6059 30.9009 38.918 30.5887 39.303 30.5887C39.6879 30.5887 40 30.9009 40 31.2858C40 34.476 37.4046 37.0714 34.2143 37.0714Z" fill="#23346B"/>
<path d="M36.5009 32.25H33.8654C33.5254 32.25 33.2499 31.9743 33.2499 31.6345V28.875C33.2499 28.5351 33.5254 28.2036 33.8654 28.2036C34.2053 28.2036 34.4809 28.5352 34.4809 28.875V31.019H36.5009C36.8408 31.019 37.107 31.2946 37.107 31.6345C37.107 31.9743 36.8408 32.25 36.5009 32.25Z" fill="#23346B"/>
</svg>
