1;Самарская область;98,7;1-6;2;70,0;28,7;GerbSamaraObl.png;yellow
2;г. Москва;98,6;1-6;1;70,0;28,6;GerbMoscow.png;#d01417
3;Московская область;98,0;1-6;-;70,0;28,0;GerbMoscowObl2005.png;#d01417
4;Нижегородская область;96,9;10;6;70,0;26,9;GerbNizhniyNovgorodObl.png;yellow
5;Пермский край;95,8;8-9;3;70,0;25,8;GerbPermObl.png;yellow
6;Ханты-Мансийский АО – Югра;93,9;1-6;-3;66,2;27,8;GerbYugra.png;#8673e6
7;Свердловская область;93,5;14;7;66,1;27,5;GerbSverdlovskObl.png;#8673e6
8;Тамбовская область;87,4;8-9;-;63,3;24,1;GerbTambovskayaObl.png;#d01417
9;Иркутская область;84,8;12;3;57,9;26,9;GerbIrkutskObl.png;#17c671
10;Новосибирская область;75,6;7;-3;47,0;28,6;Coat_of_arms_of_Novosibirsk_oblast.svg.png;#17c671
11;Тюменская область;75,4;23;12;47,6;27,7;Tyumen_Oblast.svg.png;#8673e6
12;Амурская область;73,9;26;14;49,1;24,8;Amurskaja_obl.png;#13adcb
13;г. Санкт-Петербург;72,2;1-6;-10;48,1;24,1;GerbSPB2003.png;#0173cd
14;Ленинградская область;72,1;16;2;44,7;27,4;GerbLeningradskoyObl.png;#0173cd
15;Красноярский край;71,4;13;-2;47,0;24,4;Krasnoyarsk_Krai.svg.png;#17c671
16;Удмуртская Республика;68,3;19;3;40,3;27,9;GerbUdmurtia.png;yellow
17;Челябинская область;66,6;17;-;38,7;28,0;Chelyabinsk_Oblast.svg.png;#8673e6
18;Ямало-Ненецкий АО;65,7;15;-3;38,5;27,2;Yamal_Nenetsia.svg.png;#8673e6
19;Кемеровская область – Кузбасс;64,5;36;17;39,2;25,3;Kemerovo_Oblast.svg.png;#17c671
20;Республика Башкортостан;64,4;1-6;-17;37,2;27,2;Bashkortostan.svg.png;yellow
21;Камчатский край;58,4;30;9;29,8;28,6;Kamchatka_Krai.svg.png;#13adcb
22;Белгородская область;57,0;35;13;31,4;25,6;Belgorod_Oblast.svg.png;#d01417
23;Тульская область;55,9;28;5;30,2;25,7;Tula_oblast.png;#d01417
24;Калининградская область;55,6;37;13;28,0;27,5;Kaliningrad_Oblast.svg.png;#0173cd
25;Ульяновская область;55,1;20-21;-5;27,2;27,9;ulanovsk.png;yellow
26;Вологодская область;54,3;29;3;29,2;25,1;Vologda_oblast.svg.png;#0173cd
27;Республика Бурятия;50,9;24;-3;24,2;26,7;Buryatia.svg.png;#13adcb
28;Смоленская область;50,2;40;12;26,4;23,8;Smolensk_oblast.svg.png;#d01417
29;Республика Саха (Якутия);50,1;25;-4;27,4;22,8;Sakha_(Yakutia).svg.png;#13adcb
30;Владимирская область;49,8;18;-12;23,4;26,4;Vladimiri_Oblast.svg.png;#d01417
31;Алтайский край;49,7;55;24;23,0;26,7;Altai_Krai.svg.png;#17c671
32;Хабаровский край;49,6;11;-21;25,9;23,8;Khabarovsk_Krai.svg.png;#13adcb
33;Волгоградская область;49,2;32;-1;24,6;24,6;Volgograd_oblast.svg.png;#ff8c19
34;Архангельская область;47,8;31;-3;21,7;26,1;Arkhangelsk_oblast.svg.png;#0173cd
35;Чувашская Республика;45,2;48;13;20,6;24,6;Chuvashia.svg.png;yellow
36;Кировская область;44,73;61;25;22,3;22,4;Kirov_Region.svg.png;yellow;1
37;Саратовская область;44,70;43;6;18,5;26,2;Saratov_oblast.svg.png;yellow;1
38;Мурманская область;42,0;44;6;14,3;27,7;murmansk_obl.svg.png;#0173cd
39;Оренбургская область;40,6;46;7;18,1;22,4;Orenburg_Oblast.svg.png;yellow
40;Ростовская область;40,5;27;-13;13,8;26,7;Rostov_Oblast.svg.png;#ff8c19
41;Воронежская область;39,2;33;-8;13,9;25,3;Voronezh_Oblast.svg.png;#d01417
42;Республика Мордовия;38,3;42;-;13,2;25,1;Mordovia.svg.png;yellow
43;Пензенская область;38,15;41;-2;12,3;25,8;Penza_Oblast.svg.png;yellow;2
44;Республика Крым;38,11;65;21;14,0;24,1;Emblem_of_Crimea.svg.png;#ff8c19;2
45;Рязанская область;37,9;53;8;13,2;24,7;Ryazan_Oblast.svg.png;#d01417
46;Забайкальский край;37,5;66;20;20,2;17,3;Zabaykalsky_Krai.svg.png;#13adcb
47;Ставропольский край;37,4;45;-2;15,1;22,3;Stavropol_Krai.svg.png;#9199b5
48;Калужская область;37,1;20-21;-28;13,4;23,6;Kaluga_Oblast.svg.png;#d01417
49;Ивановская область;36,9;56;7;14,3;22,6;Ivanovo_Oblast.svg.png;#d01417
50;Республика Алтай;35,4;34;-16;12,4;23,0;Altai_Republic.svg.png;#17c671
51;Республика Татарстан;35,24;22;-29;12,0;23,2;Tatarstan.svg.png;yellow;3
52;Краснодарский край;35,18;49;-3;9,4;25,8;Krasnodar_Kray.svg.png;#ff8c19;4
53;Приморский край;33,8;47;-6;6,1;27,8;Primorsky_Krai.svg.png;#13adcb
54;Республика Хакасия;33,2;67;13;10,0;23,1;Khakassia.svg.png;#17c671
55;Республика Коми;32,9;59;4;7,2;25,7;Komi_Republic.svg.png;#0173cd
56;Липецкая область;32,6;39;-17;7,7;24,9;Lipetsk_oblast.svg.png;#d01417
57;Костромская область;31,7;68;11;13,5;18,2;Kostroma_Oblast.svg.png;#d01417
58;Омская область;30,3;50;-8;5,6;24,7;Omsk_Oblast.svg.png;#17c671
59;Новгородская область;29,7;60;1;8,0;21,7;Novgorod_Oblast.png;#0173cd
60;Сахалинская область;29,6;52;-8;6,0;23,6;Sakhalin_Oblast.png;#13adcb
61;Республика Карелия;29,5;71;10;8,1;21,4;Karelia.svg.png;#0173cd
62;Томская область;28,3;63;1;3,6;24,8;Tomsk_Oblast.png;#17c671
63;Псковская область;27,9;69;6;9,3;18,6;Pskov_Oblast_(2018).svg.png;#0173cd
64;Ярославская область;27,5;51;-13;3,2;24,3;Yaroslavl_Oblast.svg.png;#d01417
65;Республика Тыва;24,9;82;17;6,5;18,4;Tuva.svg.png;#17c671
66;Магаданская область;24,6;57;-9;1,7;22,9;Magadan_oblast.svg.png;#13adcb
67;Астраханская область;24,40;38;-29;6,7;17,7;Astrakhan_Oblast.svg.png;#ff8c19;4
68;Чукотский АО;24,39;58;-10;4,4;20,0;Chukotka.svg.png;#13adcb;4
69;Чеченская Республика;24,2;73;4;4,2;20,0;Chechnya.svg.png;#9199b5
70;Республика Адыгея;21,5;75;5;0,2;21,3;Adygea.svg.png;#ff8c19
71;Курганская область;20,8;77;6;2,4;18,3;Kurgan_Oblast.svg.png;#8673e6
72;Республика Марий Эл;20,6;72;-;0,5;20,1;Mari_El.svg.png;yellow
73;Еврейская АО;19,9;76;3;2,1;17,9;Jewish_Autonomous_Oblast.svg.png;#13adcb
74;Курская область;19,7;64;-10;0,2;19,5;Kursk_oblast.svg.png;#d01417
75;Орловская область;19,0;80;5;1,3;17,7;Oryol_Oblast_(large).svg.png;#d01417
76;Республика Дагестан;18,8;54;-22;0,0;18,8;Dagestan.svg.png;#9199b5
77;г. Севастополь;18,4;74;-3;0,8;17,6;COA_of_Sevastopol.svg.png;#ff8c19
78;Кабардино-Балкарская Республика;18,2;62;-16;0,5;17,7;Kabardino-Balkaria.svg.png;#9199b5
79;Ненецкий АО;17,3;78;-1;0,0;17,3;Nenets_Autonomous_Okrug.svg.png;#0173cd
80;Республика Калмыкия;16,6;85;5;0,0;16,6;Kalmykia.svg.png;#ff8c19
81;Тверская область;15,6;79;-2;3,9;11,7;Tver_oblast.svg.png;#d01417
82;Карачаево-Черкесская Республика;14,7;70;-12;0,0;14,7;Karachay-Cherkessia.svg.png;#9199b5
83;Брянская область;11,3;81;-2;0,3;11,0;Bryansk_Oblast.svg.png;#d01417
84;Республика Ингушетия;7,5;83;-1;1,0;6,6;Ingushetia.svg.png;#9199b5
85;Республика Северная Осетия - Алания;6,7;84;-1;0,0;6,7;Wapen_Ossetien.svg.png;#9199b5
