<svg width="38" height="38" viewBox="0 0 38 38" fill="none" xmlns="http://www.w3.org/2000/svg">
<path d="M38 18.9999C38 16.6758 37.582 14.4495 36.8182 12.3913L19 11.5651L1.18179 12.3912C0.418074 14.4495 0 16.6758 0 18.9999C0 21.324 0.418074 23.5503 1.18179 25.6086L19 26.4347L36.8182 25.6087C37.582 23.5504 38 21.324 38 18.9999Z" fill="#496E2D"/>
<path d="M19.0001 38.0001C27.1694 38.0001 34.1337 32.8439 36.8183 25.6087H1.18188C3.86645 32.8439 10.8308 38.0001 19.0001 38.0001Z" fill="#D80027"/>
<path d="M1.18188 12.3913H36.8184C34.1337 5.15613 27.1694 0 19.0001 0C10.8308 0 3.86645 5.15613 1.18188 12.3913Z" fill="#F0F0F0"/>
</svg>
