<svg width="16" height="16" viewBox="0 0 16 16" fill="none" xmlns="http://www.w3.org/2000/svg">
<path d="M8 16C12.4183 16 16 12.4183 16 8C16 3.58172 12.4183 0 8 0C3.58172 0 0 3.58172 0 8C0 12.4183 3.58172 16 8 16Z" fill="#338AF3"/>
<path d="M12.522 8.08691H3.47852C3.47852 8.71126 4.0223 9.21735 4.64658 9.21735H4.60895C4.60895 9.8417 5.11505 10.3478 5.73939 10.3478C5.73939 10.9721 6.24548 11.4782 6.86983 11.4782H9.1307C9.75505 11.4782 10.2611 10.9721 10.2611 10.3478C10.8855 10.3478 11.3916 9.8417 11.3916 9.21735H11.354C11.9782 9.21735 12.522 8.71126 12.522 8.08691Z" fill="#FFDA44"/>
<path d="M11.13 6.60889C11.13 8.33776 9.72844 9.73932 7.99957 9.73932C6.27067 9.73932 4.86914 8.33776 4.86914 6.60889" fill="#338AF3"/>
<path d="M10.3915 6.60857L9.41452 7.06816L9.9348 8.01441L8.87387 7.81144L8.73943 8.88319L8.00046 8.09491L7.26146 8.88319L7.12706 7.81144L6.06612 8.01435L6.58637 7.06813L5.60938 6.60857L6.5864 6.14901L6.06612 5.20279L7.12703 5.40573L7.26149 4.33398L8.00046 5.12226L8.73946 4.33398L8.87387 5.40573L9.93483 5.20279L9.41455 6.14904L10.3915 6.60857Z" fill="#FFDA44"/>
</svg>
