<svg width="18" height="18" viewBox="0 0 18 18" fill="none" xmlns="http://www.w3.org/2000/svg">
<path fill-rule="evenodd" clip-rule="evenodd" d="M8.00853 0C6.90195 0 6 0.893232 6 1.99509V18H7.49573H15.9915C17.098 18 18 17.1068 18 16.0049V1.99509C18 0.892623 17.1007 0 15.9915 0H8.00853ZM16 1.99512C16 1.99512 15.9978 16 15.9915 16H8C8 16 8.00218 2.00003 8.00853 2.00003C8.00853 2.00003 16 2.00054 16 1.99512ZM5 3H2.00853C0.90195 3 0 3.9622 0 5.14913V15.8509C0 17.0389 0.89925 18 2.00853 18H5V15.8547C3.38395 15.8536 2 15.8523 2 15.8509C2 15.8509 2.00458 5.14286 2.00853 5.14286C2.00853 5.14286 3.38762 5.14336 5 5.14419V3ZM11 4H9V6H11V4ZM3 7H5V9H3V7ZM5 10H3V12H5V10ZM9 7H11V9H9V7ZM11 10H9V12H11V10ZM11 13H13V16H11V13ZM15 4H13V6H15V4ZM13 7H15V9H13V7ZM15 10H13V12H15V10Z" fill="#9199B5"/>
</svg>
