<svg width="269" height="38" viewBox="0 0 269 38" fill="none" xmlns="http://www.w3.org/2000/svg">
<path d="M14.1079 33.1872C10.7547 31.7501 8.01739 29.1496 6.51184 25.8649L11.8496 23.3328C12.8077 25.3174 14.4501 26.8914 16.4347 27.7126L14.1079 33.1872Z" fill="#455278"/>
<path d="M19.9299 27.3875C15.9915 27.3875 12.7751 24.1711 12.7751 20.2327C12.7751 16.2943 15.9915 13.0779 19.9299 13.0779C23.8683 13.0779 27.0847 16.2943 27.0847 20.2327H23.4745C23.4745 18.2635 21.8991 16.6882 19.9299 16.6882C17.9607 16.6882 16.3854 18.2635 16.3854 20.2327C16.3854 22.2019 17.9607 23.7773 19.9299 23.7773V27.3875Z" fill="#C1C7CA"/>
<path d="M11.3976 20.2318H7.9187C7.9187 13.5366 13.3668 8.15405 19.9965 8.15405V11.633C15.2048 11.633 11.3976 15.4401 11.3976 20.2318Z" fill="#30464F"/>
<path d="M19.9302 37.3642V32.3099C26.6255 32.3099 32.0736 26.8618 32.0736 20.1665H37.1279C37.1279 29.6843 29.448 37.3642 19.9302 37.3642Z" fill="#C1C7CA"/>
<path d="M14.3527 33.3597C11.1363 31.9812 8.51075 29.4869 7.06665 26.3362L12.1866 23.9075C13.1055 25.811 14.6809 27.3208 16.5845 28.1084L14.3527 33.3597Z" fill="#30464F"/>
<path d="M38.4407 20.2318H32.0736C32.0736 13.5365 26.6255 8.08841 19.9302 8.08841V1.72131C30.17 1.72131 38.4407 9.99195 38.4407 20.2318Z" fill="#30464F"/>
<path d="M19.931 37.4286C10.4788 37.4286 2.73328 29.6831 2.73328 20.2309H4.50556C4.50556 28.7641 11.4634 35.6563 19.931 35.6563V37.4286Z" fill="#C1C7CA"/>
<path d="M2.8635 20.2317H0.434814C0.434814 9.46669 9.16495 0.736572 19.9299 0.736572V3.16525C10.5434 3.09962 2.8635 10.7795 2.8635 20.2317Z" fill="#C1C7CA"/>
<path d="M27.74 16.4907C26.8211 14.5871 25.2457 13.0774 23.3422 12.2897L25.5739 7.03851C28.7903 8.41695 31.4159 10.9113 32.86 14.062L27.74 16.4907Z" fill="#AFB5B8"/>
<path d="M23.9335 29.0273L21.6361 23.8417C22.5551 23.4478 23.2114 22.7258 23.6709 21.8725L28.8565 24.2355C27.8063 26.336 26.034 28.1083 23.9335 29.0273Z" fill="#30464F"/>
<path d="M268.15 19.0284H229.123V21.3435H268.15V19.0284Z" fill="#2F3B43"/>
<path d="M229.123 35.1241H231.493V32.5333H245.164V23.6035H229.123V35.1241ZM231.548 25.8635H242.848V30.2181H231.548V25.8635Z" fill="#2F3B43"/>
<path d="M247.532 32.5333H256.572V35.1241H259.053V32.5333H268.148V23.6035H247.532V32.5333ZM259.053 25.8635H265.778V30.2181H259.053V25.8635ZM249.902 25.8635H256.572V30.2181H249.902V25.8635Z" fill="#2F3B43"/>
<path d="M264.896 6.90118H267.542V4.64117H256.352V6.90118V14.453V16.6579H263.793C266.991 16.6579 268.258 15.0594 268.258 12.9096C268.258 10.7598 267.046 9.21633 263.848 9.21633H258.998V6.84608H264.896V6.90118ZM263.848 11.4764C265.061 11.4764 265.557 12.193 265.557 12.9647C265.557 13.7364 265.116 14.453 263.848 14.453H258.998V11.4764H263.848Z" fill="#2F3B43"/>
<path d="M248.743 14.4534H243.011V16.7134H248.964C252.492 16.7134 254.917 14.288 254.917 10.705C254.917 7.12206 252.492 4.69666 248.964 4.69666H243.011V6.95667H248.743C250.452 6.95667 251.665 8.004 252.051 9.6577H244.334V11.8626H252.051C251.665 13.406 250.452 14.4534 248.743 14.4534Z" fill="#2F3B43"/>
<path d="M241.193 7.94812C241.193 5.96369 239.87 4.64075 236.673 4.64075H229.121V16.7126H237.114C240.311 16.7126 241.579 15.2794 241.579 13.2399C241.579 11.9169 241.028 10.9247 239.649 10.4286C240.752 9.93253 241.193 9.10569 241.193 7.94812ZM231.767 6.90079H236.783C237.996 6.90079 238.492 7.61738 238.492 8.38907C238.492 9.1608 238.051 9.76714 236.783 9.76714H231.767V6.90079ZM237.224 14.4525H231.767V11.5311H237.224C238.437 11.5311 238.933 12.1925 238.933 12.9643C238.933 13.7911 238.492 14.4525 237.224 14.4525Z" fill="#2F3B43"/>
<path d="M216.631 4.64117H215.85V35.0883H216.631V4.64117Z" fill="#2F3B43"/>
<path d="M54.5704 4.56287V11.5725H53.2242V8.46224H49.8819V11.5725H48.5356V4.56287H49.8819V7.37134H53.2242V4.56287H54.5704Z" fill="#2F3B43"/>
<path d="M60.5321 9.83166H57.538L56.9345 11.5725H55.5419L58.2343 4.56287H59.859L62.5515 11.5725H61.1588L60.5321 9.83166ZM60.1608 8.8104L59.1859 6.00192L59.0467 5.53771L58.9074 5.97871L57.9094 8.8104H60.1608Z" fill="#2F3B43"/>
<path d="M70.3293 10.4816V13.4757H69.1223V11.5725H63.5054V4.56287H64.8516V10.4816H68.0314V4.56287H69.3776V10.4816H70.3293Z" fill="#2F3B43"/>
<path d="M71.447 4.56337H72.7236V9.85538L73.0485 9.34475L76.4141 4.54016H77.6907V11.5497H76.4141V6.23453L76.1123 6.69874L72.7236 11.5497H71.447V4.56337Z" fill="#2F3B43"/>
<path d="M78.9883 8.06766C78.9883 5.83944 80.2881 4.40039 82.4234 4.40039C84.5588 4.40039 85.8586 5.81623 85.8586 8.06766C85.8586 10.2727 84.5588 11.7117 82.4234 11.7117C80.2881 11.7117 78.9883 10.2959 78.9883 8.06766ZM84.4428 8.06766C84.4428 6.44292 83.6536 5.5145 82.4466 5.5145C81.2165 5.5145 80.4273 6.46613 80.4273 8.06766C80.4273 9.66919 81.1933 10.5976 82.4466 10.5976C83.6536 10.5976 84.4428 9.6924 84.4428 8.06766Z" fill="#2F3B43"/>
<path d="M93.238 4.56287V11.5725H91.8918V8.46224H88.5495V11.5725H87.2032V4.56287H88.5495V7.37134H91.8918V4.56287H93.238Z" fill="#2F3B43"/>
<path d="M99.1786 9.83166H96.2077L95.6042 11.5725H94.2115L96.904 4.56287H98.5287L101.221 11.5725H99.8285L99.1786 9.83166ZM98.8305 8.8104L97.8556 6.00192L97.7163 5.53771L97.5771 5.97871L96.579 8.8104H98.8305Z" fill="#2F3B43"/>
<path d="M101.527 10.4583C102.084 10.4583 102.339 10.0406 102.548 9.57634C102.873 8.78718 102.942 7.90518 103.035 6.95355L103.221 4.56287H107.747V11.5725H106.401V5.63055H104.428L104.312 6.97676C104.196 8.50866 104.01 9.2514 103.801 9.85487C103.291 11.2707 102.525 11.6189 101.503 11.5725V10.4583H101.527Z" fill="#2F3B43"/>
<path d="M115.149 9.43709C115.149 10.9226 114.174 11.5725 112.131 11.5725H109.439V4.56287H110.785V7.30171H112.131C114.197 7.30171 115.149 8.11408 115.149 9.43709ZM113.802 9.43709C113.802 8.69435 113.315 8.32297 112.131 8.32297H110.785V10.5512H112.131C113.292 10.5512 113.802 10.1798 113.802 9.43709Z" fill="#2F3B43"/>
<path d="M122.438 4.56287V11.5725H121.092V8.46224H117.75V11.5725H116.404V4.56287H117.75V7.37134H121.092V4.56287H122.438Z" fill="#2F3B43"/>
<path d="M129.863 9.43709C129.863 10.9226 128.888 11.5725 126.845 11.5725H124.153V4.56287H125.499V7.30171H126.845C128.888 7.30171 129.863 8.11408 129.863 9.43709ZM128.493 9.43709C128.493 8.69435 128.006 8.32297 126.822 8.32297H125.476V10.5512H126.822C128.006 10.5512 128.493 10.1798 128.493 9.43709ZM132.254 4.56287V11.5725H130.931V4.56287H132.254Z" fill="#2F3B43"/>
<path d="M134.003 4.56306H135.279V9.85506L135.604 9.34443L138.97 4.53984H140.246V11.5494H138.97V6.23421L138.668 6.69842L135.279 11.5494H134.003V4.56306ZM135.279 2.17236H136.254C136.301 2.82226 136.695 3.14721 137.113 3.14721C137.531 3.14721 137.925 2.79905 137.948 2.17236H138.947C138.9 3.21684 138.157 3.82032 137.113 3.82032C136.092 3.84353 135.302 3.21684 135.279 2.17236Z" fill="#2F3B43"/>
<path d="M150.892 10.4816V13.4757H149.685V11.5725H144.068V4.56287H145.415V10.4816H148.594V4.56287H149.941V10.4816H150.892Z" fill="#2F3B43"/>
<path d="M153.333 5.65376V7.44098H156.791V8.43903H153.333V10.4816H156.977V11.5725H152.01V4.56287H157V5.65376H153.333Z" fill="#2F3B43"/>
<path d="M164.494 4.56287V11.5725H163.148V8.46224H159.806V11.5725H158.46V4.56287H159.806V7.37134H163.148V4.56287H164.494Z" fill="#2F3B43"/>
<path d="M171.206 5.65376H169.07V11.5725H167.724V5.65376H165.589V4.56287H171.206V5.65376Z" fill="#2F3B43"/>
<path d="M178.01 6.79108C178.01 8.18371 177.128 9.01929 174.992 9.01929H173.646V11.5725H172.3V4.56287H174.992C177.104 4.56287 178.01 5.23597 178.01 6.79108ZM176.64 6.76787C176.64 5.97871 176.153 5.60734 174.969 5.60734H173.623V7.97482H174.969C176.153 7.97482 176.64 7.55703 176.64 6.76787Z" fill="#2F3B43"/>
<path d="M53.201 17.3522H49.8819V23.2709H48.5356V16.2614H53.1778V17.3522H53.201Z" fill="#2F3B43"/>
<path d="M53.7786 19.7662C53.7786 17.5379 55.0784 16.0989 57.2137 16.0989C59.3491 16.0989 60.6489 17.5147 60.6489 19.7662C60.6489 21.9712 59.3491 23.4102 57.2137 23.4102C55.0784 23.4102 53.7786 21.9944 53.7786 19.7662ZM59.2098 19.7662C59.2098 18.1414 58.4207 17.213 57.2137 17.213C55.9836 17.213 55.1944 18.1646 55.1944 19.7662C55.1944 21.3677 55.9604 22.2961 57.2137 22.2961C58.4439 22.2961 59.2098 21.3909 59.2098 19.7662Z" fill="#2F3B43"/>
<path d="M61.6071 19.7888C61.6071 17.5606 62.8836 16.1216 64.9958 16.1216C66.6205 16.1216 67.6882 16.9804 68.1292 18.373L66.8062 18.7444C66.5045 17.7695 65.8778 17.2357 64.9726 17.2357C63.7656 17.2357 63.0229 18.1873 63.0229 19.7888C63.0229 21.3672 63.7656 22.3188 64.9726 22.3188C65.8546 22.3188 66.5045 21.7618 66.8062 20.8101L68.1292 21.1815C67.665 22.5741 66.6205 23.4329 64.9958 23.4329C62.8836 23.4097 61.6071 21.9939 61.6071 19.7888Z" fill="#2F3B43"/>
<path d="M69.3774 23.2936V22.2027C69.7488 22.2723 70.0505 22.2723 70.1433 22.2723C70.6772 22.2723 71.1182 22.017 71.1182 21.3903C71.1182 21.1582 71.0253 20.8797 70.8629 20.5779L68.6115 16.2375H70.0505L72.0002 20.2762L73.8106 16.2375H75.2265L72.7894 21.2975C72.1162 22.6901 71.5592 23.3864 70.213 23.3864C69.9809 23.3864 69.6559 23.3864 69.3774 23.2936Z" fill="#2F3B43"/>
<path d="M82.2415 22.18V24.826H81.081V23.2942H76.0907V24.826H74.9302V22.18H75.6265C76.2996 21.0659 76.4853 19.975 76.6013 18.652L76.7638 16.2614H81.3363V22.18H82.2415ZM77.9011 18.6288C77.8083 19.9054 77.5994 21.1356 77.0888 22.1568H80.0365V17.329H77.9708L77.9011 18.6288Z" fill="#2F3B43"/>
<path d="M87.627 21.5301H84.656L84.0525 23.2709H82.6599L85.3523 16.2614H86.9771L89.6695 23.2709H88.2769L87.627 21.5301ZM87.2788 20.5089L86.304 17.7004L86.1647 17.2362L86.0254 17.6772L85.0274 20.5089H87.2788Z" fill="#2F3B43"/>
<path d="M96.325 18.4896C96.325 19.8822 95.443 20.7178 93.3077 20.7178H91.9614V23.2709H90.6152V16.2614H93.3077C95.443 16.2614 96.325 16.9345 96.325 18.4896ZM94.9788 18.4664C94.9788 17.6772 94.4914 17.3058 93.3077 17.3058H91.9614V19.6733H93.3077C94.4682 19.6733 94.9788 19.2555 94.9788 18.4664Z" fill="#2F3B43"/>
<path d="M97.1382 19.7888C97.1382 17.5606 98.4148 16.1216 100.527 16.1216C102.152 16.1216 103.219 16.9804 103.66 18.373L102.337 18.7444C102.036 17.7695 101.409 17.2357 100.504 17.2357C99.2968 17.2357 98.554 18.1873 98.554 19.7888C98.554 21.3672 99.2968 22.3188 100.504 22.3188C101.386 22.3188 102.036 21.7618 102.337 20.8101L103.66 21.1815C103.196 22.5741 102.152 23.4329 100.527 23.4329C98.4148 23.4097 97.1382 21.9939 97.1382 19.7888Z" fill="#2F3B43"/>
<path d="M109.791 17.3522H107.656V23.2709H106.31V17.3522H104.174V16.2614H109.791V17.3522Z" fill="#2F3B43"/>
<path d="M116.734 21.3677C116.734 22.621 115.783 23.2709 113.717 23.2709H110.885V16.2614H113.624C115.62 16.2614 116.456 16.8648 116.456 18.095C116.456 18.9074 116.015 19.4644 115.017 19.6269C116.038 19.7429 116.734 20.3696 116.734 21.3677ZM112.208 17.2362V19.1627H113.647C114.692 19.1627 115.202 18.8145 115.202 18.211C115.202 17.5611 114.715 17.2362 113.601 17.2362H112.208ZM115.365 21.2052C115.365 20.4625 114.808 20.0911 113.624 20.0911H112.185V22.2729H113.671C114.877 22.2729 115.365 21.8783 115.365 21.2052Z" fill="#2F3B43"/>
<path d="M119.373 17.3522V19.1395H122.831V20.1375H119.373V22.18H123.017V23.2709H118.026V16.2614H123.017V17.3522H119.373Z" fill="#2F3B43"/>
<path d="M130.537 16.2614V23.2709H129.19V20.1607H125.848V23.2709H124.502V16.2614H125.848V19.0698H129.19V16.2614H130.537Z" fill="#2F3B43"/>
<path d="M138.27 16.2614V23.2709H136.924V20.1607H133.581V23.2709H132.235V16.2614H133.581V19.0698H136.924V16.2614H138.27Z" fill="#2F3B43"/>
<path d="M139.614 19.7662C139.614 17.5379 140.914 16.0989 143.049 16.0989C145.185 16.0989 146.484 17.5147 146.484 19.7662C146.484 21.9712 145.185 23.4102 143.049 23.4102C140.914 23.4102 139.614 21.9944 139.614 19.7662ZM145.045 19.7662C145.045 18.1414 144.256 17.213 143.049 17.213C141.819 17.213 141.03 18.1646 141.03 19.7662C141.03 21.3677 141.796 22.2961 143.049 22.2961C144.279 22.2961 145.045 21.3909 145.045 19.7662Z" fill="#2F3B43"/>
<path d="M147.318 19.1631H150.684V20.0683H147.318V19.1631Z" fill="#2F3B43"/>
<path d="M157.344 16.2614V23.2942H155.997V20.3464C155.58 20.6017 154.999 20.8106 154.233 20.8106C152.771 20.8106 151.564 20.1143 151.564 18.4431V16.2846H152.91V18.3039C152.91 19.3251 153.444 19.6965 154.466 19.6965C155.231 19.6965 155.696 19.4644 155.997 19.1627V16.2614H157.344Z" fill="#2F3B43"/>
<path d="M163.31 21.5301H160.339L159.735 23.2709H158.343L161.035 16.2614H162.66L165.352 23.2709H163.96L163.31 21.5301ZM162.938 20.5089L161.964 17.7004L161.824 17.2362L161.685 17.6772L160.687 20.5089H162.938Z" fill="#2F3B43"/>
<path d="M165.626 19.7888C165.626 17.5606 166.903 16.1216 169.015 16.1216C170.64 16.1216 171.708 16.9804 172.149 18.373L170.826 18.7444C170.524 17.7695 169.897 17.2357 168.992 17.2357C167.785 17.2357 167.042 18.1873 167.042 19.7888C167.042 21.3672 167.785 22.3188 168.992 22.3188C169.874 22.3188 170.524 21.7618 170.826 20.8101L172.149 21.1815C171.684 22.5741 170.64 23.4329 169.015 23.4329C166.903 23.4097 165.626 21.9939 165.626 19.7888Z" fill="#2F3B43"/>
<path d="M178.285 17.3522H176.15V23.2709H174.804V17.3522H172.668V16.2614H178.285V17.3522Z" fill="#2F3B43"/>
<path d="M185.389 16.2614V23.2709H184.042V20.1607H180.7V23.2709H179.354V16.2614H180.7V19.0698H184.042V16.2614H185.389Z" fill="#2F3B43"/>
<path d="M186.731 19.7662C186.731 17.5379 188.031 16.0989 190.166 16.0989C192.301 16.0989 193.601 17.5147 193.601 19.7662C193.601 21.9712 192.301 23.4102 190.166 23.4102C188.031 23.4102 186.731 21.9944 186.731 19.7662ZM192.162 19.7662C192.162 18.1414 191.373 17.213 190.166 17.213C188.936 17.213 188.147 18.1646 188.147 19.7662C188.147 21.3677 188.913 22.2961 190.166 22.2961C191.396 22.2961 192.162 21.3909 192.162 19.7662Z" fill="#2F3B43"/>
<path d="M199.591 17.3522H196.272V23.2709H194.926V16.2614H199.568V17.3522H199.591Z" fill="#2F3B43"/>
<path d="M200.167 19.7662C200.167 17.5379 201.467 16.0989 203.602 16.0989C205.737 16.0989 207.037 17.5147 207.037 19.7662C207.037 21.9712 205.737 23.4102 203.602 23.4102C201.467 23.4102 200.167 21.9944 200.167 19.7662ZM205.598 19.7662C205.598 18.1414 204.809 17.213 203.602 17.213C202.372 17.213 201.583 18.1646 201.583 19.7662C201.583 21.3677 202.349 22.2961 203.602 22.2961C204.832 22.2961 205.598 21.3909 205.598 19.7662Z" fill="#2F3B43"/>
<path d="M54.5704 34.9703H53.2242V29.0516H49.8819V34.9703H48.5356V27.9607H54.5704V34.9703Z" fill="#2F3B43"/>
<path d="M60.5321 33.2295H57.538L56.9345 34.9703H55.5419L58.2343 27.9607H59.859L62.5515 34.9703H61.1588L60.5321 33.2295ZM60.1608 32.2082L59.1859 29.3998L59.0467 28.9355L58.9074 29.3765L57.9094 32.2082H60.1608Z" fill="#2F3B43"/>
<path d="M69.2349 30.1889C69.2349 31.5815 68.3529 32.4171 66.2176 32.4171H64.8714V34.9703H63.5251V27.9607H66.2176C68.3297 27.9607 69.2349 28.6338 69.2349 30.1889ZM67.8655 30.1657C67.8655 29.3765 67.3781 29.0052 66.1944 29.0052H64.8482V31.3726H66.1944C67.3781 31.3726 67.8655 30.9549 67.8655 30.1657Z" fill="#2F3B43"/>
<path d="M75.4569 29.0516H73.3216V34.9703H71.9753V29.0516H69.84V27.9607H75.4569V29.0516Z" fill="#2F3B43"/>
<path d="M82.5621 27.9607V34.9703H81.2159V31.8601H77.8736V34.9703H76.5273V27.9607H77.8736V30.7692H81.2159V27.9607H82.5621Z" fill="#2F3B43"/>
<path d="M85.6268 29.0516V30.8388H89.0852V31.8369H85.6268V33.8794H89.2709V34.9703H84.2806V27.9607H89.2709V29.0516H85.6268Z" fill="#2F3B43"/>
<path d="M96.4679 30.1889C96.4679 31.5815 95.5859 32.4171 93.4505 32.4171H92.1043V34.9703H90.7581V27.9607H93.4505C95.5627 27.9607 96.4679 28.6338 96.4679 30.1889ZM95.0984 30.1657C95.0984 29.3765 94.611 29.0052 93.4273 29.0052H92.0811V31.3726H93.4273C94.611 31.3726 95.0984 30.9549 95.0984 30.1657Z" fill="#2F3B43"/>
<path d="M97.2551 31.4862C97.2551 29.258 98.5317 27.819 100.644 27.819C102.269 27.819 103.336 28.6778 103.777 30.0704L102.454 30.4418C102.153 29.4669 101.526 28.9331 100.621 28.9331C99.4137 28.9331 98.671 29.8847 98.671 31.4862C98.671 33.0646 99.4137 34.0162 100.621 34.0162C101.503 34.0162 102.153 33.4591 102.454 32.5075L103.777 32.8789C103.313 34.2715 102.269 35.1303 100.644 35.1303C98.5549 35.1071 97.2551 33.6912 97.2551 31.4862Z" fill="#2F3B43"/>
<path d="M109.926 29.0516H107.791V34.9703H106.444V29.0516H104.309V27.9607H109.926V29.0516Z" fill="#2F3B43"/>
<path d="M116.869 33.067C116.869 34.3204 115.918 34.9703 113.852 34.9703H111.02V27.9607H113.759C115.755 27.9607 116.591 28.5642 116.591 29.7943C116.591 30.6067 116.15 31.1638 115.152 31.3262C116.173 31.4423 116.869 32.069 116.869 33.067ZM112.32 28.9355V30.862H113.759C114.803 30.862 115.314 30.5139 115.314 29.9104C115.314 29.2605 114.827 28.9355 113.713 28.9355H112.32ZM115.5 32.9045C115.5 32.1618 114.943 31.7904 113.759 31.7904H112.32V33.9722H113.805C114.989 33.9722 115.5 33.5776 115.5 32.9045Z" fill="#2F3B43"/>
<path d="M122.391 33.2295H119.42L118.817 34.9703H117.424L120.116 27.9607H121.741L124.434 34.9703H123.041L122.391 33.2295ZM122.02 32.2082L121.045 29.3998L120.906 28.9355L120.766 29.3765L119.768 32.2082H122.02Z" fill="#2F3B43"/>
</svg>
