<svg width="255" height="115" viewBox="0 0 255 115" fill="none" xmlns="http://www.w3.org/2000/svg">
<path d="M2.13843 46.9928L2.1496 45.633L3.31799 46.3237L2.13843 46.9928Z" fill="#E32026"/>
<path d="M9.14575 35.3637L8.94737 35.1858L9.0958 35.1016L9.14575 35.3637Z" fill="#E32026"/>
<path d="M9.54787 58.7098L7.524 57.5381L9.58848 56.3671L9.54787 58.7098Z" fill="#E32026"/>
<path d="M10.281 82.6421L5.49245 79.8477L10.2844 77.1296L10.281 82.6421Z" fill="#E32026"/>
<path d="M15.9934 82.6802L16.0795 77.3144L20.7115 80.004L15.9934 82.6802Z" fill="#E32026"/>
<path d="M0.500977 71.7039L0.587044 66.3381L5.21903 69.0277L0.500977 71.7039Z" fill="#E32026"/>
<path d="M0.0275879 94.5579L0.13936 87.3406L6.29389 91.0035L0.0275879 94.5579Z" fill="#E32026"/>
<path d="M30.0024 94.8623L23.6594 91.21L30.1465 87.5303L30.0024 94.8623Z" fill="#E32026"/>
<path d="M11.0968 106.721L3.27259 102.169L11.2343 97.6527L11.0968 106.721Z" fill="#E32026"/>
<path d="M14.5823 106.953L14.7432 97.5816L22.7652 102.312L14.5823 106.953Z" fill="#E32026"/>
<path d="M35.6223 95.0341L35.7252 87.6286L42.1097 91.3543L35.6223 95.0341Z" fill="#E32026"/>
<path d="M67.0717 47.0238L66.8004 46.8878L67.0952 46.7206L67.0717 47.0238Z" fill="#E32026"/>
<path d="M-1.30981 118.79L-1.18797 107.797L8.34748 113.312L-1.30981 118.79Z" fill="#E32026"/>
<path d="M30.9426 119.161L21.2509 113.541L31.1292 107.938L30.9426 119.161Z" fill="#E32026"/>
<path d="M34.2522 119.381L34.3886 107.896L44.2782 113.694L34.2522 119.381Z" fill="#E32026"/>
<path d="M49.8483 107.302L41.7112 102.541L49.9679 97.8573L49.8483 107.302Z" fill="#E32026"/>
<path d="M79.8184 47.0883L79.8099 46.9006L79.9659 47.0045L79.8184 47.0883Z" fill="#E32026"/>
<path d="M17.3511 131.029L17.5724 118.142L28.6302 124.631L17.3511 131.029Z" fill="#E32026"/>
<path d="M55.4309 107.19L55.4533 98.0897L63.3193 102.716L55.4309 107.19Z" fill="#E32026"/>
<path d="M68.5381 94.8884L62.6641 91.55L68.6353 88.163L68.5381 94.8884Z" fill="#E32026"/>
<path d="M69.4871 119.376L60.0667 113.892L69.6503 108.456L69.4871 119.376Z" fill="#E32026"/>
<path d="M75.6748 94.7686L75.7575 88.5344L81.0566 91.7159L75.6748 94.7686Z" fill="#E32026"/>
<path d="M74.2307 119.157L74.3794 108.729L83.3719 113.972L74.2307 119.157Z" fill="#E32026"/>
<path d="M88.0937 106.816L81.2814 102.849L88.2111 98.9187L88.0937 106.816Z" fill="#E32026"/>
<path d="M94.6545 106.537L94.7339 99.4352L100.847 103.025L94.6545 106.537Z" fill="#E32026"/>
<path d="M106.668 94.3702L102.423 91.8481L106.772 89.3809L106.668 94.3702Z" fill="#E32026"/>
<path d="M125.039 58.7573L124.727 58.5488L125.022 58.3811L125.039 58.7573Z" fill="#E32026"/>
<path d="M107.526 118.523L100.129 114.211L107.649 109.946L107.526 118.523Z" fill="#E32026"/>
<path d="M116.866 94.2314L116.841 89.7021L120.774 92.0151L116.866 94.2314Z" fill="#E32026"/>
<path d="M115.773 118.035L115.834 110.556L122.334 114.313L115.773 118.035Z" fill="#E32026"/>
<path d="M126.1 106.078L121.27 103.21L126.21 100.408L126.1 106.078Z" fill="#E32026"/>
<path d="M144.305 70.1711L143.763 69.8995L144.353 69.5648L144.305 70.1711Z" fill="#E32026"/>
<path d="M136.017 105.614L136.139 101.001L140.072 103.314L136.017 105.614Z" fill="#E32026"/>
<path d="M157.042 70.0474L157.001 69.9744L157.115 70.006L157.042 70.0474Z" fill="#E32026"/>
<path d="M145.192 117.01L140.946 114.488L145.222 112.062L145.192 117.01Z" fill="#E32026"/>
<path d="M155.74 116.286L155.736 113.001L158.542 114.696L155.74 116.286Z" fill="#E32026"/>
<path d="M182.619 115.245L182.035 114.9L182.699 114.524L182.619 115.245Z" fill="#E32026"/>
</svg>
