<svg width="38" height="39" viewBox="0 0 38 39" fill="none" xmlns="http://www.w3.org/2000/svg">
<path d="M12.3957 38.4621L9.33167 34.0021L6.89853 32.8425L4.64556 30.2557L0.590332 21.3357L0.770501 14.9133L5.09619 6.70695L9.33167 2.87133L13.6573 1.17663L19.1544 0.641382L22.7591 0.909005L25.8231 1.801L28.6168 3.76341L32.2214 6.70695L34.4743 10.1857L35.6459 12.7725L36.3668 16.5189L36.1866 20.2653L34.925 24.8145L33.5732 27.5797L32.2214 30.5233L30.9598 31.6829L29.4278 33.0209L27.8958 33.7346L27.3551 34.4482L26.544 35.6077L25.5528 37.4809L21.9481 35.7861L18.4335 35.6077L14.8288 36.2321L12.3957 38.4621Z" fill="white"/>
<path d="M15.8922 33.998C15.5497 36.2422 11.7001 35.2603 10.9856 37.4812C10.7081 36.9728 10.0823 36.324 9.96416 35.7746C9.82836 33.3609 16.2405 31.7479 15.8922 33.998Z" fill="url(#paint0_linear)"/>
<path d="M14.0856 31.2692C12.6567 30.8776 6.64597 30.7549 6.49836 33.1686C6.10276 32.818 5.52412 32.4556 5.32336 31.9822C5.7662 29.0483 12.7571 30.527 14.5816 31.1816C14.4634 31.1816 14.2036 31.2342 14.0856 31.2692Z" fill="url(#paint1_linear)"/>
<path d="M22.0773 33.7483C22.0124 31.6151 27.8755 33.1288 27.1846 35.7763C26.9839 36.1679 26.6001 36.7931 26.4052 37.1847C25.9801 35.0048 22.1423 35.8756 22.0773 33.7483Z" fill="url(#paint2_linear)"/>
<path d="M30.3436 33.3454C30.3436 31.7673 29.2985 31.4225 27.7635 31.142C26.2224 30.9432 24.569 30.5984 23.0634 31.0251C22.8568 31.0251 22.7269 31.0427 22.7269 30.9375L23.3291 30.6803C24.7403 30.1894 31.4596 29.0264 31.6367 31.6037C31.5541 32.2583 30.7688 32.8603 30.3436 33.3454Z" fill="url(#paint3_linear)"/>
<path fill-rule="evenodd" clip-rule="evenodd" d="M17.3447 23.1573C19.141 22.8253 21.1368 23.2339 22.9369 24.659L22.5875 24.7057H22.5876L16.9436 25.4611L16.7004 25.3442L16.5606 25.5124L14.75 25.7546L14.5315 25.4553L14.1994 25.7077L14.095 25.8423L12.7996 26.0156C13.877 24.5825 15.5484 23.4892 17.3447 23.1573Z" fill="#FFF200"/>
<path fill-rule="evenodd" clip-rule="evenodd" d="M32.718 30.1196C32.4949 29.7878 32.2827 29.6471 31.9343 29.417C32.3387 29.0168 32.3887 28.212 32.3887 27.6966C34.4055 26.2748 32.5405 25.2442 32.1961 26.2068C31.7934 25.6789 31.8781 24.8028 32.5674 24.6089C32.2504 24.0057 32.7185 23.3605 33.51 23.4171C33.0749 23.9989 33.6825 24.6292 34.3067 24.397C34.931 24.1648 34.7631 22.5343 34.4457 21.9584C34.8803 21.489 35.3167 21.0318 35.1586 20.2104C35.0795 19.9758 35.1007 19.6665 34.6478 19.5989C34.1949 19.5313 33.7986 19.8967 33.953 20.3549C33.0779 20.0539 33.2862 19.2023 33.6264 18.772C33.2335 18.4105 33.4721 17.2659 34.0864 17.459C34.0864 18.4852 35.0436 18.5943 35.2986 17.6597C35.2986 16.7991 34.8995 16.4716 34.3486 15.8859C34.5857 15.4556 34.8931 14.89 34.7745 14.3034C34.6624 13.5544 33.2774 13.2717 33.478 14.4863C32.9028 14.6133 32.4511 13.8317 32.7299 13.2013C32.5463 13.2874 31.879 12.1282 32.795 11.6962C32.6948 12.3903 33.5576 12.4373 33.8738 11.8113C34.1109 11.3811 33.9112 10.9418 33.6345 10.629C33.3184 10.1986 32.8129 9.94562 32.3388 9.71095C32.4574 8.85037 32.5034 8.02566 31.8713 7.63465C30.846 7.32758 30.3816 8.27461 31.2895 8.78819C31.2501 8.90548 30.7788 9.16815 30.6208 9.12903C30.1467 9.05078 29.7219 8.33371 29.6283 8.03694C29.5382 7.75154 28.0559 7.48717 28.7388 6.36635C29.2279 6.67821 29.6827 6.73064 29.8177 5.96576C29.9528 5.20079 28.6979 5.05599 28.0836 4.98845C27.886 4.30588 27.5427 3.60228 26.7526 3.35129C26.2783 3.31209 26.0644 3.57793 25.8667 3.89076C25.752 4.45872 26.0249 4.50402 26.42 4.69948C25.8009 5.62297 25.0208 4.69364 24.8244 4.43039C24.2827 4.45921 23.3431 4.54752 23.4827 3.44659C24.3221 3.71835 24.7857 2.68618 23.993 2.26611C23.3608 1.9532 22.7227 2.32528 22.1299 2.48178C21.6162 1.93412 21.0226 1.31721 19.9952 1.55196C19.2213 1.89386 19.4386 3.01784 20.2787 2.85112C20.2234 3.58726 19.3354 3.67176 18.75 3.2409C18.3442 3.64262 17.1452 3.6634 17.2221 2.82092C17.9125 2.82425 18.1807 1.78192 17.5369 1.67299C16.8931 1.56414 16.1084 2.11635 15.7824 2.66961C15.2686 2.39582 14.5815 2.13875 13.8701 2.25597C13.554 2.37334 13.2059 2.68845 13.3153 3.19025C13.4248 3.69205 13.8589 3.44529 14.1353 3.44805C14.2591 4.3062 13.4832 4.44209 12.8418 4.39899C12.569 5.30868 11.6382 5.16184 11.3357 4.70825C11.7937 4.63268 12.1278 4.28997 11.9097 3.85781C11.7515 3.58401 11.64 3.475 11.3239 3.475C10.4986 3.53758 10.0563 4.34427 9.95636 5.03951C9.1659 4.92214 8.12384 4.9145 7.68913 5.50121C7.04242 6.15538 8.04249 7.05184 8.74832 6.27844C9.4216 7.41354 8.3442 7.51135 7.86183 7.66867C7.79409 8.40912 7.26187 9.31905 6.47264 8.56407C7.26441 7.92622 6.26967 7.09478 5.65569 7.68295C5.0417 8.2712 5.1511 8.97764 5.14692 9.56435C4.57369 9.72102 3.91059 9.99886 3.5933 10.4269C3.19196 11.3544 4.21376 12.2214 4.75329 11.1527C5.45034 11.4642 4.78174 12.7315 4.42682 12.7333C4.63282 13.219 4.5978 14.3536 3.61167 14.1705C4.02031 13.1077 2.63309 12.4858 2.30613 13.6316C2.06913 14.2966 2.2684 14.9797 2.58454 15.4491C1.98515 15.9941 1.36059 16.7103 1.61981 17.6282C1.73831 17.7455 1.99442 17.9134 2.15244 17.9916C2.7 18.1163 2.8577 17.3824 2.90715 17.0162C4.04696 17.5548 3.17983 18.4671 3.33375 18.7144C3.68572 19.1209 3.72648 20.1784 3.0564 20.3442C3.01704 20.0703 2.97333 19.6225 2.54247 19.5625C2.11161 19.5025 1.61858 19.8371 1.78907 20.4835C1.95957 21.1298 2.07347 21.1195 2.56477 21.5607C2.42052 22.0368 2.09037 22.4744 2.21256 23.2606C2.48916 23.5344 2.53066 23.8826 3.1234 23.7261C3.37467 23.6093 3.61922 23.474 3.48399 22.8159C3.80012 22.7768 4.20179 23.199 4.32029 23.4337C4.47832 23.7466 4.33128 23.9541 4.74164 24.3559C4.97872 24.5514 5.13839 24.8472 5.13839 25.1993C5.13839 25.3557 5.04351 25.6814 5.00398 25.7988C4.71269 25.6568 4.30709 25.2605 3.8139 25.7834C3.32071 26.3063 4.29479 27.4957 5.14798 27.5096C5.0294 28.0964 5.24155 28.8148 5.39975 29.3625C5.09739 29.542 4.49128 29.7179 4.36868 30.0821C2.69541 27.7516 1.57094 26.3803 0.617936 22.4767C-0.600355 17.4868 0.566846 12.5948 3.12759 8.52535C6.60984 2.99122 13.3756 -0.433748 20.4093 0.226992C30.9684 1.32687 38.1127 10.2354 36.8656 20.6195C36.4565 23.6909 34.9458 27.7832 32.718 30.1196Z" fill="#FBBD09"/>
<path fill-rule="evenodd" clip-rule="evenodd" d="M31.7321 5.22875C36.9879 10.2746 38.7266 18.6452 35.8418 25.3729C35.1305 27.0939 34.1822 28.6193 32.9966 30.1057C32.9176 30.1449 32.8781 30.3013 32.7991 30.3013C32.7595 30.1838 32.7201 30.1057 32.6805 29.9884C32.7991 29.871 32.9176 29.7145 33.0361 29.5973C34.9725 27.0939 36.3161 24.1602 36.7903 20.6008C37.462 15.0075 35.6443 10.5092 32.8781 6.94976C30.7836 4.25096 27.82 2.45162 24.5795 1.23908C23.2754 0.808785 21.8924 0.495867 20.3907 0.339446C18.5335 0.182948 16.3996 0.30032 14.7399 0.691489C10.4325 1.70841 6.87593 3.97708 4.26787 7.26284C3.7541 8.00589 3.16135 8.70997 2.72672 9.49231C0.79038 12.8954 -0.434635 17.7847 0.750852 22.4392C1.22501 24.7861 2.25239 26.8201 3.47757 28.6976C3.7541 29.1278 4.10976 29.519 4.4259 29.9884C4.32462 30.0887 4.3083 30.2221 4.22834 30.3013C4.1948 30.089 3.24467 28.9827 3.08238 28.6976C1.22502 25.7249 0 22.361 0 18.6452C0 12.7389 2.84522 7.38014 6.87593 4.17263C10.2744 1.35637 15.0955 -0.364636 20.3116 0.0656571C24.7376 0.456743 28.5707 2.2952 31.7321 5.22875Z" fill="#E08517"/>
<path fill-rule="evenodd" clip-rule="evenodd" d="M32.0694 29.3966C31.9903 29.3577 31.9131 29.3593 31.8339 29.3202C32.1571 28.6809 32.1381 28.304 32.2061 27.5632C32.6407 27.3286 33.2722 27.0888 33.2163 26.3898C33.1606 25.6908 32.3762 25.8101 32.2978 26.4576C31.9896 26.335 31.4383 25.1841 32.3516 24.5457C32.2048 23.6704 33.1108 22.9934 33.7151 23.3491C33.3916 23.6127 33.4331 24.387 34.1924 24.2878C34.9516 24.1883 34.6488 22.3435 34.2319 21.8788C34.5226 21.5729 35.2097 21.2805 34.9723 20.0923C34.8099 19.2806 33.7777 19.7292 34.1148 20.4476C33.1546 20.3858 32.9825 19.151 33.4855 18.8432C32.8823 17.7365 33.8874 17.0406 34.3146 17.2554C34.0429 18.14 34.8245 18.4348 35.1149 17.7932C35.4054 17.1516 34.6386 16.2299 34.1424 15.9462C34.4018 15.4973 34.8387 14.732 34.571 14.1949C34.3032 13.6578 33.3063 13.6684 33.7219 14.6092C32.8023 14.7292 32.4302 13.8563 32.5491 13.3072C32.0404 12.7669 32.0603 11.6974 32.9465 11.432C32.7841 12.036 33.5888 12.4461 33.8166 11.5921C34.0442 10.7381 32.5676 9.93552 32.1665 9.84437C32.1367 9.5321 32.4769 7.94348 31.7285 7.71433C30.98 7.4851 30.6406 8.43733 31.5343 8.63986C31.1433 9.82805 29.519 9.11236 29.519 8.10493C28.1875 7.94015 28.1308 6.27711 28.8472 6.01111C28.8472 6.67128 29.7567 6.61462 29.7651 5.87839C29.7733 5.14224 28.3863 5.1075 27.8987 5.2679C27.8636 4.47623 27.4808 3.78139 26.7481 3.57311C26.0155 3.36498 25.5389 4.46876 26.6529 4.53004C26.3051 5.39071 25.4066 5.37228 24.7791 4.61909C23.9745 4.66179 23.0828 4.21445 23.4655 3.19615C23.9459 3.66694 24.5854 3.10247 24.2654 2.61504C23.9454 2.12768 22.5681 2.3953 22.0919 2.70984C21.7692 2.18645 20.664 1.45988 20.0432 1.73286C19.4226 2.00576 19.7055 3.03729 20.3238 2.58321C20.7186 3.4908 19.6597 3.88887 18.7695 3.4218C18.2431 3.74876 16.8766 3.6999 17.1022 2.54604C17.9065 2.96302 18.1985 1.57653 17.0719 1.77264C16.6143 1.85227 16.2258 2.36763 15.8306 2.91521C15.4075 2.67454 14.163 1.95049 13.548 2.67925C13.2161 3.07244 13.6596 3.69284 14.196 3.17796C14.632 3.89625 13.8667 4.7018 12.946 4.55675C12.7564 5.27902 11.44 5.55062 11.166 4.58621C12.2067 4.50431 11.8655 3.55557 11.2606 3.62571C10.6557 3.69592 10.1249 4.51462 10.0542 5.26855C9.50087 5.11399 8.80743 5.16026 8.23026 5.29866C7.65318 5.43697 7.46473 6.12467 7.84369 6.37192C8.22272 6.61916 8.55895 6.2892 8.67728 6.0176C9.02516 6.16468 9.16941 6.71008 9.07395 7.10636C8.9771 7.50881 8.46571 7.69372 8.06125 7.77132C8.02172 8.16248 7.79333 8.69944 7.46301 8.88905C7.13269 9.07867 6.62343 9.01511 6.30229 8.57484C6.64048 8.38287 6.85665 7.76531 6.38593 7.64502C5.91522 7.52472 5.68584 7.75979 5.50895 8.10794C5.33207 8.45608 5.15419 9.2178 5.33453 9.71936C4.92794 9.69785 3.98101 10.0528 3.77673 10.4841C3.57245 10.9154 3.71243 11.4069 4.09918 11.5056C4.486 11.6043 4.5995 11.0919 4.63895 10.8572C5.43334 11.2787 5.32305 12.116 4.6232 12.7779C4.82198 13.452 4.52118 14.6053 3.41918 14.3035C3.57835 13.978 3.67127 13.2147 3.08804 13.2104C2.50489 13.206 2.43846 13.7725 2.41033 14.1861C2.3822 14.5997 2.62232 15.2762 2.84956 15.521C2.14488 15.8703 1.23206 17.2904 2.07591 17.7541C2.6926 18.0929 2.92607 17.1253 2.56836 16.9242C2.94411 16.8367 3.33471 16.974 3.54695 17.3507C3.75926 17.7274 3.54194 18.3658 3.44247 18.6047C3.53341 18.8162 3.76352 19.2422 3.73695 19.6048C3.71038 19.9675 3.42352 20.4316 2.93952 20.5616C3.05154 20.0573 2.60198 19.4833 2.13077 19.8C1.65948 20.1167 2.02761 21.0772 2.88449 21.4614C2.54778 21.9283 2.21647 22.6779 2.45355 23.1784C2.84767 24.0106 3.89022 23.4965 3.12166 22.6348C3.43771 22.5566 3.91409 22.6661 4.23801 22.9375C4.56194 23.209 4.63165 23.5536 4.63165 24.0621C5.27269 24.5542 5.58883 25.2674 4.94795 26.1421C4.84347 25.614 3.88055 25.1916 3.82454 26.2309C3.97748 27.2155 5.22907 27.2837 5.41366 27.3695C5.13697 27.9562 5.36569 28.6834 5.52372 29.2702C5.43531 29.3577 5.34584 29.3478 5.25555 29.3625C5.09744 28.8149 4.93934 28.15 5.058 27.5632C4.37464 27.508 3.37957 27.0755 3.54293 25.9835C3.64511 25.3001 4.61844 24.9931 4.95853 25.6931C5.2257 24.9432 4.86077 24.5546 4.31699 24.26C4.41121 23.8551 4.35282 23.1027 3.60919 22.9218C3.98429 24.0094 2.46749 24.3039 2.13717 23.1027C2.0035 22.6164 2.38712 21.6628 2.52883 21.5786C1.99595 21.3078 1.37131 20.4582 1.79897 19.7955C2.22664 19.1327 3.1028 19.3447 3.15348 20.1662C3.84602 19.6278 3.23401 18.7978 3.16701 18.6319C3.22884 18.452 3.77427 17.4545 2.96027 17.1506C3.03038 17.4782 2.84029 17.9685 2.5162 18.0416C1.93871 18.1718 1.42953 17.7603 1.49333 17.0366C1.54729 16.427 1.99923 15.8137 2.48857 15.4569C2.19096 14.9692 2.0837 14.4101 2.16825 13.8564C2.25288 13.3027 2.60592 12.974 3.05056 12.9596C3.49512 12.945 3.94697 13.2893 3.72367 14.1334C4.54989 14.0703 4.52225 13.0977 4.29936 12.676C4.50486 12.6352 5.28401 11.7957 4.77212 11.2451C4.68167 11.5631 4.48559 11.8213 4.00544 11.744C3.52538 11.6667 3.25664 10.8675 3.56761 10.3779C3.8785 9.88836 4.40309 9.65588 5.04168 9.48453C4.92269 8.89782 5.10007 8.27345 5.32592 7.88147C5.55176 7.48957 6.08554 7.24695 6.5889 7.48665C7.09234 7.72635 6.83968 8.42637 6.61449 8.60162C6.81934 8.79603 7.11046 8.8427 7.38707 8.64781C7.6636 8.45284 7.79161 7.99129 7.83106 7.56108C8.11611 7.51075 8.66925 7.42106 8.80595 7.09353C8.94257 6.76592 8.81981 6.44196 8.74846 6.36315C8.48383 6.83224 7.63424 6.77436 7.4685 6.36315C7.30269 5.95193 7.43857 5.53795 7.75889 5.2627C8.07929 4.98753 9.01654 4.84678 9.87909 4.97056C9.98619 4.36283 10.4873 3.43893 11.324 3.39039C12.1609 3.34201 12.4306 4.62404 11.4675 4.7518C12.073 5.35629 12.7273 4.67226 12.811 4.29895C13.2779 4.47972 14.178 4.11144 14.1275 3.48658C13.4903 3.88562 13.1412 3.24363 13.1917 2.90555C13.2421 2.56747 13.5074 2.31429 13.9786 2.15593C14.4497 1.99764 15.2463 2.31316 15.767 2.60813C16.0437 2.1388 16.5184 1.62182 16.9764 1.53651C18.4342 1.26474 18.2528 3.04338 17.2843 2.84402C17.3234 3.49762 18.3787 3.4567 18.7579 3.13323C19.3212 3.47115 20.1399 3.4951 20.1617 2.93217C19.2539 3.08478 19.1725 1.65031 20.0245 1.45201C20.8541 1.25882 21.655 1.79471 22.1687 2.3423C22.7478 2.10025 24.0017 1.86777 24.4394 2.43175C24.877 2.99581 24.3843 3.86565 23.5946 3.53114C23.4829 4.09927 24.3341 4.48134 24.8871 4.3371C25.1294 4.71487 25.7315 5.27333 26.3472 4.68914C25.3077 4.52176 25.779 3.15783 26.6797 3.2994C27.5805 3.44104 27.9382 4.17264 28.1358 4.91585C28.6426 4.89004 29.8201 4.89491 29.9954 5.72749C30.1707 6.56007 29.2942 7.04848 28.7494 6.43896C28.3274 7.4226 29.4251 7.96248 29.7955 7.86077C29.5737 8.48125 30.5835 9.43729 31.1854 8.78824C30.2063 8.18327 30.9628 7.12551 31.8504 7.4584C32.4827 7.84948 32.5617 8.78824 32.4432 9.64882C33.5678 10.2023 34.2117 11.0024 34.0201 11.6248C33.7017 12.6588 32.8058 12.4298 32.7427 11.7793C32.2091 12.2104 32.4648 13.0188 32.8383 13.13C32.6614 13.662 32.8527 14.3389 33.4312 14.3996C33.2293 13.3012 34.5765 13.4388 34.8164 14.1065C35.0564 14.774 34.7547 15.3184 34.5376 15.868C35.1222 16.4601 35.5575 17.1244 35.3892 17.8365C35.2208 18.5487 33.9329 18.6962 34.0239 17.5109C33.3975 17.624 33.4246 18.4767 33.8247 18.8343C33.4063 19.1265 33.2232 19.7822 33.8337 20.137C33.79 19.3049 34.969 19.103 35.1688 19.9758C35.3687 20.8487 35.1505 21.5297 34.6061 21.9228C34.9407 22.5616 35.1404 24.1143 34.3891 24.4627C33.6377 24.811 32.9622 23.9589 33.3849 23.4795C32.7163 23.5152 32.5083 24.1055 32.6199 24.6918C32.2894 24.7989 31.8093 25.242 32.2001 26.0329C32.5837 25.3067 33.4212 25.657 33.4706 26.3507C33.5201 27.0444 32.9964 27.485 32.4827 27.7588C32.456 28.2115 32.3791 28.9736 32.0694 29.3966Z" fill="#E08517"/>
<path fill-rule="evenodd" clip-rule="evenodd" d="M13.6334 11.3307C13.5149 11.4089 13.3964 11.6436 13.1988 11.5653C13.0407 10.8613 12.6851 10.2355 12.7246 9.49228C12.8431 9.21849 12.9616 9.64878 13.0407 9.76599C13.2777 10.2746 13.2383 10.9005 13.6334 11.3307Z" fill="#FFFFFA"/>
<path fill-rule="evenodd" clip-rule="evenodd" d="M16.4399 10.9396C16.1632 11.0178 16.3213 10.8223 16.3608 10.6658C16.6769 10.3528 16.4793 10.8223 16.4399 10.9396Z" fill="#FFFFFA"/>
<path fill-rule="evenodd" clip-rule="evenodd" d="M15.728 11.1352C15.5304 11.1742 15.5304 11.4481 15.3723 11.4872C15.3327 11.409 15.4117 11.3308 15.2932 11.3308C15.2932 11.2916 15.3327 11.2525 15.3327 11.2133C15.4908 11.1742 15.5698 11.0569 15.728 11.0178C15.7674 11.0569 15.728 11.096 15.728 11.1352Z" fill="#FFFFFA"/>
<path fill-rule="evenodd" clip-rule="evenodd" d="M16.5977 11.1741C16.5581 11.2915 16.3605 11.2132 16.242 11.2132C16.2024 11.1741 16.0839 11.1741 16.1629 11.0959C16.321 11.0959 16.5186 11.0959 16.5977 11.1741Z" fill="#FFFFFA"/>
<path fill-rule="evenodd" clip-rule="evenodd" d="M16.3209 11.4088C16.3209 11.4871 16.1628 11.4479 16.1233 11.5262C16.2023 11.6435 16.4 11.6435 16.3209 11.8782C16.3209 11.9564 16.0443 11.8782 16.1628 12.0347C16.1233 12.0738 15.8863 12.152 16.0443 12.2302C16.0443 12.3476 15.8467 12.152 15.7283 12.152C15.6096 12.152 15.5306 11.9564 15.5701 11.8391C15.6491 11.6827 15.6886 11.9955 15.8467 11.8782C15.8467 11.6827 15.8467 11.4479 16.0048 11.2914C16.1233 11.2523 16.2419 11.3697 16.3209 11.4088Z" fill="#FFFFFA"/>
<path fill-rule="evenodd" clip-rule="evenodd" d="M22.5246 15.6723C22.4215 15.6723 22.3536 15.642 22.2672 15.5821C22.3962 15.5821 22.4571 15.6723 22.5246 15.6723Z" fill="#FFFFFA"/>
<path fill-rule="evenodd" clip-rule="evenodd" d="M22.604 15.7114C22.7226 15.6723 22.8412 15.7114 22.8412 15.7896C22.7226 15.7504 22.604 15.7896 22.604 15.7114Z" fill="#FFFFFA"/>
<path fill-rule="evenodd" clip-rule="evenodd" d="M19.2445 16.2593C19.4816 16.6503 19.9558 16.6894 20.0743 17.1588C19.9162 17.2762 19.6397 17.3935 19.5605 17.6282C19.7186 17.6674 19.7978 17.4717 19.9558 17.5109H20.0743H20.1929C20.6275 17.8238 20.6671 18.4105 21.1808 18.6452C21.1808 19.1537 21.6945 19.3492 21.6945 19.8576C21.7736 20.0532 21.8525 20.2097 21.8525 20.3661C21.5365 20.6008 21.576 20.014 21.3388 19.9359C21.0622 19.7795 20.7066 19.623 20.4299 19.5056C20.588 18.6844 19.7978 18.6452 19.4816 18.0194C19.3234 17.8627 19.284 17.589 19.0468 17.4717C19.0073 17.4717 19.0468 17.4327 19.0468 17.4327C19.2445 17.4327 19.4421 17.3544 19.6397 17.3152C19.5605 17.1197 19.3234 17.0414 19.1654 16.885C18.9678 16.7677 18.8097 17.1979 18.5727 16.9242C18.4937 16.9633 18.4937 17.0023 18.4146 17.0414C18.3357 16.9633 18.2566 16.8067 18.2172 16.6894C18.2172 16.1809 18.8493 16.2982 19.0468 15.9853C19.2445 15.9462 19.126 16.1809 19.2445 16.2593Z" fill="#FFFFFA"/>
<path fill-rule="evenodd" clip-rule="evenodd" d="M21.2993 16.6893C21.3388 16.924 21.1412 16.6501 21.1017 16.6893C21.0227 16.6501 21.0227 16.5329 20.8647 16.5329C20.746 16.4545 20.588 16.3372 20.4695 16.2199C20.7855 16.1025 21.1808 16.3763 21.2993 16.6893Z" fill="#FFFFFA"/>
<path fill-rule="evenodd" clip-rule="evenodd" d="M30.2701 12.1129L30.3885 12.3476L26.7016 17.4454L26.6359 17.2708L30.2701 12.1129Z" fill="#FFF200"/>
<path fill-rule="evenodd" clip-rule="evenodd" d="M26.4936 17.0661L26.384 16.8693L30.0069 11.5903L30.129 11.8728L26.4936 17.0661Z" fill="#FFF200"/>
<path fill-rule="evenodd" clip-rule="evenodd" d="M30.6349 12.8486L26.8907 17.8018L26.8116 17.6454L30.5297 12.5869L30.6349 12.8486Z" fill="#FFF200"/>
<path fill-rule="evenodd" clip-rule="evenodd" d="M30.3483 14.7341L26.6466 19.4664L26.5952 19.2178L30.2568 14.4718L30.3483 14.7341Z" fill="#FFF200"/>
<path fill-rule="evenodd" clip-rule="evenodd" d="M30.6125 15.5417L26.805 20.0803L26.7795 19.8437L30.4812 15.2797L30.6125 15.5417Z" fill="#FFF200"/>
<path fill-rule="evenodd" clip-rule="evenodd" d="M30.797 16.3773L26.5683 21.1485L26.4369 20.9529L30.7183 16.1019L30.797 16.3773Z" fill="#FFF200"/>
<path fill-rule="evenodd" clip-rule="evenodd" d="M17.1106 16.8066C17.1502 17.0414 16.7945 16.7285 16.8735 17.0023C16.755 17.0023 16.7155 16.9241 16.7155 16.8459C16.7155 16.7285 16.8735 16.7285 16.9526 16.6894C17.0316 16.6502 17.1106 16.7676 17.1106 16.8066Z" fill="#FFFFFA"/>
<path fill-rule="evenodd" clip-rule="evenodd" d="M24.8962 18.4495C24.8566 18.5277 24.8172 18.5277 24.7776 18.5277C24.7382 18.5668 24.6986 18.5668 24.6986 18.6059C24.6591 18.6059 24.6197 18.645 24.5801 18.645C24.6197 18.645 24.6197 18.6059 24.6591 18.5668C24.6986 18.5668 24.7382 18.5277 24.7776 18.5277C24.8566 18.4495 24.8566 18.4495 24.8962 18.4495Z" fill="#FFFFFA"/>
<path fill-rule="evenodd" clip-rule="evenodd" d="M24.5007 18.6844C24.4614 18.7625 24.4218 18.7625 24.4218 18.7625V18.6844C24.4614 18.6844 24.5007 18.6452 24.5007 18.6844Z" fill="#FFFFFA"/>
<path fill-rule="evenodd" clip-rule="evenodd" d="M24.3827 18.7625C24.3431 18.8408 24.3035 18.8408 24.2642 18.8017C24.3431 18.7625 24.3431 18.7625 24.3827 18.7625Z" fill="#FFFFFA"/>
<path fill-rule="evenodd" clip-rule="evenodd" d="M15.3327 19.623C15.4908 19.7795 15.4512 20.014 15.4512 20.2097C15.1746 20.4835 15.4908 20.8745 15.3723 21.1875C15.0956 21.5396 15.0165 21.9307 14.977 22.361C14.9375 22.4001 14.8979 22.5566 14.7794 22.5174C14.6609 22.2827 14.7399 21.9698 14.6609 21.7352C14.4633 21.8133 14.5423 22.1263 14.3842 22.2437C14.3053 21.9698 14.0681 21.5786 13.7124 21.3832C13.5149 21.3049 13.1988 21.2266 13.1196 20.992H13.1592C13.3964 21.0702 13.6334 21.1484 13.9101 21.2266C14.0681 21.1875 14.5029 21.6961 14.3446 21.2266C14.2262 20.5616 13.5939 20.3661 13.0803 20.1315C12.9616 20.0532 12.8036 19.9359 12.764 19.7795C13.1592 19.975 13.7124 19.975 14.1076 20.2488C14.2657 20.0532 13.9891 19.8576 13.9891 19.662C13.9101 19.5447 13.831 19.5056 13.752 19.3882C13.7124 19.3882 13.6729 19.3882 13.6334 19.3492C13.6334 19.3492 13.5939 19.271 13.6334 19.271C13.7124 19.2319 13.7124 19.3492 13.7914 19.3492C13.831 19.3882 13.9101 19.4274 13.9496 19.4664C14.7399 19.5839 14.5423 20.5225 14.8979 21.0311C15.0956 20.6791 15.2536 20.327 15.0956 19.8967C14.8979 19.5839 14.7794 19.1927 14.6214 18.8799C14.9375 19.0754 15.0165 19.4274 15.3327 19.623Z" fill="#FFFFFA"/>
<path fill-rule="evenodd" clip-rule="evenodd" d="M25.9233 20.5224C25.8838 20.6399 25.8443 20.7572 25.7653 20.8355H25.7257C25.7257 20.7181 25.6863 20.6008 25.6863 20.4443C25.7653 20.4835 25.9233 20.4052 25.9233 20.5224Z" fill="#FFFFFA"/>
<path fill-rule="evenodd" clip-rule="evenodd" d="M25.5668 21.1093C25.5273 21.2266 25.5273 21.3049 25.4878 21.4222C25.4483 21.5396 25.3298 21.5786 25.2112 21.5786C25.2507 21.4222 25.4483 21.3049 25.5273 21.1093H25.5668Z" fill="#FFFFFA"/>
<path fill-rule="evenodd" clip-rule="evenodd" d="M17.6247 14.6162C17.4271 14.7335 17.3875 15.0465 17.0714 15.0855C16.9923 15.1246 16.953 15.3203 16.8343 15.2419C16.7949 15.0465 16.953 15.0465 16.953 14.8899C17.1505 14.8899 17.19 14.6944 17.269 14.5379C17.348 14.5379 17.7432 14.3424 17.6247 14.6162Z" fill="#FBBD0B"/>
<path fill-rule="evenodd" clip-rule="evenodd" d="M24.0274 18.3713C23.6718 18.4104 23.5533 18.8016 23.1976 18.8406C23 18.9971 22.6048 18.9188 22.3677 18.9188V18.8016C22.7629 18.8798 23.0394 18.7234 23.2766 18.6059C23.4347 18.3713 23.7113 18.2539 24.0274 18.2539C24.0669 18.3322 23.9879 18.293 24.0274 18.3713Z" fill="#FBBD0B"/>
<path fill-rule="evenodd" clip-rule="evenodd" d="M17.8125 4.87388L17.9744 12.6997H17.6977L17.5092 4.91577L17.8125 4.87388Z" fill="#FFF200"/>
<path fill-rule="evenodd" clip-rule="evenodd" d="M18.5071 4.89576L18.4935 13.3134L18.2564 13.3255L18.2172 4.87149L18.5071 4.89576Z" fill="#FFF200"/>
<path fill-rule="evenodd" clip-rule="evenodd" d="M19.3109 4.95312L19.0211 13.2883L18.7842 13.2995L19.0076 4.91562L19.3109 4.95312Z" fill="#FFF200"/>
<path fill-rule="evenodd" clip-rule="evenodd" d="M20.0485 5.07269L19.5081 13.2609L19.3105 13.2473L19.7983 4.99452L20.0485 5.07269Z" fill="#FFF200"/>
<path fill-rule="evenodd" clip-rule="evenodd" d="M13.146 6.38892L13.989 10.1179L13.7914 10.157L12.8826 6.48024L13.146 6.38892Z" fill="#FFF200"/>
<path fill-rule="evenodd" clip-rule="evenodd" d="M24.62 6.51948L23.1843 11.9952L22.9468 12.0224L24.3431 6.40219L24.62 6.51948Z" fill="#FFF200"/>
<path fill-rule="evenodd" clip-rule="evenodd" d="M16.1392 6.45164L16.4241 9.6744L16.1734 9.72676L15.823 6.48013L16.1392 6.45164Z" fill="#FFF200"/>
<path fill-rule="evenodd" clip-rule="evenodd" d="M21.3395 6.55867L20.5363 13.1299L20.299 13.118L21.0629 6.55867H21.3395Z" fill="#FFF200"/>
<path fill-rule="evenodd" clip-rule="evenodd" d="M15.3091 6.55849L15.7307 9.80496L15.4533 9.85683L14.9928 6.59753L15.3091 6.55849Z" fill="#FFF200"/>
<path fill-rule="evenodd" clip-rule="evenodd" d="M12.6448 7.37996L12.4471 7.41908L12.21 6.63675L12.4603 6.57084L12.6448 7.37996Z" fill="#FFF200"/>
<path fill-rule="evenodd" clip-rule="evenodd" d="M21.2607 12.6216L20.9836 12.6607L21.8139 6.63706L22.0906 6.67618L21.2607 12.6216Z" fill="#FFF200"/>
<path fill-rule="evenodd" clip-rule="evenodd" d="M23.776 11.8645L23.5544 11.8891L24.9613 6.60996L25.2268 6.78861L23.776 11.8645Z" fill="#FFF200"/>
<path fill-rule="evenodd" clip-rule="evenodd" d="M22.8014 6.91974L21.8136 12.3086L21.6025 12.3493L22.5377 6.89702L22.8014 6.91974Z" fill="#FFF200"/>
<path fill-rule="evenodd" clip-rule="evenodd" d="M12.0658 7.34493L11.8954 7.49721L11.6716 6.93607L11.8865 6.80855L12.0658 7.34493Z" fill="#FFF200"/>
<path fill-rule="evenodd" clip-rule="evenodd" d="M14.4635 6.88448L14.9769 9.88346L14.7003 10.0007L14.1602 6.94974L14.4635 6.88448Z" fill="#FFF200"/>
<path fill-rule="evenodd" clip-rule="evenodd" d="M25.8321 7.20811L24.3311 11.8005L24.1327 11.7883L25.5814 7.02686L25.8321 7.20811Z" fill="#FFF200"/>
<path fill-rule="evenodd" clip-rule="evenodd" d="M11.3797 7.12886L11.6051 7.80972L11.4078 7.93002L11.1298 7.30224L11.3797 7.12886Z" fill="#FFF200"/>
<path fill-rule="evenodd" clip-rule="evenodd" d="M26.3445 7.576L24.8559 11.8782L24.6979 11.8391L26.081 7.4583L26.3445 7.576Z" fill="#FFF200"/>
<path fill-rule="evenodd" clip-rule="evenodd" d="M11.5389 11.3688L11.4207 11.6574L10.5109 9.42787L10.7309 9.26496L11.5389 11.3688Z" fill="#FFF200"/>
<path fill-rule="evenodd" clip-rule="evenodd" d="M27.1225 9.7515L26.0417 12.0737L25.8438 11.9445L26.832 9.60945L27.1225 9.7515Z" fill="#FFF200"/>
<path fill-rule="evenodd" clip-rule="evenodd" d="M10.1108 9.82788L11.719 13.5352L11.5729 13.7394L9.87378 10.0235L10.1108 9.82788Z" fill="#FFF200"/>
<path fill-rule="evenodd" clip-rule="evenodd" d="M27.7013 10.1831L26.713 12.2303L26.4888 12.127L27.4773 9.98761L27.7013 10.1831Z" fill="#FFF200"/>
<path fill-rule="evenodd" clip-rule="evenodd" d="M28.2942 10.5874L27.3193 12.4649L27.1614 12.3476L28.0571 10.47L28.2942 10.5874Z" fill="#FFF200"/>
<path fill-rule="evenodd" clip-rule="evenodd" d="M12.6845 17.1466L12.4865 17.315L9.24609 10.7051L9.44414 10.404L12.6845 17.1466Z" fill="#FFF200"/>
<path fill-rule="evenodd" clip-rule="evenodd" d="M11.8144 17.5487L11.5773 17.5879L7.80151 11.4383L7.9953 11.1351L11.8144 17.5487Z" fill="#FFF200"/>
<path fill-rule="evenodd" clip-rule="evenodd" d="M29.836 11.3697L28.0183 14.0294L27.9248 13.8355L29.6384 11.2132L29.836 11.3697Z" fill="#FFF200"/>
<path fill-rule="evenodd" clip-rule="evenodd" d="M7.57271 11.7083L11.3009 17.7064L11.1033 17.8238L7.37573 11.9828L7.57271 11.7083Z" fill="#FFF200"/>
<path fill-rule="evenodd" clip-rule="evenodd" d="M10.8674 18.0191L10.6696 18.1491L6.96802 12.7769L7.12752 12.4639L10.8674 18.0191Z" fill="#FFF200"/>
<path fill-rule="evenodd" clip-rule="evenodd" d="M6.79729 13.1813L10.4331 18.3321L10.2356 18.4885L6.65295 13.4955L6.79729 13.1813Z" fill="#FFF200"/>
<path fill-rule="evenodd" clip-rule="evenodd" d="M13.5414 16.7506L13.357 16.8296L13.0547 15.9431L13.2545 15.8181L13.5414 16.7506Z" fill="#FFF200"/>
<path fill-rule="evenodd" clip-rule="evenodd" d="M12.7109 15.7986L13.1465 16.9342L12.9354 17.0265L12.4082 15.8798L12.7109 15.7986Z" fill="#FFF200"/>
<path fill-rule="evenodd" clip-rule="evenodd" d="M6.92819 16.0497L9.52362 19.0362L9.3396 19.1799L6.83643 16.3764L6.92819 16.0497Z" fill="#FFF200"/>
<path fill-rule="evenodd" clip-rule="evenodd" d="M9.16794 19.4789L9.02328 19.7012L6.62524 17.1979L6.69134 16.8842L9.16794 19.4789Z" fill="#FFF200"/>
<path fill-rule="evenodd" clip-rule="evenodd" d="M31.8485 17.3465L26.3834 22.3609L26.2256 22.2037L31.7623 17.0304L31.8485 17.3465Z" fill="#FFF200"/>
<path fill-rule="evenodd" clip-rule="evenodd" d="M31.9923 17.9797L26.6603 22.5835L26.5156 22.4415L31.9308 17.6537L31.9923 17.9797Z" fill="#FFF200"/>
<path fill-rule="evenodd" clip-rule="evenodd" d="M8.89085 19.975L8.79934 20.2101L6.47986 18.0188L6.49323 17.6661L8.89085 19.975Z" fill="#FFF200"/>
<path fill-rule="evenodd" clip-rule="evenodd" d="M32.0875 18.6228L26.9246 22.818L26.7788 22.6764L32.0426 18.29L32.0875 18.6228Z" fill="#FFF200"/>
<path fill-rule="evenodd" clip-rule="evenodd" d="M32.1674 19.2479L27.1864 23.0406L27.041 22.8849L32.1365 18.9198L32.1674 19.2479Z" fill="#FFF200"/>
<path fill-rule="evenodd" clip-rule="evenodd" d="M5.55712 18.8639L11.223 23.5606L11.1571 23.8088L5.50513 19.2304L5.55712 18.8639Z" fill="#FFF200"/>
<path fill-rule="evenodd" clip-rule="evenodd" d="M11.2759 24.2773L11.1837 24.5123L5.41431 20.1316V19.7787L11.2759 24.2773Z" fill="#FFF200"/>
<path fill-rule="evenodd" clip-rule="evenodd" d="M5.46448 20.8971L11.3286 24.8116L11.2237 25.0603L5.53312 21.2389L5.46448 20.8971Z" fill="#FFF200"/>
<path fill-rule="evenodd" clip-rule="evenodd" d="M19.0871 21.5799L19.008 22.3839L18.85 22.344L18.8895 21.5618L19.0871 21.5799Z" fill="#FFF200"/>
<path fill-rule="evenodd" clip-rule="evenodd" d="M18.3875 21.5513L18.3932 22.3575L18.2486 22.3607L18.2172 21.5531L18.3875 21.5513Z" fill="#FFF200"/>
<path fill-rule="evenodd" clip-rule="evenodd" d="M19.4297 21.6714L19.3235 22.4308L19.171 22.4105L19.2445 21.619L19.4297 21.6714Z" fill="#FFF200"/>
<path fill-rule="evenodd" clip-rule="evenodd" d="M16.9907 21.6172L17.1525 22.4707L16.9478 22.5239L16.7379 21.6518L16.9907 21.6172Z" fill="#FFF200"/>
<path fill-rule="evenodd" clip-rule="evenodd" d="M17.7427 21.5735L17.8128 22.3991L17.6309 22.3996L17.5352 21.5912L17.7427 21.5735Z" fill="#FFF200"/>
<path fill-rule="evenodd" clip-rule="evenodd" d="M17.3525 21.586L17.4818 22.4172L17.291 22.4492L17.1672 21.6177L17.3525 21.586Z" fill="#FFF200"/>
<path fill-rule="evenodd" clip-rule="evenodd" d="M18.0629 21.5663L18.116 22.3631L17.958 22.3683L17.8789 21.5624L18.0629 21.5663Z" fill="#FFF200"/>
<path fill-rule="evenodd" clip-rule="evenodd" d="M16.5613 21.7006L16.8056 22.5729L16.5748 22.631L16.3137 21.7351L16.5613 21.7006Z" fill="#FFF200"/>
<path fill-rule="evenodd" clip-rule="evenodd" d="M19.812 21.8292L19.6786 22.4957L19.481 22.4498L19.6008 21.7351L19.812 21.8292Z" fill="#FFF200"/>
<path fill-rule="evenodd" clip-rule="evenodd" d="M21.543 23.0284L22.0905 21.7258L22.2984 21.8196L21.7527 23.1324L21.543 23.0284Z" fill="#FFF200"/>
<path fill-rule="evenodd" clip-rule="evenodd" d="M21.9001 21.6335L21.3622 22.9954L21.1567 22.9065L21.7226 21.5445L21.9001 21.6335Z" fill="#FFF200"/>
<path fill-rule="evenodd" clip-rule="evenodd" d="M21.9384 23.2234L22.5149 21.934L22.7138 22.0847L22.0994 23.3111L21.9384 23.2234Z" fill="#FFF200"/>
<path fill-rule="evenodd" clip-rule="evenodd" d="M16.4455 22.6846L16.2486 22.7521L15.9043 21.9306L16.1133 21.8263L16.4455 22.6846Z" fill="#FFF200"/>
<path fill-rule="evenodd" clip-rule="evenodd" d="M20.1619 22.0032L20.0246 22.5529L19.8281 22.5078L19.9587 21.9144L20.1619 22.0032Z" fill="#FFF200"/>
<path fill-rule="evenodd" clip-rule="evenodd" d="M30.1907 22.1652L28.1088 23.6915L27.9498 23.5494L30.0827 21.9524L30.1907 22.1652Z" fill="#FFF200"/>
<path fill-rule="evenodd" clip-rule="evenodd" d="M5.6886 21.9291L11.2363 25.2813L11.1441 25.5292L5.76987 22.3218L5.6886 21.9291Z" fill="#FFF200"/>
<path fill-rule="evenodd" clip-rule="evenodd" d="M20.4836 22.2353L20.3508 22.6319L20.2002 22.586L20.3131 22.0736L20.4836 22.2353Z" fill="#FFF200"/>
<path fill-rule="evenodd" clip-rule="evenodd" d="M20.7804 22.4106L20.6823 22.732L20.53 22.6555L20.6047 22.3123L20.7804 22.4106Z" fill="#FFF200"/>
<path fill-rule="evenodd" clip-rule="evenodd" d="M23.0668 22.3892L22.4455 23.5238L22.282 23.4239L22.9087 22.2327L23.0668 22.3892Z" fill="#FFF200"/>
<path fill-rule="evenodd" clip-rule="evenodd" d="M21.0623 22.6347L20.9901 22.861L20.8252 22.7951L20.9042 22.5174L21.0623 22.6347Z" fill="#FFF200"/>
<path fill-rule="evenodd" clip-rule="evenodd" d="M30.3625 22.6348L28.4053 23.9071L28.2623 23.7635L30.2688 22.3969L30.3625 22.6348Z" fill="#FFF200"/>
<path fill-rule="evenodd" clip-rule="evenodd" d="M15.9093 22.9L16.078 22.8127L15.7716 22.0336L15.5807 22.1604L15.9093 22.9Z" fill="#FFF200"/>
<path fill-rule="evenodd" clip-rule="evenodd" d="M23.4505 22.7759L22.7991 23.7164L22.6377 23.6128L23.2913 22.5954L23.4505 22.7759Z" fill="#FFF200"/>
<path fill-rule="evenodd" clip-rule="evenodd" d="M15.3074 22.7482L15.5123 23.0919L15.401 23.1635L15.1868 22.8626L15.3074 22.7482Z" fill="#FFF200"/>
<path fill-rule="evenodd" clip-rule="evenodd" d="M23.7846 23.1338L23.1484 23.9474L22.9902 23.8302L23.6402 22.9571L23.7846 23.1338Z" fill="#FFF200"/>
<path fill-rule="evenodd" clip-rule="evenodd" d="M30.1357 23.2848L28.6737 24.1062L28.5531 23.9869L30.0076 23.1116L30.1357 23.2848Z" fill="#FFF200"/>
<path fill-rule="evenodd" clip-rule="evenodd" d="M24.0217 23.5155L23.4864 24.1617L23.3555 24.0427L23.8908 23.3576L24.0217 23.5155Z" fill="#FFF200"/>
<path fill-rule="evenodd" clip-rule="evenodd" d="M24.291 23.768L23.6969 24.3829L23.5918 24.2777L24.1766 23.6504L24.291 23.768Z" fill="#FFF200"/>
<path fill-rule="evenodd" clip-rule="evenodd" d="M9.82262 25.948L9.73134 26.1381L7.67716 25.1993L7.57654 24.8477L9.82262 25.948Z" fill="#FFF200"/>
<path fill-rule="evenodd" clip-rule="evenodd" d="M9.66917 26.3786L9.60217 26.546L7.98385 25.9039L7.81885 25.5743L9.66917 26.3786Z" fill="#FFF200"/>
<path fill-rule="evenodd" clip-rule="evenodd" d="M9.51692 26.7865L9.47773 26.9373L8.26411 26.5516L8.12183 26.2392L9.51692 26.7865Z" fill="#FFF200"/>
<path fill-rule="evenodd" clip-rule="evenodd" d="M23.5128 31.0836C25.2121 31.3966 26.6742 31.9051 27.7807 32.9612C28.0572 33.3132 28.1364 33.7825 28.0968 34.3302C28.1364 33.7825 28.0572 33.3132 27.7807 32.9612C26.6742 31.9051 25.2121 31.3966 23.5128 31.0836Z" fill="#6B6155"/>
<path fill-rule="evenodd" clip-rule="evenodd" d="M18.5089 22.3498L18.5281 21.5623L18.7316 21.5628L18.6921 22.3668L18.5089 22.3498Z" fill="#FFF200"/>
<path fill-rule="evenodd" clip-rule="evenodd" d="M15.7681 22.926L15.6159 23.0207L15.3469 22.4875L15.5308 22.4L15.7681 22.926Z" fill="#FFF200"/>
<path fill-rule="evenodd" clip-rule="evenodd" d="M24.2902 34.2398L24.6193 34.3595L24.4849 34.7714L24.6987 34.8492L25.0111 33.8913L24.7973 33.8135L24.6799 34.1734L24.3509 34.0538L24.4682 33.6939L24.2544 33.6162L23.942 34.574L24.1559 34.6518L24.2902 34.2398ZM23.3214 34.0488L23.5265 33.7022L23.5644 34.1081L23.3214 34.0488ZM23.4707 33.4169L22.9049 34.3185L23.1374 34.3754L23.2365 34.205L23.5758 34.2875L23.5953 34.487L23.8292 34.5439L23.6938 33.4712L23.4707 33.4169ZM22.4806 33.4071L22.3595 34.2133L22.5831 34.2506L22.7038 33.4444L22.9895 33.4922L23.0185 33.2979L22.2228 33.1647L22.1937 33.3591L22.4806 33.4071ZM21.8043 33.7437C21.7925 33.7904 21.7738 33.8276 21.7461 33.8566C21.7045 33.9 21.6518 33.9175 21.585 33.91C21.5062 33.9012 21.4493 33.8614 21.415 33.7907C21.3841 33.7276 21.3739 33.6507 21.3832 33.5573C21.3918 33.4709 21.4112 33.4002 21.4414 33.3455C21.4883 33.2618 21.5553 33.2256 21.6453 33.2356C21.6941 33.2425 21.7328 33.2555 21.761 33.2776C21.8044 33.3115 21.8254 33.3633 21.8268 33.4333L22.0476 33.4578C22.0579 33.3541 22.0335 33.267 21.9746 33.1937C21.9048 33.1058 21.7984 33.0547 21.6538 33.0387C21.4848 33.0213 21.3575 33.0669 21.2696 33.1765C21.1971 33.2659 21.1549 33.3864 21.1398 33.5389C21.1221 33.7291 21.1587 33.8729 21.251 33.9704C21.3235 34.0454 21.4251 34.0904 21.5559 34.1049C21.7129 34.1208 21.8321 34.0858 21.9152 33.999C21.9719 33.9413 22.0084 33.8652 22.0277 33.7685L21.8043 33.7437ZM20.4621 33.8076C20.3937 33.8037 20.3414 33.7792 20.304 33.7336C20.2547 33.6744 20.2333 33.5819 20.2394 33.4561C20.247 33.3347 20.273 33.2493 20.3195 33.1968C20.3631 33.1485 20.4218 33.1271 20.4958 33.1312C20.5641 33.1364 20.6165 33.1597 20.654 33.2037C20.7046 33.263 20.726 33.3556 20.7197 33.4826C20.7117 33.6185 20.6768 33.7122 20.6125 33.7637C20.5725 33.7962 20.5223 33.811 20.4621 33.8076ZM20.4524 34.0044C20.6194 34.0123 20.7466 33.9653 20.8356 33.8615C20.9142 33.7701 20.9557 33.6494 20.9634 33.4962C20.9697 33.3416 20.9401 33.2167 20.8724 33.1188C20.7916 33.0041 20.6697 32.9437 20.5054 32.9346C20.3262 32.9247 20.1931 32.981 20.1032 33.1037C20.0369 33.1941 20.0013 33.3067 19.9945 33.4425C19.989 33.5785 20.0135 33.6943 20.0705 33.7917C20.149 33.9236 20.2758 33.9946 20.4524 34.0044ZM19.3579 33.1058L19.3445 33.9219L19.5706 33.9262L19.5842 33.11L19.8732 33.1153L19.8764 32.9186L19.0707 32.9036L19.0675 33.1005L19.3579 33.1058ZM18.3691 33.1086L18.5458 33.1054L18.5649 33.105C18.6048 33.1058 18.635 33.1109 18.6557 33.1222C18.6917 33.1417 18.7087 33.1791 18.7097 33.2342C18.709 33.2862 18.696 33.3226 18.6676 33.3449C18.6404 33.3657 18.6023 33.375 18.5502 33.3761L18.3736 33.3792L18.3691 33.1086ZM18.1397 32.9161L18.1564 33.9289L18.3825 33.9247L18.3768 33.5761L18.5918 33.5721C18.7152 33.5684 18.8064 33.539 18.8658 33.4815C18.9265 33.4226 18.9553 33.3381 18.9535 33.2281C18.952 33.1414 18.9317 33.0737 18.8925 33.0221C18.8323 32.9423 18.7302 32.9051 18.5864 32.9078L18.1397 32.9161ZM17.4616 33.8102C17.3932 33.8154 17.3385 33.7976 17.296 33.7571C17.2403 33.7046 17.2084 33.6156 17.2001 33.49C17.1934 33.3687 17.2096 33.2804 17.2496 33.2223C17.2873 33.1687 17.343 33.1399 17.417 33.1345C17.4854 33.1308 17.5399 33.1471 17.5824 33.1861C17.6394 33.2384 17.6715 33.3276 17.6799 33.4545C17.6875 33.5903 17.6636 33.6879 17.6058 33.7473C17.5698 33.7848 17.5216 33.8058 17.4616 33.8102ZM17.4746 34.0068C17.6413 33.993 17.7621 33.9302 17.8385 33.8158C17.9059 33.7149 17.9333 33.5897 17.9231 33.4366C17.9117 33.2823 17.8678 33.1622 17.7893 33.0737C17.6959 32.9704 17.568 32.9261 17.404 32.9381C17.2249 32.9514 17.0991 33.0246 17.0242 33.1577C16.9689 33.256 16.9463 33.3724 16.9554 33.5081C16.9656 33.6437 17.0033 33.7554 17.071 33.8448C17.1642 33.9656 17.2983 34.0197 17.4746 34.0068ZM16.0815 34.1216L16.306 34.0925L16.2517 33.601L16.646 34.0485L16.9209 34.0128L16.4534 33.5193L16.7822 33.0101L16.5181 33.0444L16.2382 33.5093L16.1891 33.0871L15.7852 33.1394L15.8078 33.3347L15.9874 33.3115L16.0815 34.1216ZM14.6711 34.1921L14.5236 33.3908L14.3003 33.4367L14.4834 34.4311L15.7397 34.1732L15.5566 33.1787L15.3335 33.2245L15.481 34.0259L15.1876 34.0861L15.04 33.2848L14.8168 33.3307L14.9643 34.1319L14.6711 34.1921ZM13.6894 34.3206L13.7029 33.912L13.9279 34.2435L13.6894 34.3206ZM13.5195 33.6943L13.4564 34.774L13.6846 34.7003L13.6898 34.5004L14.0227 34.393L14.1342 34.5552L14.3635 34.4812L13.7383 33.6237L13.5195 33.6943ZM12.6751 34.6636L12.848 34.5862C12.9015 34.5638 12.9431 34.5561 12.9744 34.564C13.0077 34.5727 13.031 34.597 13.0469 34.6369C13.0617 34.6775 13.0592 34.7117 13.0379 34.74C13.0183 34.766 12.9845 34.7892 12.9341 34.8117L12.7652 34.8875L12.6751 34.6636ZM12.536 34.3172L13.014 34.1029L12.9412 33.9217L12.255 34.2294L12.6298 35.1621L13.0512 34.973C13.1325 34.935 13.1953 34.8911 13.2383 34.8388C13.3078 34.7526 13.3191 34.6548 13.2737 34.5415C13.237 34.4542 13.1877 34.3946 13.1232 34.3638C13.0403 34.3239 12.9378 34.3321 12.8155 34.387L12.6024 34.4826L12.536 34.3172Z" fill="#231F20"/>
<path d="M24.2902 34.2398L24.6193 34.3595L24.4849 34.7714L24.6987 34.8492L25.0111 33.8913L24.7973 33.8135L24.6799 34.1734L24.3509 34.0538L24.4682 33.6939L24.2544 33.6162L23.942 34.574L24.1559 34.6518L24.2902 34.2398ZM23.3214 34.0488L23.5265 33.7022L23.5644 34.1081L23.3214 34.0488ZM23.4707 33.4169L22.9049 34.3185L23.1374 34.3754L23.2365 34.205L23.5758 34.2875L23.5953 34.487L23.8292 34.5439L23.6938 33.4712L23.4707 33.4169ZM22.4806 33.4071L22.3595 34.2133L22.5831 34.2506L22.7038 33.4444L22.9895 33.4922L23.0185 33.2979L22.2228 33.1647L22.1937 33.3591L22.4806 33.4071ZM21.8043 33.7437C21.7925 33.7904 21.7738 33.8276 21.7461 33.8566C21.7045 33.9 21.6518 33.9175 21.585 33.91C21.5062 33.9012 21.4493 33.8614 21.415 33.7907C21.3841 33.7276 21.3739 33.6507 21.3832 33.5573C21.3918 33.4709 21.4112 33.4002 21.4414 33.3455C21.4883 33.2618 21.5553 33.2256 21.6453 33.2356C21.6941 33.2425 21.7328 33.2555 21.761 33.2776C21.8044 33.3115 21.8254 33.3633 21.8268 33.4333L22.0476 33.4578C22.0579 33.3541 22.0335 33.267 21.9746 33.1937C21.9048 33.1058 21.7984 33.0547 21.6538 33.0387C21.4848 33.0213 21.3575 33.0669 21.2696 33.1765C21.1971 33.2659 21.1549 33.3864 21.1398 33.5389C21.1221 33.7291 21.1587 33.8729 21.251 33.9704C21.3235 34.0454 21.4251 34.0904 21.556 34.1049C21.7129 34.1208 21.8321 34.0858 21.9152 33.999C21.9719 33.9413 22.0084 33.8652 22.0277 33.7685L21.8043 33.7437ZM20.4621 33.8076C20.3937 33.8037 20.3414 33.7792 20.304 33.7336C20.2547 33.6744 20.2333 33.5819 20.2394 33.4561C20.247 33.3347 20.273 33.2493 20.3195 33.1968C20.3631 33.1485 20.4218 33.1271 20.4958 33.1312C20.5641 33.1364 20.6165 33.1597 20.654 33.2037C20.7046 33.263 20.726 33.3556 20.7197 33.4826C20.7117 33.6185 20.6768 33.7122 20.6125 33.7637C20.5725 33.7962 20.5223 33.811 20.4621 33.8076ZM20.4524 34.0044C20.6194 34.0123 20.7466 33.9653 20.8356 33.8615C20.9142 33.7701 20.9557 33.6494 20.9634 33.4962C20.9697 33.3416 20.9401 33.2167 20.8724 33.1188C20.7916 33.0041 20.6697 32.9437 20.5054 32.9346C20.3262 32.9247 20.1931 32.981 20.1032 33.1037C20.0369 33.1941 20.0013 33.3067 19.9945 33.4425C19.989 33.5785 20.0135 33.6943 20.0705 33.7917C20.149 33.9236 20.2758 33.9946 20.4524 34.0044ZM19.3579 33.1058L19.3445 33.9219L19.5706 33.9262L19.5842 33.11L19.8732 33.1153L19.8764 32.9186L19.0707 32.9036L19.0675 33.1005L19.3579 33.1058ZM18.3691 33.1086L18.5458 33.1054L18.5649 33.105C18.6048 33.1058 18.635 33.1109 18.6557 33.1222C18.6917 33.1417 18.7087 33.1791 18.7097 33.2342C18.709 33.2862 18.696 33.3226 18.6676 33.3449C18.6405 33.3657 18.6023 33.375 18.5502 33.3761L18.3736 33.3792L18.3691 33.1086ZM18.1397 32.9161L18.1564 33.9289L18.3825 33.9247L18.3768 33.5761L18.5918 33.5721C18.7152 33.5684 18.8064 33.539 18.8658 33.4815C18.9265 33.4226 18.9553 33.3381 18.9535 33.2281C18.952 33.1414 18.9317 33.0737 18.8925 33.0221C18.8323 32.9423 18.7302 32.9051 18.5864 32.9078L18.1397 32.9161ZM17.4616 33.8102C17.3932 33.8154 17.3385 33.7976 17.296 33.7571C17.2403 33.7046 17.2084 33.6156 17.2001 33.49C17.1934 33.3687 17.2096 33.2804 17.2496 33.2223C17.2873 33.1687 17.343 33.1399 17.417 33.1345C17.4854 33.1308 17.5399 33.1471 17.5824 33.1861C17.6394 33.2384 17.6715 33.3276 17.6799 33.4545C17.6875 33.5903 17.6636 33.6879 17.6058 33.7473C17.5698 33.7848 17.5216 33.8058 17.4616 33.8102ZM17.4746 34.0068C17.6413 33.993 17.7621 33.9302 17.8385 33.8158C17.9059 33.7149 17.9333 33.5897 17.9231 33.4366C17.9117 33.2823 17.8678 33.1622 17.7893 33.0737C17.6959 32.9704 17.568 32.9261 17.404 32.9381C17.2249 32.9514 17.0991 33.0246 17.0242 33.1577C16.9689 33.256 16.9463 33.3724 16.9554 33.5081C16.9656 33.6437 17.0033 33.7554 17.071 33.8448C17.1642 33.9656 17.2983 34.0197 17.4746 34.0068ZM16.0815 34.1216L16.306 34.0925L16.2517 33.601L16.646 34.0485L16.9209 34.0128L16.4534 33.5193L16.7822 33.0101L16.5181 33.0444L16.2382 33.5093L16.1891 33.0871L15.7852 33.1394L15.8078 33.3347L15.9874 33.3115L16.0815 34.1216ZM14.6711 34.1921L14.5236 33.3908L14.3003 33.4367L14.4834 34.4311L15.7397 34.1732L15.5566 33.1787L15.3335 33.2245L15.481 34.0259L15.1876 34.0861L15.04 33.2848L14.8168 33.3307L14.9643 34.1319L14.6711 34.1921ZM13.6894 34.3206L13.7029 33.912L13.9279 34.2435L13.6894 34.3206ZM13.5195 33.6943L13.4564 34.774L13.6846 34.7003L13.6898 34.5004L14.0227 34.393L14.1342 34.5552L14.3635 34.4812L13.7383 33.6237L13.5195 33.6943ZM12.6751 34.6636L12.848 34.5862C12.9015 34.5638 12.9431 34.5561 12.9744 34.564C13.0077 34.5727 13.031 34.597 13.0469 34.6369C13.0617 34.6775 13.0592 34.7117 13.0379 34.74C13.0183 34.766 12.9845 34.7892 12.9341 34.8117L12.7652 34.8875L12.6751 34.6636ZM12.536 34.3172L13.014 34.1029L12.9412 33.9217L12.255 34.2294L12.6298 35.1621L13.0512 34.973C13.1325 34.935 13.1953 34.8911 13.2383 34.8388C13.3078 34.7526 13.3191 34.6548 13.2737 34.5415C13.237 34.4542 13.1877 34.3946 13.1232 34.3638C13.0403 34.3239 12.9378 34.3321 12.8155 34.387L12.6024 34.4826L12.536 34.3172Z" stroke="white" stroke-width="0.1" stroke-miterlimit="2.613"/>
<path fill-rule="evenodd" clip-rule="evenodd" d="M32.7991 30.6381C32.0216 31.7331 31.2643 32.648 30.3094 33.4695C30.3094 33.4079 30.3646 33.2964 30.3942 33.2375C30.6314 32.9637 30.9022 32.6872 31.1392 32.4134C31.3764 32.1787 31.4949 31.905 31.5345 31.5919C31.2656 28.8824 23.4689 30.5287 22.7617 30.9662C22.9135 31.0412 23.3433 31.0834 23.5125 31.0834C25.2117 31.3964 26.6738 31.905 27.7803 32.961C28.0569 33.3131 28.136 33.7824 28.0965 34.3301C27.7803 34.9168 27.4643 35.5425 27.148 36.1294C26.9505 36.4814 26.6533 36.9898 26.3768 37.3419C26.4162 37.1855 26.4226 37.0899 26.4622 36.9725C26.6597 36.5814 26.911 36.1685 27.1086 35.7774C27.9889 32.8398 19.8958 32.2673 18.4791 32.296C16.8525 32.3289 10.0387 33.2281 10.1847 35.8373C10.3033 36.3849 10.7269 36.7353 11.0034 37.2437C11.0034 37.361 11.013 37.4575 11.013 37.5749C10.3851 36.7624 9.37459 35.4394 9.10217 33.9866C9.08577 32.5655 12.7182 31.361 14.5422 31.1617C13.8704 30.8489 13.0406 30.6924 12.2106 30.575C10.6861 30.2806 5.83543 29.6482 5.41384 31.944C5.43811 32.2023 6.12508 32.7264 6.52019 33.0784C6.55971 33.1567 6.55971 33.274 6.59932 33.3521C5.67117 32.6633 4.93853 31.7918 4.22827 30.8878C3.83291 29.441 5.79443 29.0075 6.99451 29.1277C9.80013 29.3624 12.4083 29.9883 14.8583 31.0834C17.2294 30.4968 19.8569 30.575 22.3068 30.927C24.6455 29.5691 33.3997 27.5406 32.7991 30.6381Z" fill="#1082CF"/>
<path fill-rule="evenodd" clip-rule="evenodd" d="M26.5495 37.0927C26.2528 37.6744 25.9443 38.2046 25.3693 38.5934C24.5655 36.6808 21.5368 35.9632 18.7111 35.9578C15.8853 35.9525 11.4014 37.5221 12.2893 38.9845C11.8296 38.9845 11.0975 37.8293 10.9671 37.5195C10.9491 35.3802 16.8119 34.3772 18.6608 34.3801C20.5097 34.3829 25.6714 34.7962 26.5495 37.0927Z" fill="#00A870"/>
<path fill-rule="evenodd" clip-rule="evenodd" d="M22.3425 36.4174C23.4216 36.4493 26.0792 37.5944 25.4325 38.4984C24.7858 39.4025 22.6695 36.7129 22.3425 36.4174Z" fill="#6B5F52"/>
<path fill-rule="evenodd" clip-rule="evenodd" d="M12.1913 38.9789C11.0403 37.8985 14.2748 36.6568 14.9492 36.5976C14.2613 37.5057 13.4402 39.208 12.1913 38.9789Z" fill="#6B5F52"/>
<path fill-rule="evenodd" clip-rule="evenodd" d="M14.1857 31.2125C14.0594 31.2306 13.9915 31.262 13.8705 31.2791C13.4752 31.3182 13.0406 31.3573 12.6455 31.3965C11.1438 31.5919 9.80015 31.905 8.73325 32.6481C8.45672 32.9219 8.14042 33.1956 8.21956 33.6651C8.41711 34.0172 8.78343 33.9927 9.13902 34.1492C8.94146 34.1883 8.85175 34.2127 8.65411 34.2127C7.90342 34.1345 7.07343 33.8997 6.59935 33.3521C6.55974 33.274 6.55974 33.1567 6.52021 33.0784C6.44124 32.6481 6.71785 32.296 7.03399 32.0613C8.74653 30.8209 12.2004 30.721 14.1857 31.2125Z" fill="#00A870"/>
<path fill-rule="evenodd" clip-rule="evenodd" d="M13.9989 31.2567C12.3775 31.5404 8.7974 32.7438 9.13585 34.1491C8.83693 34.0935 8.1931 33.9521 8.19162 33.5662C8.10223 31.8553 12.6003 31.2902 13.9989 31.2567Z" fill="#6B5F52"/>
<path fill-rule="evenodd" clip-rule="evenodd" d="M30.3102 33.4694C29.8472 34.1563 28.9049 34.3719 28.0973 34.33C28.1368 33.7823 28.0576 33.313 27.7811 32.9609C26.6746 31.9049 25.2186 31.4426 23.5195 31.1296C23.3349 31.1062 23.0712 31.0575 22.913 31.0184C24.408 30.635 31.7872 30.7061 30.3102 33.4694Z" fill="#00A870"/>
<path fill-rule="evenodd" clip-rule="evenodd" d="M23.454 31.1242C24.3181 31.3676 25.6017 31.5458 26.6442 32.1748C27.405 32.6338 28.153 32.8665 28.0941 34.3015C28.3742 34.3015 28.9372 34.1778 29.0577 33.8179C29.58 32.0262 24.7041 31.1414 23.454 31.1242Z" fill="#6B5F52"/>
<path fill-rule="evenodd" clip-rule="evenodd" d="M18.8297 29.3416L19.5313 28.1389C19.5645 28.1467 19.5994 28.1503 19.6349 28.1503C19.8869 28.1503 20.0929 27.9465 20.0929 27.697C20.0929 27.4475 19.8869 27.2438 19.6349 27.2438C19.3828 27.2438 19.177 27.4475 19.177 27.697C19.177 27.8001 19.2119 27.8956 19.271 27.9721L18.5655 29.1817V27.8122C18.7417 27.749 18.8687 27.5817 18.8687 27.386C18.8687 27.1365 18.6627 26.9327 18.4107 26.9327C18.1586 26.9327 17.9527 27.1365 17.9527 27.386C17.9527 27.5816 18.0796 27.7489 18.2557 27.8122V29.2154L17.54 27.9881C17.6207 27.9062 17.6705 27.7945 17.6705 27.6716C17.6705 27.4221 17.4646 27.2184 17.2125 27.2184C16.9605 27.2184 16.7546 27.4221 16.7546 27.6716C16.7546 27.9211 16.9605 28.1249 17.2125 28.1249C17.2288 28.1249 17.2449 28.1241 17.2607 28.1226L17.9759 29.3485L16.7952 28.6737C16.8043 28.638 16.809 28.6005 16.809 28.5619C16.809 28.3125 16.6031 28.1087 16.3511 28.1087C16.099 28.1087 15.8931 28.3125 15.8931 28.5619C15.8931 28.8115 16.099 29.0152 16.3511 29.0152C16.4515 29.0152 16.5451 28.983 16.6209 28.9282L17.7926 29.5978H16.4814C16.4234 29.4133 16.2487 29.2789 16.0439 29.2789C15.7919 29.2789 15.5859 29.4827 15.5859 29.7322C15.5859 29.9816 15.7919 30.1855 16.0439 30.1855C16.2344 30.1855 16.3985 30.0689 16.4674 29.9044H18.2557V30.3335H18.5655V29.9044H20.3715C20.4404 30.0689 20.6047 30.1855 20.7951 30.1855C21.0471 30.1855 21.253 29.9816 21.253 29.7322C21.253 29.4827 21.0471 29.2789 20.7951 29.2789C20.5901 29.2789 20.4156 29.4133 20.3576 29.5978H19.0009L20.2178 28.9024C20.2937 28.9573 20.3873 28.9897 20.4881 28.9897C20.7402 28.9897 20.9461 28.786 20.9461 28.5365C20.9461 28.2869 20.7402 28.0833 20.4881 28.0833C20.2361 28.0833 20.0302 28.2869 20.0302 28.5365C20.0302 28.5747 20.0348 28.6121 20.0439 28.6477L18.8297 29.3416Z" fill="#00A870"/>
<path fill-rule="evenodd" clip-rule="evenodd" d="M14.5385 12.0577C14.5742 11.8081 14.7604 11.5108 14.9379 11.3698C15.175 11.2525 15.096 10.9005 15.3727 10.7831C15.6887 10.7049 15.8864 10.6267 16.1234 10.4701C16.2815 10.392 16.5977 10.2747 16.7557 10.4701C16.7557 10.6658 16.5185 10.9396 16.7162 11.096C16.6766 11.3308 16.6766 11.4872 16.4397 11.5263C16.3605 11.6436 16.5581 12.0739 16.2815 12.0739C15.9653 12.465 16.4397 12.6215 16.6766 12.8171C17.1509 12.9736 17.2299 13.443 17.467 13.795C17.9807 13.9514 18.4549 14.1861 19.008 14.0296C19.1661 14.1079 19.4032 14.1079 19.4428 14.3035C19.5612 14.46 19.5612 14.6164 19.4823 14.7728C19.3242 14.8119 19.1267 14.9684 18.9685 14.8119C18.8105 14.7337 18.771 14.4991 18.5339 14.6164C18.4549 14.6946 18.4944 14.8511 18.3759 14.8511C18.6525 15.0076 18.8895 15.1249 19.0475 15.4378C19.3637 15.2032 19.7193 14.8511 19.8774 14.46C20.1541 14.2252 20.5887 14.1471 20.7467 13.7559C20.9049 13.5995 21.1419 13.6384 21.3791 13.6384C21.6557 13.3647 21.8532 12.7779 22.3275 12.8954C22.6041 12.6998 22.9202 12.5041 23.2759 12.6998C23.3549 12.5433 23.5526 12.5433 23.6711 12.5433C23.9082 12.5825 24.3033 12.3869 24.5404 12.6606C24.6985 12.5433 24.9751 12.6215 25.1728 12.6215C25.2913 12.8954 25.5678 12.7779 25.8051 12.8562C26.0026 12.8954 26.1211 13.0909 26.2397 13.2474C26.6348 13.13 27.03 13.13 27.4252 13.1691C27.4648 13.443 27.1091 13.482 26.9905 13.6776C27.1091 13.9514 27.4252 14.1079 27.4252 14.3816C27.3066 14.4208 27.1091 14.3426 27.0696 14.4991C27.1485 14.6555 27.2671 14.9292 27.1091 15.0467C26.8719 15.1249 26.7139 15.3986 26.5558 15.5942C26.4768 15.6334 26.3583 15.6334 26.3187 15.516C26.2791 15.7898 26.0421 15.9854 25.7654 16.1419C25.6073 16.3765 25.4888 16.6894 25.2122 16.8459C25.1954 16.9463 24.2664 17.4998 24.2243 17.0415C24.1452 16.7286 24.58 16.8459 24.58 16.5721C24.5008 16.4939 24.3824 16.533 24.3033 16.533C24.1452 16.6503 24.1452 17.0415 23.8686 16.8459H23.8669C23.8291 16.7503 23.7773 16.6143 23.8248 16.544C23.9964 16.291 24.6421 15.9335 24.3429 15.516C23.9476 15.5551 24.1452 16.2983 23.6315 16.1026C23.5919 16.181 23.7106 16.181 23.7501 16.2201C23.8291 16.3374 23.7106 16.3765 23.6315 16.3374C23.6625 16.4291 23.7133 16.6961 23.7532 16.8459H23.7501C23.7895 17.1197 23.7895 17.3544 23.7895 17.6283C24.3418 17.7648 25.7599 17.3377 25.963 17.4718C26.1211 17.6283 26.2397 17.7847 26.3187 17.9411C26.3187 18.1759 26.3187 18.4497 26.2002 18.6061C26.0816 19.232 26.3187 19.7795 26.4372 20.3661C25.963 20.7573 26.0421 21.657 25.2913 21.7352C25.2518 21.8133 25.1332 21.8133 25.0146 21.8133C24.9751 21.3832 25.0146 21.0312 25.0146 20.64C25.1332 20.4836 25.4494 20.5225 25.4888 20.2879C25.0937 19.9359 25.5284 19.5839 25.4888 19.1928C25.4888 18.9189 25.4888 18.6844 25.4494 18.4105C25.2913 18.5669 25.0146 18.5279 24.9751 18.7235C24.3824 18.9972 24.0663 19.3492 23.4734 19.7012C23.1178 19.7795 22.9994 19.975 22.6436 20.0532C22.7622 20.3661 23.0783 20.5225 23.3154 20.7573C23.3549 20.6791 23.3549 20.6009 23.3549 20.5617C23.5526 20.5225 23.5526 20.8356 23.8291 20.7182C23.7895 20.3661 23.434 20.2097 23.2363 19.975C23.1573 19.8185 23.3945 19.8968 23.434 19.9359C23.6315 20.0923 23.3945 19.662 23.6315 19.7403C23.8291 20.1705 24.1058 20.6009 24.3824 20.992C24.5008 21.3832 24.8565 21.5787 24.8961 21.9698C25.2518 22.5566 25.7259 22.9868 26.2002 23.4171C26.4768 23.73 27.0696 23.4171 27.2671 23.8083C27.3907 23.906 27.4205 24.1754 27.4398 24.2856L27.7293 24.2452C27.8478 24.48 27.7018 24.7861 27.7413 25.06L25.1332 25.5684L28.3341 25.412C28.6107 25.8422 28.8874 26.2725 29.0848 26.7027C28.8478 27.2894 28.7292 27.8762 28.4922 28.4237C26.2002 28.8932 24.0267 29.5582 22.0508 30.7316C21.9324 30.6925 21.8137 30.6925 21.7347 30.6534C22.0508 29.5582 21.6557 28.3847 20.8654 27.5632C19.9565 26.6245 18.6525 26.2725 17.3879 26.6635C16.2419 26.9375 15.3727 28.1108 15.1355 29.1669C15.0169 29.6755 15.0564 30.2622 15.1355 30.7316C15.096 30.7706 15.0564 30.7706 14.9774 30.7706C12.9225 30.0275 10.9072 29.0496 8.61523 28.8541C8.77326 28.3847 9.0894 27.9544 9.36592 27.4851C9.84025 27.4459 10.3539 27.4068 10.8281 27.3677C10.9072 27.0939 10.833 26.826 10.833 26.5132L13.7502 26.1227C13.6678 26.0576 13.6495 25.8581 13.6135 25.7238C13.5661 25.5337 13.4885 25.3825 13.1596 25.5684C13.0807 25.451 13.0016 25.3729 12.883 25.2556C12.725 24.8253 12.5274 24.356 12.1323 23.9647C11.815 23.7173 11.6793 23.5926 11.8951 23.2606C12.1108 22.9287 12.804 22.5566 12.9225 22.009C12.4878 21.3832 12.0137 20.7964 11.8556 20.0141C11.7128 19.8728 11.3846 20.037 11.3418 20.2488C11.3813 20.5225 11.3418 20.8356 11.2628 21.1093C11.1442 21.2266 10.9468 21.1093 10.8281 21.2266C11.0257 21.4222 11.1048 21.6961 11.0653 22.009C10.8281 22.0481 10.512 22.1654 10.2749 22.0481C10.1563 21.9698 10.1563 22.2046 10.0378 22.2046C9.95875 22.2046 9.87978 22.1654 9.80064 22.1654C9.60309 21.8133 9.87978 21.6178 10.0378 21.305C9.99828 21.305 9.99828 21.2657 9.95875 21.2657C9.80064 21.344 9.52411 21.305 9.32648 21.3832C9.1099 21.276 9.41554 20.7964 9.48451 20.7964C9.18231 20.0489 10.2269 18.926 10.9072 19.3101C11.0257 19.4274 11.2628 19.4274 11.4605 19.4274C11.579 19.232 12.0531 19.5056 11.9346 19.1145C12.2507 18.2932 12.883 17.8628 13.6733 17.5499C13.7128 17.5109 13.7128 17.5109 13.7524 17.5109C13.9105 17.4718 14.029 17.4327 14.187 17.3935C14.9379 17.3153 15.6097 17.237 16.2024 16.8851C16.2024 16.7677 16.0049 16.8067 15.9653 16.7286C15.6097 16.6503 15.412 16.6894 15.0564 16.7286C15.0169 16.7286 14.9774 16.7286 14.9379 16.6894H14.8194C14.7798 16.5721 14.7798 16.3765 14.6218 16.4157C14.4637 16.2593 14.345 16.1026 14.345 15.9462C14.8194 15.7898 14.9774 15.2421 15.254 14.8511C15.2145 14.7728 15.096 14.8901 15.0169 14.8119C14.8588 14.3816 15.7283 14.6555 15.3331 14.2644C15.0892 14.161 14.6895 13.795 14.5258 13.7056C14.4863 13.7839 14.3846 13.8732 14.345 13.9514C14.108 14.1471 13.9895 14.46 13.8314 14.6555C13.7524 14.6555 13.6733 14.6164 13.6733 14.5381C13.6733 14.3426 13.871 14.2644 13.9105 14.0688C13.9895 13.795 14.187 13.5211 14.187 13.2474C13.9895 13.3255 13.871 12.8954 13.7128 13.1691C13.4363 13.3255 13.1596 13.482 12.883 13.6776C12.883 13.7167 12.883 13.8341 12.804 13.795C12.725 13.7559 12.6063 13.6384 12.6855 13.5603C13.0411 13.3647 13.2387 13.0518 13.6338 12.8562C13.7128 12.7779 13.6733 12.6998 13.6338 12.6215C13.3573 12.5825 13.1596 12.5433 13.0016 12.2695C13.1596 11.8783 12.7644 11.5654 12.7644 11.1742C12.725 10.9005 12.6459 10.6267 12.6063 10.392C12.4088 10.5876 12.5274 10.9005 12.4483 11.1742C12.3693 11.4872 11.9741 11.2525 11.8556 11.5654C11.8556 11.9957 12.2507 12.2695 12.3298 12.6606C12.2507 13.3647 12.2111 14.1079 12.6459 14.6555C12.6855 14.7728 12.6855 14.9292 12.6459 15.0076C12.5668 15.0857 12.4088 15.0857 12.3298 15.0076C12.2507 14.9292 12.2507 14.7337 12.3298 14.6555C12.3298 14.6164 12.3693 14.5773 12.4088 14.5773C12.0926 14.0688 12.1323 13.4038 12.1718 12.7779C12.0926 12.2695 11.3418 11.6436 12.0137 11.2133C12.0531 11.2133 12.1718 11.2133 12.2111 11.1352C12.2507 10.5485 12.2507 9.96167 12.4088 9.45313C12.2507 9.29671 12.0137 9.14029 11.9741 8.8665C12.0137 8.5535 12.0137 8.24059 12.1323 8.00592C12.1718 8.00592 12.2507 7.96687 12.2903 8.00592C12.4483 8.24059 12.4483 8.5535 12.5668 8.82738C12.6063 8.63183 12.725 8.51454 12.6855 8.27979C12.804 8.24058 12.8435 8.31892 12.962 8.39708C12.9225 8.71 12.883 9.06213 13.0411 9.33592C12.962 9.49234 13.1596 9.57059 13.1596 9.68796C13.4363 10.2355 13.5548 10.8223 13.95 11.3308C13.9722 11.382 13.9775 11.4187 13.9722 11.4447C13.9681 11.4656 14.3373 11.6744 14.3837 11.7584C14.3731 11.8134 14.5364 12.0725 14.5385 12.0577ZM14.3554 11.8138C14.2827 11.8741 14.25 11.8869 14.2266 11.9566C13.9895 11.9174 13.9105 12.0739 13.7918 12.1913C13.7918 12.2303 13.7128 12.3086 13.7918 12.3477C13.95 12.4259 14.1475 12.113 14.187 12.3869C14.108 12.3869 14.0685 12.4259 14.0685 12.5041C14.1475 12.5825 14.2661 12.7389 14.3846 12.6998C14.4637 12.6606 14.3846 12.465 14.5427 12.5041C14.7798 12.6606 14.5823 12.9736 14.7007 13.2083C14.8588 13.3647 14.4242 13.2866 14.6613 13.482C14.9379 13.5995 15.175 13.8341 15.4516 13.795C15.3727 13.5211 14.9774 13.5995 14.8588 13.3647C15.3331 13.3647 15.6097 13.795 16.1234 13.7559C16.4 13.8732 16.7162 14.0688 16.9927 13.8732C17.1509 13.7167 16.9533 13.5211 16.9137 13.3255C16.8347 13.2083 16.637 13.1691 16.5977 13.0518C16.2024 12.9736 16.2024 12.3477 15.6887 12.3869C15.4516 12.3869 15.4516 11.761 15.2145 12.1913C15.254 12.3086 15.4516 12.3477 15.5701 12.465C15.7283 12.5433 15.9257 12.6606 15.8864 12.8562C15.9653 12.9344 16.0444 12.9736 16.0049 13.0909C15.8073 13.0909 15.7677 12.8562 15.6097 12.7389C15.254 12.5041 14.8983 12.3086 14.5427 12.113C14.5269 12.0983 14.4094 11.9393 14.3554 11.8138ZM21.6557 20.64C22.0508 20.5225 22.2484 21.0312 22.6041 21.1876C23.434 21.5396 23.5919 22.4783 24.4615 22.7913C25.0146 23.1433 24.9356 24.1212 25.7654 24.0821C25.884 24.1995 25.884 24.356 25.9235 24.5123L17.1869 25.6628C17.1474 25.4672 17.0323 25.2945 16.8742 25.1773C16.1234 25.0208 15.5307 24.5905 14.8983 24.3168C14.8588 24.2384 14.8194 24.1995 14.8194 24.1212C14.7798 24.0821 14.7403 24.0429 14.7007 23.9647V23.378C14.8983 22.8304 15.254 22.361 15.2935 21.6961C15.3727 21.461 15.8061 21.0702 16.0444 21.0702C16.321 21.0702 16.5977 21.1093 16.8742 21.1093C17.704 21.1093 18.5339 20.9529 19.3637 20.992C19.4823 20.9529 19.6404 20.9137 19.7193 20.9529C19.7193 21.0702 19.7193 21.2266 19.7985 21.305C20.3517 21.344 20.5097 21.8917 20.9444 22.1654C21.0234 22.1654 21.1815 22.2046 21.221 22.0872C21.221 21.5396 20.6678 21.1485 20.6282 20.6009C20.7862 20.4444 21.0234 20.4836 21.221 20.3271C21.4186 20.3271 21.458 20.6009 21.6557 20.64ZM17.9807 14.5381C18.0288 14.681 18.1518 14.7857 18.2573 14.8901C18.3759 15.0076 18.3364 15.1249 18.4549 15.2032C18.6525 15.2421 18.7316 15.4378 18.8895 15.516C19.2057 15.7506 18.771 15.8289 18.692 15.9854C18.1784 15.9072 18.2179 16.8459 17.704 16.4939C17.5855 16.4939 17.546 16.181 17.467 16.3765C17.5066 16.5721 17.704 16.6113 17.704 16.8459C17.467 16.8067 17.2299 16.7677 17.1509 16.5721C17.2694 16.4157 17.3484 16.2201 17.5066 16.1026C17.8227 16.1419 17.9017 15.8681 18.0597 15.6725C18.1784 15.6725 18.2968 15.5942 18.3364 15.4769C18.3759 15.4378 18.4154 15.3205 18.3364 15.2421C18.2179 15.5551 17.7436 15.2814 17.704 15.6725C17.5066 15.7116 17.2694 15.7898 17.1903 16.0245C17.1114 16.3765 16.6767 16.4157 16.3605 16.4157C16.2815 16.533 16.1234 16.4157 16.0444 16.4157C16.2024 16.181 16.637 16.4157 16.8347 16.2201C17.0718 15.9462 17.2694 15.516 17.5855 15.2814C17.6646 15.0857 17.546 15.1249 17.467 15.2421C17.2694 15.4378 16.7952 15.3986 16.7162 15.7898L16.6766 15.8289C16.5185 15.8681 16.3605 15.9072 16.2024 15.9072C15.9653 15.9462 15.8073 15.7898 15.6492 15.6725C15.7677 15.516 16.0049 15.4769 16.1234 15.3205C16.2419 15.164 16.3605 15.0076 16.4 14.8511C16.321 14.7728 16.2815 14.8511 16.2024 14.8901C16.0444 14.9292 15.9257 15.0467 15.8073 15.0467C15.9257 14.7337 16.0444 14.3816 16.479 14.3816C16.7162 14.2643 17.1114 14.3035 17.2694 13.9905C17.5855 14.1471 17.6646 14.46 17.9807 14.5381ZM15.3331 19.623C15.4912 19.7795 15.4516 20.0141 15.4516 20.2097C15.175 20.4836 15.4912 20.8746 15.3727 21.1876C15.096 21.5396 15.0169 21.9307 14.9774 22.361C14.9379 22.4001 14.8983 22.5566 14.7798 22.5174C14.6613 22.2827 14.7403 21.9698 14.6613 21.7352C14.4637 21.8133 14.5427 22.1263 14.3846 22.2437C14.3057 21.9698 14.0685 21.5787 13.7128 21.3832C13.5153 21.305 13.1992 21.2266 13.12 20.992H13.1596C13.3968 21.0702 13.6338 21.1485 13.9105 21.2266C14.0685 21.1876 14.5033 21.6961 14.345 21.2266C14.2266 20.5617 13.5943 20.3661 13.0807 20.1315C12.962 20.0532 12.804 19.9359 12.7644 19.7795C13.1596 19.975 13.7128 19.975 14.108 20.2488C14.2661 20.0532 13.9895 19.8577 13.9895 19.662C13.9521 19.6064 13.5784 19.271 13.6338 19.271C13.6706 19.2528 13.9125 19.4294 13.95 19.4664C14.7403 19.5839 14.5427 20.5225 14.8983 21.0312C15.096 20.6791 15.254 20.3271 15.096 19.8968C14.8983 19.5839 14.7798 19.1928 14.6218 18.8799C14.9379 19.0755 15.0169 19.4274 15.3331 19.623ZM23.3945 20.7964C23.5919 20.9529 23.7895 21.1485 24.0663 21.1876C24.3429 21.3832 24.6589 21.657 24.6196 22.009C25.0937 22.5957 25.5678 23.1433 26.1211 23.6519C26.3187 23.7691 26.5163 23.8083 26.7929 23.7691C26.7535 24.0039 26.3978 23.8474 26.2397 23.9256C26.0026 23.8865 25.8051 23.5735 25.5284 23.7691C25.4098 23.026 24.6589 22.5174 24.1452 22.009C24.1452 21.6961 23.7895 21.5787 23.6711 21.344C23.6711 21.1485 23.3945 21.0312 23.3945 20.7964ZM24.817 12.8562C25.0937 12.7389 25.0937 13.0909 25.3308 13.0909C25.5284 13.0518 25.8051 13.0909 25.884 13.2866C26.0816 13.9123 26.5953 13.2474 26.9905 13.3255C26.9905 13.482 26.7139 13.5211 26.7139 13.6776C26.9115 13.795 27.03 13.9905 27.1485 14.1471C27.1485 14.2643 27.03 14.1861 26.9905 14.2252C26.7929 14.3426 26.951 14.6164 26.9905 14.8119C26.8719 14.7728 26.7535 14.6164 26.7535 14.46C26.7535 14.4208 26.7139 14.3816 26.6743 14.3426C26.5953 14.3426 26.5163 14.4208 26.5558 14.4991C26.5953 14.6946 26.8719 14.8511 26.6743 15.0076C26.5953 14.8119 26.4372 14.6164 26.2791 14.46C26.2397 14.2644 26.5163 13.795 26.2002 13.9514C26.0816 14.3426 25.963 14.8901 26.3583 15.164C26.2002 15.516 26.0421 15.8289 25.6865 15.9854C25.6469 16.0245 25.6865 16.0636 25.6469 16.1026C25.4888 16.1419 25.3308 16.4157 25.0937 16.3374C25.0937 16.0245 25.5284 15.9462 25.4888 15.6334C25.7259 15.4378 25.6073 15.9854 25.8051 15.6725C25.9235 15.3986 25.6073 15.2814 25.6865 15.0467C25.5678 14.9684 25.5678 15.0857 25.5284 15.164C25.5284 15.3596 25.4494 15.5942 25.2122 15.6725C25.0146 15.6725 25.2518 15.516 25.1728 15.3596C25.0541 15.2032 25.1332 15.0467 25.1728 14.8511C25.0146 14.8511 25.0146 15.0076 24.9356 15.0467C24.8565 15.0076 24.9356 14.8901 24.9356 14.8119C25.0146 14.7728 25.0937 14.6946 25.1332 14.6164C25.0541 14.5773 25.0541 14.46 25.1332 14.46C25.2913 14.1471 25.7259 14.2252 25.963 13.9905C25.5284 13.8341 25.0541 13.9514 24.6589 14.1471C24.58 13.9514 24.8565 13.8732 25.0146 13.7559C25.1332 13.7559 25.2518 13.6384 25.2913 13.5211C25.2518 13.13 25.0541 13.5995 24.8565 13.5211C24.58 13.6776 24.3429 13.6776 24.0663 13.8341C24.0267 13.5995 24.4615 13.3255 24.3033 13.0518C24.1848 13.5603 23.4734 13.4038 23.3154 13.8732C22.9598 13.7559 23.3945 13.482 23.3945 13.2474C23.3549 13.2083 23.434 13.0518 23.3154 13.0909C23.2363 13.3647 22.9202 13.5211 22.8806 13.7559C22.6831 13.795 22.4856 13.9123 22.4461 14.1079C22.2089 14.0296 22.525 13.795 22.525 13.6384C22.525 13.5603 22.5646 13.482 22.4856 13.4038C22.367 13.443 22.4065 13.5603 22.3275 13.6384C21.8928 13.8341 21.8532 14.2644 21.7347 14.6555C21.4976 14.5773 21.4186 14.4208 21.221 14.4208C21.0629 14.4208 20.9444 14.5381 20.8259 14.4208C20.5887 14.46 20.9049 14.5773 20.8654 14.6555C20.9444 14.6946 21.0234 14.6946 21.1024 14.7337C21.1024 14.8119 20.9444 14.8901 20.8259 14.8511C20.5887 14.7728 20.4702 14.8901 20.2726 14.8119C20.233 14.9292 20.3517 14.9684 20.4702 15.0467C20.6282 15.0076 20.6678 15.3596 20.9049 15.2421C21.1815 15.4769 21.5372 15.2814 21.8532 15.4378C21.6952 15.5551 21.4976 15.516 21.3791 15.6334C21.0234 15.516 20.6678 15.516 20.2726 15.3986C20.075 15.5942 19.7589 15.6334 19.4032 15.7116C19.2847 15.2032 19.996 15.2032 19.9169 14.6946C20.233 14.6555 20.5492 14.5381 20.7074 14.2644C20.7467 14.1079 20.9049 14.0296 21.0234 13.9123C21.6163 13.9905 21.7347 13.2866 22.2089 13.1691C22.3275 13.2083 22.525 13.2083 22.6436 13.0909C22.6831 12.9344 22.8017 12.8954 22.9202 12.8954C23.1573 12.7779 23.3945 13.2083 23.5919 12.8562C23.7501 12.8171 23.9476 13.0127 24.0663 12.8171C24.3824 12.6606 24.5404 13.1691 24.817 12.8562ZM19.2452 16.2593C19.4823 16.6503 19.9565 16.6894 20.075 17.1589C19.9169 17.2762 19.6404 17.3935 19.5612 17.6283C19.669 17.586 20.0035 17.3959 20.1936 17.5109C20.6282 17.8238 20.6678 18.4105 21.1815 18.6452C21.1815 19.1537 21.6952 19.3492 21.6952 19.8577C21.7743 20.0532 21.8532 20.2097 21.8532 20.3661C21.5372 20.6009 21.5767 20.0141 21.3395 19.9359C21.0629 19.7795 20.7074 19.623 20.4306 19.5056C20.5887 18.6844 19.7985 18.6452 19.4823 18.0194C19.3242 17.8628 19.2847 17.5891 19.0475 17.4718C19.008 17.4718 19.0475 17.4327 19.0475 17.4327C19.2452 17.4327 19.4428 17.3544 19.6404 17.3153C19.5612 17.1197 19.3242 17.0415 19.1661 16.8851C18.9685 16.7677 18.8105 17.1979 18.5735 16.9242C18.4944 16.9633 18.4944 17.0024 18.4154 17.0415C18.3364 16.9633 18.2573 16.8067 18.2179 16.6894C18.2179 16.181 18.85 16.2983 19.0475 15.9854C19.2452 15.9462 19.1267 16.181 19.2452 16.2593ZM19.2452 18.9581C19.1267 19.232 19.008 19.5447 18.7316 19.662C18.692 19.7012 18.692 19.7403 18.6525 19.7403C18.5735 19.7795 18.6129 19.7012 18.6129 19.7012C18.6129 19.662 18.6525 19.662 18.692 19.662C18.771 19.5056 18.85 19.3882 18.9685 19.232C19.0475 19.0364 19.0871 18.8407 19.1661 18.6452C19.2847 18.6844 19.2847 18.8407 19.2452 18.9581ZM19.3242 19.7012C19.1267 20.0532 18.771 20.3661 18.2968 20.4053C18.3759 20.2488 18.6129 20.1705 18.771 20.0532C18.929 19.7403 19.1267 19.4274 19.3637 19.1537C19.4428 19.3101 19.4032 19.5447 19.3242 19.7012ZM21.3 16.6894C21.3395 16.9242 21.1419 16.6503 21.1024 16.6894C21.0234 16.6503 21.0234 16.533 20.8654 16.533C20.7467 16.4547 20.5887 16.3374 20.4702 16.2201C20.7862 16.1026 21.1815 16.3765 21.3 16.6894ZM22.6041 15.7116C22.7227 15.6725 22.8413 15.7116 22.8413 15.7898C22.7227 15.7506 22.6041 15.7898 22.6041 15.7116ZM17.1114 16.8067C17.1509 17.0415 16.7952 16.7286 16.8742 17.0024C16.7557 17.0024 16.7162 16.9242 16.7162 16.8459C16.7162 16.7286 16.8742 16.7286 16.9533 16.6894C17.0323 16.6503 17.1114 16.7677 17.1114 16.8067ZM15.7283 11.1352C15.5307 11.1742 15.5307 11.4481 15.3727 11.4872C15.3331 11.409 15.412 11.3308 15.2935 11.3308C15.2935 11.2916 15.3331 11.2525 15.3331 11.2133C15.4912 11.1742 15.5701 11.0569 15.7283 11.0178C15.7677 11.0569 15.7283 11.096 15.7283 11.1352ZM13.6338 11.3308C13.5153 11.409 13.3968 11.6436 13.1992 11.5654C13.0411 10.8614 12.6855 10.2355 12.725 9.49234C12.8435 9.21855 12.962 9.64883 13.0411 9.76605C13.2781 10.2747 13.2387 10.9005 13.6338 11.3308ZM16.321 11.409C16.321 11.4872 16.1629 11.4481 16.1234 11.5263C16.2024 11.6436 16.4 11.6436 16.321 11.8783C16.321 11.9566 16.0444 11.8783 16.1629 12.0349C16.1234 12.0739 15.8864 12.1522 16.0444 12.2303C16.0444 12.3477 15.8467 12.1522 15.7283 12.1522C15.6097 12.1522 15.5307 11.9566 15.5701 11.8393C15.6492 11.6828 15.6887 11.9957 15.8467 11.8783C15.8467 11.6828 15.8467 11.4481 16.0049 11.2916C16.1234 11.2525 16.2419 11.3698 16.321 11.409ZM16.4397 10.9396C16.1629 11.0178 16.321 10.8223 16.3605 10.6658C16.6767 10.3528 16.479 10.8223 16.4397 10.9396ZM16.5977 11.1742C16.5581 11.2916 16.3605 11.2133 16.2419 11.2133C16.2024 11.1742 16.0839 11.1742 16.1629 11.096C16.321 11.096 16.5185 11.0961 16.5977 11.1742ZM13.6338 22.9478C13.5153 22.7522 13.5943 22.4783 13.3968 22.3219C13.3573 22.2437 13.3968 22.0872 13.4757 22.2437C13.6733 22.4001 13.6733 22.6739 13.6338 22.9478ZM14.6613 25.7249C14.6218 25.8813 14.345 25.8422 14.187 25.8422C14.187 25.7249 14.3846 25.6466 14.5033 25.6076C14.5823 25.5684 14.6218 25.6466 14.6613 25.7249ZM16.9414 25.6096C16.8861 25.7546 16.5591 25.6856 16.4 25.7249C16.3605 25.6076 16.6766 25.6466 16.7162 25.412C16.7952 25.412 16.9019 25.5313 16.9414 25.6096ZM13.5548 24.3949C13.7918 24.4733 14.029 24.4341 14.2266 24.5905C14.5976 24.7547 15.4392 25.5909 15.5411 25.483C15.6201 25.6006 15.7751 25.7059 15.6962 25.8623L14.9954 25.9562C14.8767 25.6041 14.6613 25.3338 14.4242 25.1381C14.2266 25.06 13.871 25.1773 13.7918 25.0208C13.7524 24.9817 13.7128 24.9817 13.6338 24.9817C13.3573 24.5515 12.804 24.0821 13.12 23.5344C13.2387 23.5735 13.2387 23.3388 13.3573 23.4171C13.3573 23.6022 13.0893 24.4974 13.5548 24.3949ZM14.6613 24.1212C14.7007 24.1603 14.7403 24.1995 14.7403 24.2384C14.5427 24.2776 14.4637 24.1212 14.3846 24.0039C14.3057 23.7691 14.345 23.6127 14.345 23.378C14.5823 23.2215 14.5033 23.4562 14.5033 23.5735C14.5033 23.9319 14.6613 23.8682 14.6613 24.1212ZM13.3573 22.9868C13.0016 23.2606 12.5274 23.378 12.4088 23.8474C12.3298 23.6908 12.2903 23.5344 12.2903 23.378C12.6459 23.2215 12.962 23.0651 13.1992 22.7913C13.3573 22.5566 13.3968 22.9087 13.3573 22.9868ZM23.0387 16.7677C23.1178 17.1197 23.2759 17.4718 23.2363 17.8628C23.1573 17.9411 23.0387 17.8238 22.9598 17.902C22.8413 17.9411 22.7227 17.902 22.6041 18.0194C22.7227 18.2148 22.9994 18.0976 23.1969 18.1367C23.9082 17.7064 24.8565 18.0585 25.6073 17.6283C25.963 17.5109 25.963 17.9411 26.1211 18.1367C25.963 18.8407 25.9235 19.5447 26.0816 20.2488C26.0421 20.3271 26.0026 20.4053 25.884 20.3661C25.6865 20.3271 25.9235 20.2488 25.884 20.1315C25.7654 19.975 25.6073 19.8577 25.7259 19.662C25.884 19.271 25.8051 18.7625 25.7259 18.3714C25.5678 18.1759 25.3703 18.2932 25.2518 18.2148C24.5404 18.3324 23.8686 18.5279 23.3945 19.0364C23.1969 19.271 22.8806 19.3492 22.5646 19.3492C22.288 19.1537 22.3275 18.8017 22.0508 18.6452C21.8137 18.6452 21.6163 18.4497 21.458 18.3324C21.458 18.2148 21.4186 18.1367 21.3791 18.0585C21.6952 18.1367 22.0904 18.0976 22.3275 18.3324C22.367 18.3714 22.4065 18.2932 22.4065 18.254C22.367 17.7456 21.8928 17.6283 21.6163 17.3153C22.0508 17.3544 22.4461 17.5499 22.8017 17.8238C22.9598 17.5109 22.9994 17.1589 22.9598 16.7677H23.0387ZM27.1091 24.2776V24.356C26.9115 24.356 26.7139 24.4341 26.5163 24.4341C26.5558 24.2384 26.8324 24.2384 26.951 24.1212C27.0696 24.1212 27.03 24.2384 27.1091 24.2776ZM14.227 11.6589C14.1446 11.601 14.012 11.4943 13.9522 11.4815C13.8337 11.5987 13.3968 11.8393 13.3573 11.9957C13.3573 12.0349 13.3573 12.113 13.3968 12.113C13.5943 11.761 13.9302 11.7526 14.227 11.6589Z" fill="#FBBD09"/>
<defs>
<linearGradient id="paint0_linear" x1="9.49719" y1="36.5336" x2="16.0077" y2="33.0363" gradientUnits="userSpaceOnUse">
<stop stop-color="#A4D3E8"/>
<stop offset="0.2" stop-color="#A9D4E8"/>
<stop offset="0.3" stop-color="white"/>
<stop offset="1" stop-color="white"/>
</linearGradient>
<linearGradient id="paint1_linear" x1="5.96602" y1="34.3771" x2="13.4331" y2="28.4832" gradientUnits="userSpaceOnUse">
<stop stop-color="#A4D3E8"/>
<stop offset="0.13" stop-color="#B0D9E9"/>
<stop offset="0.28" stop-color="white"/>
<stop offset="1" stop-color="white"/>
</linearGradient>
<linearGradient id="paint2_linear" x1="21.8769" y1="33.3216" x2="27.6804" y2="36.0557" gradientUnits="userSpaceOnUse">
<stop stop-color="white"/>
<stop offset="0.8" stop-color="#ABD7EB"/>
<stop offset="1" stop-color="#A4D3E8"/>
</linearGradient>
<linearGradient id="paint3_linear" x1="23.7593" y1="28.3682" x2="31.184" y2="34.2287" gradientUnits="userSpaceOnUse">
<stop stop-color="white"/>
<stop offset="0.83" stop-color="#AED8EB"/>
<stop offset="1" stop-color="#A4D3E8"/>
</linearGradient>
</defs>
</svg>
