<svg width="108" height="120" viewBox="0 0 108 120" fill="none" xmlns="http://www.w3.org/2000/svg">
<g opacity="0.4">
<path d="M26.7588 35.3482H4.08798C2.94564 35.3482 1.85697 34.8567 1.10157 33.9996C0.344778 33.1411 -0.00701895 31.9976 0.136419 30.8618C0.610794 27.1008 2.34775 23.5551 5.02736 20.8795L20.8826 5.02427C23.757 2.14591 27.5756 0.380598 31.6338 0.0550509C33.9863 -0.136668 35.9431 1.72286 35.9431 4.02443V26.164C35.9431 31.2283 31.8232 35.3482 26.7588 35.3482ZM7.7372 28.597H26.7588C28.1006 28.597 29.1919 27.5053 29.1919 26.164V7.47654C27.8768 7.99568 26.6709 8.78177 25.6584 9.79615L9.7997 25.6551C8.94423 26.5094 8.24767 27.5093 7.7372 28.597Z" fill="white"/>
<path d="M59.8083 105.624H14.8826C6.67617 105.624 0 98.9477 0 90.7413V33.0096C0 32.598 0.0161722 32.1668 0.0482816 31.7273C0.357188 27.6267 2.12461 23.7773 5.02617 20.88L20.8814 5.0243C23.9721 1.92961 28.0845 0.147656 32.4593 0.00890625C32.6573 0.00398437 32.8359 0 33.0098 0H75.6898C83.8959 0 90.5721 6.67617 90.5721 14.8826V48.9457C90.5721 50.8099 89.0609 52.3212 87.1966 52.3212C85.3324 52.3212 83.8212 50.8099 83.8212 48.9457V14.8826C83.8212 10.3988 80.1736 6.75117 75.6898 6.75117H33.0098C32.891 6.75117 32.7691 6.75445 32.6503 6.7575C30.0227 6.84094 27.5309 7.92047 25.6575 9.79641L9.79875 25.6554C8.03906 27.4123 6.96844 29.7452 6.78141 32.2263C6.76172 32.4949 6.75164 32.7614 6.75164 33.0094V90.7411C6.75164 95.2249 10.3992 98.8725 14.883 98.8725H59.8083C61.6725 98.8725 63.1837 100.384 63.1837 102.248C63.1837 104.112 61.6725 105.624 59.8083 105.624Z" fill="white"/>
<path d="M96.1925 120C93.1876 120 90.3683 118.835 88.2542 116.721L76.5085 104.976L81.2825 100.202L93.028 111.948C93.8671 112.787 94.9909 113.249 96.1925 113.249C97.3939 113.249 98.518 112.787 99.3571 111.948C101.102 110.203 101.102 107.363 99.3571 105.619L87.6116 93.873L92.3853 89.0991L104.131 100.845C106.245 102.959 107.409 105.778 107.409 108.783C107.409 111.788 106.245 114.607 104.131 116.722C102.016 118.835 99.197 120 96.1925 120Z" fill="white"/>
<path d="M70.2633 107.791C63.3415 107.791 56.8334 105.096 51.9387 100.201C41.8346 90.0968 41.8346 73.6561 51.9387 63.5522C56.8332 58.6577 63.3413 55.9619 70.2633 55.9619C77.1856 55.9619 83.6932 58.6577 88.5879 63.5522C98.6921 73.6563 98.6921 90.0968 88.5879 100.201C83.693 105.096 77.1856 107.791 70.2633 107.791ZM70.2633 62.7126C65.1446 62.7126 60.3321 64.706 56.7125 68.3254C49.2406 75.7973 49.2406 87.955 56.7125 95.4272C60.3321 99.0468 65.1443 101.04 70.2633 101.04C75.3823 101.04 80.1945 99.0466 83.8142 95.4272C91.2863 87.955 91.2863 75.7975 83.8142 68.3254C80.1947 64.706 75.3821 62.7126 70.2633 62.7126Z" fill="white"/>
<path d="M19.302 102.954C17.4378 102.954 15.9265 101.443 15.9265 99.5789V48.9454C15.9265 47.0812 17.4378 45.5699 19.302 45.5699C21.1662 45.5699 22.6775 47.0812 22.6775 48.9454V99.5789C22.6777 101.443 21.1664 102.954 19.302 102.954Z" fill="white"/>
</g>
</svg>
