<svg width="58" height="49" viewBox="0 0 58 49" fill="none" xmlns="http://www.w3.org/2000/svg">
<path opacity="0.08" fill-rule="evenodd" clip-rule="evenodd" d="M27.3331 1.49103C33.1143 2.96897 35.4045 8.65703 40.3529 11.5799C45.449 14.5902 53.8483 13.9526 56.4804 18.708C59.0965 23.4343 55.0941 28.8557 52.5458 33.6082C50.2569 37.8768 47.1634 41.7519 42.6563 44.4893C38.1643 47.2175 32.86 49.1744 27.3331 48.9211C21.9656 48.6751 17.6867 45.6015 13.1735 43.1383C8.35825 40.5102 1.7186 38.7988 0.226976 34.1272C-1.2631 29.4604 5.03233 25.6213 6.06238 20.867C7.36153 14.8706 2.05162 7.51588 6.96141 3.04346C11.7104 -1.28252 20.6443 -0.218967 27.3331 1.49103Z" fill="#23346B"/>
<path d="M22.2184 4.38644H38.2599L42.0545 8.7727V33.801L40.4801 37.3938L35.0708 39.493L30.9532 38.2012H15.6132L12.4078 35.6984V14.014C12.2813 14.014 12.1844 13.9025 12.2002 13.7771C12.3312 12.7374 12.8043 11.7631 13.553 11.0156L19.0155 5.55308C19.8145 4.75282 20.8707 4.26784 21.9897 4.17806C22.1125 4.16829 22.2184 4.26332 22.2184 4.38644Z" fill="white"/>
<path d="M20.2173 15.1766H12.4077C12.0142 15.1766 11.6392 15.0073 11.3789 14.7121C11.1182 14.4163 10.9971 14.0224 11.0465 13.6311C11.2099 12.3356 11.8082 11.1142 12.7313 10.1925L18.193 4.73075C19.1832 3.73922 20.4986 3.13111 21.8966 3.01897C22.7069 2.95293 23.381 3.59349 23.381 4.38632V12.0129C23.381 13.7574 21.9618 15.1766 20.2173 15.1766ZM13.6648 12.851H20.2173C20.6795 12.851 21.0554 12.4749 21.0554 12.0129V5.57549C20.6024 5.75433 20.187 6.02512 19.8382 6.37454L14.3752 11.8376C14.0806 12.1319 13.8406 12.4763 13.6648 12.851Z" fill="#23346B"/>
<path d="M31.6025 39.3849H16.1267C13.2998 39.3849 11 37.0851 11 34.2582V14.371C11 14.2292 11.0056 14.0807 11.0166 13.9293C11.123 12.5167 11.7319 11.1907 12.7314 10.1927L18.1931 4.73075C19.2578 3.6647 20.6744 3.05086 22.1815 3.00307C22.2497 3.00137 22.3112 3 22.3711 3H37.0733C39.9001 3 42.1999 5.29978 42.1999 8.12669V19.8606C42.1999 20.5028 41.6793 21.0234 41.0372 21.0234C40.395 21.0234 39.8744 20.5028 39.8744 19.8606V8.12669C39.8744 6.58212 38.6179 5.32562 37.0733 5.32562H22.3711C22.3302 5.32562 22.2882 5.32675 22.2473 5.3278C21.3421 5.35654 20.4837 5.72841 19.8384 6.37463L14.3754 11.8377C13.7693 12.4429 13.4005 13.2465 13.336 14.1012C13.3293 14.1937 13.3258 14.2855 13.3258 14.3709V34.2581C13.3258 35.8027 14.5823 37.0592 16.1269 37.0592H31.6025C32.2447 37.0592 32.7653 37.5798 32.7653 38.222C32.7653 38.8642 32.2447 39.3849 31.6025 39.3849Z" fill="#23346B"/>
<path d="M38.1775 38.3394L42.2235 42.3855C43.2753 43.4372 44.9964 43.4372 46.0482 42.3855C47.0999 41.3337 47.0999 39.6126 46.0482 38.5608L42.0021 34.5147" fill="white"/>
<path d="M44.1356 44.3371C43.1005 44.3371 42.1293 43.936 41.4011 43.2077L37.355 39.1617L38.9995 37.5172L43.0455 41.5633C43.3346 41.8523 43.7217 42.0115 44.1356 42.0115C44.5495 42.0115 44.9367 41.8523 45.2257 41.5633C45.8268 40.9622 45.8268 39.9841 45.2257 39.3831L41.1797 35.337L42.8242 33.6925L46.8702 37.7385C47.5986 38.4669 47.9996 39.4381 47.9996 40.4732C47.9996 41.5083 47.5984 42.4794 46.8702 43.2078C46.1418 43.936 45.1706 44.3371 44.1356 44.3371Z" fill="#23346B"/>
<path d="M35.2036 40.1315C32.8192 40.1315 30.5773 39.2029 28.8912 37.5169C25.4106 34.0362 25.4106 28.3727 28.8912 24.8922C30.5773 23.2062 32.8192 22.2775 35.2036 22.2775C37.5882 22.2775 39.8299 23.2062 41.516 24.8922C44.9967 28.3728 44.9967 34.0362 41.516 37.5169C39.8298 39.2029 37.5882 40.1315 35.2036 40.1315ZM35.2036 24.603C33.4403 24.603 31.7826 25.2896 30.5357 26.5365C27.9618 29.1103 27.9618 33.2984 30.5357 35.8724C31.7826 37.1193 33.4403 37.8058 35.2036 37.8058C36.967 37.8058 38.6247 37.1192 39.8716 35.8724C42.4455 33.2984 42.4455 29.1104 39.8716 26.5365C38.6248 25.2896 36.9669 24.603 35.2036 24.603Z" fill="#23346B"/>
<path d="M17.6486 38.4653C17.0064 38.4653 16.4858 37.9447 16.4858 37.3025V19.8605C16.4858 19.2183 17.0064 18.6978 17.6486 18.6978C18.2908 18.6978 18.8114 19.2183 18.8114 19.8605V37.3025C18.8115 37.9447 18.2909 38.4653 17.6486 38.4653Z" fill="#23346B"/>
</svg>
