<svg width="216" height="142" viewBox="0 0 216 142" fill="none" xmlns="http://www.w3.org/2000/svg">
<rect width="215.999" height="141.655" fill="white"/>
<path d="M48.5389 86.1304V89.483H48.9114C50.4945 89.483 51.3327 88.9242 51.3327 87.8067C51.3327 86.6892 50.4945 86.1304 48.9114 86.1304H48.5389ZM51.9846 91.4387L56.1753 96.9332H51.7983L48.5389 91.7181V96.9332H45V83.4297H50.2152C51.6121 83.4297 52.7296 83.8022 53.5678 84.4541C54.499 85.1991 54.8715 86.2235 54.8715 87.6204C54.8715 88.5517 54.5922 89.3899 54.1265 90.0418C53.6609 90.8799 52.9159 91.2524 51.9846 91.4387Z" fill="#4E5054"/>
<path d="M65.1157 86.5025H61.0181V88.7376H64.9295V91.6246H61.0181V94.0459H65.1157V96.9329H57.4792V83.5225H65.1157V86.5025Z" fill="#4E5054"/>
<path d="M66.6987 96.9329V83.5225H70.1445L76.5703 91.7177H76.6634V83.5225H80.1091V96.9329H76.6634L70.2376 88.7376H70.1445V96.9329H66.6987Z" fill="#4E5054"/>
<path d="M89.5152 91.9043L88.1182 87.6204L86.6282 91.9043H89.5152ZM90.5396 94.605H85.6969L84.7656 96.9332H81.0405L86.2557 83.4297H90.0739L95.1959 96.9332H91.4708L90.5396 94.605Z" fill="#4E5054"/>
<path d="M99.573 83.5225H96.0342V97.026H99.573V83.5225Z" fill="#4E5054"/>
<path d="M110.003 84.2678L108.606 86.9685C107.861 86.4097 107.116 86.0372 106.278 86.0372C105.906 86.0372 105.533 86.1304 105.254 86.3166C104.881 86.5029 104.695 86.7823 104.695 87.1548C104.695 87.7135 105.254 88.1792 106.278 88.4586L107.209 88.7379C108.234 89.0173 109.072 89.483 109.538 89.9486C110.189 90.6005 110.469 91.3455 110.469 92.3699C110.469 93.9531 110.003 95.1638 109.072 96.0019C108.047 96.8401 106.837 97.3057 105.254 97.3057C103.577 97.3057 101.994 96.7469 100.504 95.8156L101.994 93.0218C103.019 93.9531 104.136 94.4187 105.067 94.4187C105.533 94.4187 105.906 94.3256 106.278 94.0462C106.651 93.7668 106.837 93.4874 106.837 93.0218C106.837 92.5562 106.557 92.2768 106.092 91.9974C105.812 91.8112 105.347 91.718 104.788 91.5318C103.484 91.1593 102.646 90.7868 102.18 90.4142C101.529 89.8555 101.156 88.9242 101.156 87.8067C101.156 86.4097 101.622 85.3853 102.46 84.5472C103.298 83.709 104.416 83.3365 105.812 83.3365C107.302 83.1503 108.699 83.5228 110.003 84.2678Z" fill="#4E5054"/>
<path d="M120.34 84.2678L118.943 86.9685C118.198 86.4097 117.453 86.0372 116.615 86.0372C116.243 86.0372 115.87 86.1304 115.591 86.3166C115.218 86.5029 115.032 86.7823 115.032 87.1548C115.032 87.7135 115.591 88.1792 116.615 88.4586L117.547 88.7379C118.571 89.0173 119.409 89.483 119.875 89.9486C120.527 90.6005 120.806 91.3455 120.806 92.3699C120.806 93.9531 120.34 95.1638 119.409 96.0019C118.385 96.8401 117.174 97.3057 115.591 97.3057C113.915 97.3057 112.331 96.7469 110.841 95.8156L112.331 93.0218C113.356 93.9531 114.473 94.4187 115.405 94.4187C115.87 94.4187 116.243 94.3256 116.615 94.0462C116.988 93.7668 117.174 93.4874 117.174 93.0218C117.174 92.5562 116.895 92.2768 116.429 91.9974C116.15 91.8112 115.684 91.718 115.125 91.5318C113.821 91.1593 112.983 90.7868 112.518 90.4142C111.866 89.8555 111.493 88.9242 111.493 87.8067C111.493 86.4097 111.959 85.3853 112.797 84.5472C113.635 83.709 114.753 83.3365 116.15 83.3365C117.64 83.1503 119.037 83.5228 120.34 84.2678Z" fill="#4E5054"/>
<path d="M129.281 91.9043L127.884 87.6204L126.394 91.9043H129.281ZM130.212 94.605H125.369L124.438 96.9332H120.713L125.928 83.4297H129.746L134.775 96.9332H131.05L130.212 94.605Z" fill="#4E5054"/>
<path d="M136.172 96.9329V83.5225H139.711L146.137 91.7177V83.5225H149.676V96.9329H146.137L139.711 88.7376V96.9329H136.172Z" fill="#4E5054"/>
<path d="M160.944 83.8018V87.9925C160.199 86.9681 159.175 86.5025 157.871 86.5025C156.846 86.5025 155.915 86.875 155.263 87.62C154.611 88.365 154.239 89.2032 154.239 90.3207C154.239 91.4383 154.611 92.2764 155.263 92.9283C155.915 93.5802 156.846 93.9527 157.871 93.9527C159.082 93.9527 160.106 93.4871 160.851 92.5558V96.7465C159.454 97.119 158.43 97.3984 157.778 97.3984C155.822 97.3984 154.146 96.7465 152.749 95.4428C151.352 94.139 150.607 92.4627 150.607 90.3207C150.607 88.365 151.259 86.7819 152.563 85.3849C153.96 83.8949 155.729 83.243 157.685 83.243C158.802 83.1499 159.827 83.3361 160.944 83.8018Z" fill="#4E5054"/>
<path d="M170.164 86.5025H165.973V88.7376H169.978V91.6246H165.973V94.0459H170.164V96.9329H162.527V83.5225H170.164V86.5025Z" fill="#4E5054"/>
<path d="M82 30.1439C82 30.0225 85.807 28.8082 90.3508 28.3226C103.122 27.2298 114.175 28.9297 119.824 33.1795C123.631 36.0936 123.508 42.2862 119.456 44.7146C115.035 47.3859 109.631 47.6288 100.421 48.6001C98.2103 48.843 95.1402 49.0858 95.1402 49.3287C95.1402 49.693 109.263 56.614 111.719 57.8283C114.789 59.2853 132.35 69.1206 132.964 69.8491C133.333 70.2134 130.754 69.8491 130.14 69.4849C127.07 68.0278 123.631 66.085 123.385 66.8135C123.14 67.5421 124.859 68.9992 123.631 68.9992C123.14 68.9992 113.07 64.1423 111.842 63.4137C110.859 62.928 108.526 61.8352 108.158 62.5638C107.912 63.1709 108.772 64.9922 107.912 64.7494C107.052 64.5065 92.1928 57.8283 88.0175 55.0355C83.5965 52.1214 82.4912 47.993 85.3157 45.4432C89.8595 41.4362 95.7542 42.1647 103.737 41.0719C106.684 40.7077 111.596 39.9791 111.596 37.3078C111.473 32.4509 106.561 31.1153 95.6314 29.9011C92.3156 29.5368 90.4736 29.5368 86.421 30.0225C85.3157 30.1439 85.9298 29.5368 84.2105 29.7796C82.9824 30.2653 82 30.2653 82 30.1439Z" fill="#4F66A8"/>
<path d="M57.2197 108.338C56.754 107.873 56.1952 107.593 55.6365 107.407C55.3571 107.314 55.0777 107.221 54.7983 107.128C54.5189 107.035 54.2396 107.035 53.8671 107.035C52.6564 107.035 51.7251 107.407 50.9801 108.152C50.2351 108.897 49.8626 109.922 49.8626 111.132C49.8626 112.343 50.2351 113.274 50.9801 114.019C51.7251 114.764 52.6564 115.137 53.6808 115.137C54.0533 115.137 54.3327 115.137 54.6121 115.044C54.8915 114.951 55.1708 114.857 55.5433 114.764C56.1021 114.578 56.6609 114.206 57.2197 113.74V115.696C56.754 116.068 56.1952 116.254 55.6365 116.441C55.3571 116.534 55.0777 116.627 54.7983 116.627C54.5189 116.72 54.1464 116.72 53.8671 116.72C53.0289 116.72 52.2839 116.627 51.5389 116.347C50.7938 116.068 50.2351 115.696 49.6763 115.137C49.1175 114.578 48.745 114.019 48.4656 113.274C48.1863 112.529 48 111.784 48 111.039C48 110.294 48.1863 109.456 48.4656 108.804C48.745 108.059 49.1175 107.5 49.6763 106.942C50.2351 106.383 50.7938 106.01 51.5389 105.731C52.2839 105.452 53.0289 105.358 53.7739 105.358C54.1464 105.358 54.4258 105.358 54.7052 105.452C54.9846 105.452 55.264 105.545 55.6365 105.638C56.1952 105.824 56.754 106.103 57.3128 106.476L57.2197 108.338Z" fill="#4E5054"/>
<path d="M68.6742 111.226C68.6742 110.667 68.581 110.109 68.3948 109.643C68.2085 109.177 67.9291 108.712 67.5566 108.339C67.1841 107.967 66.7185 107.687 66.2528 107.501C65.7872 107.315 65.2284 107.222 64.7628 107.222C64.204 107.222 63.7384 107.315 63.2728 107.501C62.8071 107.687 62.3415 107.967 61.969 108.432C61.5965 108.805 61.3171 109.27 61.1308 109.736C61.0377 110.015 60.9446 110.202 60.9446 110.481C60.8514 110.76 60.8514 111.04 60.8514 111.319C60.8514 111.878 60.9446 112.437 61.1308 112.902C61.2239 113.182 61.3171 113.368 61.5033 113.647C61.5965 113.834 61.7827 114.02 61.969 114.299C62.3415 114.672 62.714 114.951 63.2728 115.137C63.7384 115.324 64.2972 115.417 64.8559 115.417C65.4147 115.417 65.8803 115.324 66.346 115.137C66.8116 114.951 67.2773 114.672 67.6498 114.299C68.0223 113.927 68.3017 113.461 68.4879 112.995C68.581 112.25 68.6742 111.692 68.6742 111.226ZM70.5367 111.226C70.5367 111.971 70.3505 112.716 70.0711 113.461C69.7917 114.113 69.3261 114.765 68.7673 115.324C68.2085 115.882 67.5566 116.255 66.9047 116.534C66.1597 116.814 65.4147 117 64.6697 117C63.9247 117 63.1796 116.814 62.4346 116.534C61.6896 116.255 61.1308 115.789 60.5721 115.324C60.0133 114.765 59.6408 114.206 59.3614 113.461C59.082 112.809 58.8958 112.064 58.8958 111.226C58.8958 110.481 59.082 109.736 59.3614 108.991C59.6408 108.339 60.1064 107.687 60.6652 107.128C61.2239 106.57 61.8758 106.197 62.5277 105.918C63.2728 105.638 64.0178 105.452 64.7628 105.452C65.5078 105.452 66.2529 105.638 66.9979 105.918C67.7429 106.197 68.3017 106.57 68.8604 107.128C69.4192 107.687 69.7917 108.246 70.1642 108.991C70.4436 109.736 70.5367 110.388 70.5367 111.226Z" fill="#4E5054"/>
<path d="M72.5857 116.627V105.358L79.4771 111.97L80.0359 112.529C80.2222 112.715 80.4084 112.995 80.6878 113.274V105.731H82.3641V116.999L75.2864 110.201C75.1933 110.108 75.1001 110.015 75.007 109.922C75.007 109.922 74.9139 109.829 74.7276 109.642C74.5414 109.456 74.3551 109.177 74.262 108.99V116.534H72.5857V116.627Z" fill="#4E5054"/>
<path d="M84.1338 114.392L85.5307 113.74C85.6238 114.206 85.9032 114.578 86.2757 114.857C86.6482 115.137 87.1139 115.23 87.6726 115.23C88.2314 115.23 88.6039 115.044 88.8833 114.764C89.1627 114.485 89.3489 114.112 89.3489 113.554C89.3489 112.902 88.7902 112.343 87.7658 111.877L87.3933 111.691C86.1826 111.132 85.4376 110.574 84.9719 110.108C84.5994 109.642 84.32 109.084 84.32 108.338C84.32 107.5 84.5994 106.755 85.2513 106.197C85.8101 105.638 86.6482 105.358 87.5795 105.358C88.4177 105.358 89.0696 105.545 89.6283 105.824C90.1871 106.103 90.5596 106.569 90.7459 107.128L89.3489 107.873C89.1627 107.5 88.8833 107.314 88.6039 107.128C88.3245 106.942 88.0452 106.848 87.6726 106.848C87.207 106.848 86.8345 106.942 86.5551 107.221C86.2757 107.5 86.1826 107.78 86.1826 108.245C86.1826 108.897 86.8345 109.549 88.0452 110.108L88.2314 110.201C89.2558 110.667 90.0008 111.132 90.4665 111.691C90.839 112.157 91.1184 112.715 91.1184 113.461C91.1184 114.485 90.839 115.323 90.1871 115.882C89.5352 116.534 88.697 116.813 87.5795 116.813C86.6482 116.813 85.9032 116.627 85.3445 116.161C84.7857 115.789 84.32 115.23 84.1338 114.392Z" fill="#4E5054"/>
<path d="M96.6124 107.221V116.627H94.843V107.221H91.9561V105.731H99.4994V107.221H96.6124Z" fill="#4E5054"/>
<path d="M102.666 110.387H102.945C103.877 110.387 104.529 110.294 104.808 110.015C105.087 109.828 105.274 109.456 105.274 108.897C105.274 108.338 105.087 107.873 104.808 107.593C104.435 107.314 103.877 107.221 102.945 107.221H102.666V110.387ZM102.48 111.691V116.534H100.803V105.638H103.318C104.063 105.638 104.622 105.731 104.994 105.731C105.367 105.824 105.739 106.01 106.019 106.196C106.391 106.476 106.577 106.755 106.764 107.221C106.857 107.407 106.95 107.593 106.95 107.873C107.043 108.152 107.043 108.338 107.043 108.618C107.043 109.456 106.857 110.201 106.391 110.667C106.019 111.132 105.367 111.412 104.529 111.598L108.254 116.534H106.205L102.573 111.691H102.48Z" fill="#4E5054"/>
<path d="M109.371 105.731H111.141V112.344C111.141 113.368 111.327 114.02 111.793 114.579C112.258 115.044 112.91 115.324 113.841 115.324C114.773 115.324 115.425 115.044 115.89 114.579C116.356 114.113 116.542 113.368 116.542 112.344V105.731H118.312V112.53C118.312 114.02 117.939 115.137 117.194 115.789C116.449 116.534 115.332 116.907 113.841 116.907C112.351 116.907 111.234 116.534 110.489 115.789C109.744 115.044 109.371 113.927 109.371 112.53V105.731Z" fill="#4E5054"/>
<path d="M129.393 108.338C128.928 107.873 128.369 107.593 127.81 107.407C127.531 107.314 127.252 107.221 126.972 107.128C126.693 107.035 126.413 107.035 126.041 107.035C124.83 107.035 123.899 107.407 123.154 108.152C122.409 108.897 122.036 109.922 122.036 111.132C122.036 112.343 122.409 113.274 123.154 114.019C123.899 114.764 124.83 115.137 125.855 115.137C126.227 115.137 126.507 115.137 126.786 115.044C127.065 114.951 127.345 114.857 127.717 114.764C128.276 114.578 128.835 114.206 129.393 113.74V115.696C128.928 116.068 128.369 116.254 127.81 116.441C127.531 116.534 127.252 116.627 126.972 116.627C126.693 116.72 126.32 116.72 126.041 116.72C125.203 116.72 124.458 116.627 123.713 116.347C123.061 116.068 122.409 115.696 121.85 115.137C121.291 114.578 120.919 114.019 120.639 113.274C120.36 112.529 120.174 111.784 120.174 111.039C120.174 110.294 120.267 109.456 120.639 108.804C120.919 108.059 121.291 107.5 121.85 106.942C122.409 106.383 122.968 106.01 123.713 105.731C124.458 105.452 125.203 105.358 125.948 105.358C126.32 105.358 126.6 105.358 126.879 105.452C127.158 105.452 127.438 105.545 127.81 105.638C128.369 105.824 128.928 106.103 129.487 106.476L129.393 108.338Z" fill="#4E5054"/>
<path d="M135.167 107.221V116.627H133.398V107.221H130.511V105.731H137.961V107.221H135.167Z" fill="#4E5054"/>
<path d="M141.128 105.731H139.358V116.627H141.128V105.731Z" fill="#4E5054"/>
<path d="M152.955 111.226C152.955 110.667 152.862 110.109 152.676 109.643C152.489 109.177 152.21 108.712 151.837 108.339C151.465 107.967 150.999 107.687 150.534 107.501C150.068 107.315 149.509 107.222 149.044 107.222C148.485 107.222 148.019 107.315 147.554 107.501C147.088 107.687 146.622 107.967 146.25 108.432C145.877 108.805 145.598 109.27 145.412 109.736C145.318 110.015 145.225 110.202 145.225 110.481C145.132 110.76 145.132 111.04 145.132 111.319C145.132 111.878 145.225 112.437 145.412 112.902C145.505 113.182 145.598 113.368 145.784 113.647C145.97 113.834 146.063 114.02 146.25 114.299C146.622 114.672 147.088 114.951 147.554 115.137C148.019 115.324 148.578 115.417 149.137 115.417C149.695 115.417 150.161 115.324 150.627 115.137C151.092 114.951 151.558 114.672 151.931 114.299C152.303 113.927 152.582 113.461 152.769 112.995C152.862 112.25 152.955 111.692 152.955 111.226ZM154.817 111.226C154.817 111.971 154.631 112.716 154.352 113.461C154.072 114.113 153.607 114.765 153.048 115.324C152.489 115.882 151.837 116.255 151.186 116.534C150.44 116.814 149.695 117 148.95 117C148.205 117 147.46 116.814 146.715 116.534C145.97 116.255 145.412 115.789 144.853 115.324C144.294 114.765 143.922 114.206 143.642 113.461C143.363 112.809 143.177 112.064 143.177 111.226C143.177 110.481 143.27 109.736 143.642 108.991C143.922 108.339 144.387 107.687 144.946 107.128C145.505 106.57 146.157 106.197 146.809 105.918C147.554 105.638 148.299 105.452 149.044 105.452C149.789 105.452 150.534 105.638 151.279 105.918C152.024 106.197 152.582 106.57 153.141 107.128C153.7 107.687 154.072 108.246 154.445 108.991C154.724 109.736 154.817 110.388 154.817 111.226Z" fill="#4E5054"/>
<path d="M156.866 116.627V105.358L163.758 111.97L164.316 112.529C164.503 112.715 164.689 112.995 164.968 113.274V105.731H166.645V116.999L159.567 110.201C159.474 110.108 159.381 110.015 159.288 109.922C159.288 109.922 159.194 109.829 159.008 109.642C158.822 109.456 158.636 109.177 158.543 108.99V116.534H156.866V116.627Z" fill="#4E5054"/>
</svg>
