<svg width="215" height="142" viewBox="0 0 215 142" fill="none" xmlns="http://www.w3.org/2000/svg">
<rect x="0.00219727" y="0.344727" width="214.995" height="141.655" fill="white"/>
<path d="M115.47 60.0347C123.002 60.0347 124.377 63.6734 124.377 65.6948C124.377 68.1826 122.486 70.204 119.494 70.7013V70.8255C121.901 71.1362 124.928 72.5675 124.928 75.988C124.928 81.4921 118.049 81.8028 114.988 81.8028H100.991V60.0347H115.47ZM109.726 68.6485H111.893C115.057 68.6485 115.366 67.156 115.366 66.5333C115.366 65.6313 114.644 64.4503 112.099 64.4503H109.726V68.6485ZM109.726 77.3868H112.065C115.023 77.3868 115.504 75.9256 115.504 75.1476C115.504 72.9403 112.649 72.9403 111.859 72.9403H109.726V77.3868Z" fill="#23378B"/>
<path d="M137.135 60.035V72.4739H137.273L143.361 60.035H154.125V81.803H144.908V69.613H144.77L138.683 81.803H127.919V60.035H137.135Z" fill="#23378B"/>
<path d="M177.318 81.3066C174.533 81.9912 172.491 82.1775 170.736 82.1775C161.417 82.1775 156.361 77.4816 156.361 70.9206C156.361 65.3226 160.247 59.6635 170.977 59.6635C173.729 59.6635 175.757 60.0679 176.859 60.2545L177.345 60.3477V66.1005C176.004 65.6333 174.417 65.261 172.56 65.261C168.639 65.261 166.06 67.5932 166.06 70.7341C166.06 72.755 166.954 76.3627 172.731 76.3627C173.626 76.3627 174.842 76.2385 177.318 75.5232V81.3066Z" fill="#23378B"/>
<path d="M61.962 83.8543L62.7186 68.8737C57.5019 71.649 53.9471 77.1477 53.9471 83.4816C53.9471 89.8149 57.5019 95.3136 62.7186 98.0891L61.962 83.8543Z" fill="url(#paint0_linear)"/>
<path d="M70.9318 48.6873L70.5013 44.2838L101.446 98.0438L63.0802 98.0233C66.4969 96.3592 71.057 90.952 70.9318 83.8156V48.6873Z" fill="url(#paint1_linear)"/>
<path d="M65.7493 36L30 98.0205L56.6341 98.0231C55.9232 97.6088 55.9319 97.4885 54.599 96.359C51.5795 93.7995 49.3974 88.5307 49.3578 82.9919C49.3074 75.9309 53.407 70.4849 56.3098 66.9439C56.7883 66.2841 66.7315 55.5737 67.6733 48.4447C68.5414 41.866 65.7493 36 65.7493 36Z" fill="url(#paint2_linear)"/>
<path d="M65.7484 36.0006C65.7484 36.0006 69.3866 42.3546 68.167 48.9183C66.7473 56.5811 59.9958 63.7065 56.8863 67.4469C54.4687 70.3547 52.9997 72.3416 51.3765 76.1169C50.3241 78.5655 49.968 81.697 50.0167 83.4398C50.101 86.4633 50.6324 89.7079 52.172 92.6602C53.0617 94.3653 54.3252 96.1658 56.6173 98.007C56.6173 98.007 45.656 93.1388 46.0916 81.9777C46.526 70.8562 54.3615 64.0413 60.9237 55.6184C69.2021 44.9806 65.7484 36.0006 65.7484 36.0006Z" fill="url(#paint3_linear)"/>
<path d="M63.0814 98.0236C66.4986 96.3594 70.6256 90.8472 70.5054 83.7107V83.4302V83.3524V44.2841C70.5054 44.2841 74.3813 53.6566 78.6674 69.8574C80.7098 77.5721 83.0636 85.8062 76.7843 91.1578C70.131 96.8274 63.1316 98.0124 63.1316 98.0124L63.0814 98.0236Z" fill="url(#paint4_linear)"/>
<path d="M62.7197 68.8788C62.7197 68.8788 58.0066 74.6094 58.0066 83.1613C58.0066 92.6001 62.7197 98.031 62.7197 98.031V68.8788Z" fill="url(#paint5_linear)"/>
<defs>
<linearGradient id="paint0_linear" x1="56.0357" y1="95.6504" x2="65.4437" y2="69.8679" gradientUnits="userSpaceOnUse">
<stop offset="0.0659" stop-color="#22317F"/>
<stop offset="0.7143" stop-color="#76C9F2"/>
<stop offset="0.7563" stop-color="#6FC6F1"/>
<stop offset="0.8061" stop-color="#58BEED"/>
<stop offset="0.8599" stop-color="#1DB1E8"/>
<stop offset="0.9162" stop-color="#00A1DF"/>
<stop offset="0.9725" stop-color="#008ED5"/>
</linearGradient>
<linearGradient id="paint1_linear" x1="74.6852" y1="102.258" x2="92.8626" y2="52.4436" gradientUnits="userSpaceOnUse">
<stop stop-color="#0075BF"/>
<stop offset="0.0621" stop-color="#0073BD"/>
<stop offset="0.1214" stop-color="#006DB6"/>
<stop offset="0.1795" stop-color="#0062AB"/>
<stop offset="0.237" stop-color="#00539D"/>
<stop offset="0.2934" stop-color="#0D3F8B"/>
<stop offset="0.3297" stop-color="#22317F"/>
<stop offset="0.455" stop-color="#202D76"/>
<stop offset="0.5931" stop-color="#1E2A70"/>
<stop offset="0.7539" stop-color="#1D296C"/>
<stop offset="0.989" stop-color="#1D286B"/>
</linearGradient>
<linearGradient id="paint2_linear" x1="41.7597" y1="102.312" x2="65.9325" y2="36.0669" gradientUnits="userSpaceOnUse">
<stop stop-color="#FFD240"/>
<stop offset="0.0801" stop-color="#FDCA39"/>
<stop offset="0.2122" stop-color="#F6B524"/>
<stop offset="0.3791" stop-color="#EA9200"/>
<stop offset="0.3956" stop-color="#E88E00"/>
<stop offset="0.6254" stop-color="#F2A700"/>
<stop offset="0.8506" stop-color="#FAB900"/>
<stop offset="1" stop-color="#FCBF00"/>
</linearGradient>
<linearGradient id="paint3_linear" x1="48.8732" y1="95.1811" x2="69.9135" y2="37.5205" gradientUnits="userSpaceOnUse">
<stop stop-color="#A75000"/>
<stop offset="0.0629" stop-color="#BA6900"/>
<stop offset="0.1531" stop-color="#D18800"/>
<stop offset="0.2405" stop-color="#E2A100"/>
<stop offset="0.323" stop-color="#EDB000"/>
<stop offset="0.3956" stop-color="#F0B500"/>
<stop offset="1" stop-color="#7D3200"/>
</linearGradient>
<linearGradient id="paint4_linear" x1="69.4456" y1="99.1487" x2="78.8826" y2="45.765" gradientUnits="userSpaceOnUse">
<stop stop-color="#008ED5"/>
<stop offset="0.0943" stop-color="#00A5E2"/>
<stop offset="0.1766" stop-color="#42B8EB"/>
<stop offset="0.2432" stop-color="#6AC5F0"/>
<stop offset="0.2857" stop-color="#76C9F2"/>
<stop offset="0.2918" stop-color="#74C7F0"/>
<stop offset="0.3992" stop-color="#529BD1"/>
<stop offset="0.5069" stop-color="#3C77B6"/>
<stop offset="0.6127" stop-color="#305CA0"/>
<stop offset="0.7162" stop-color="#2A4891"/>
<stop offset="0.8167" stop-color="#263B86"/>
<stop offset="0.9129" stop-color="#233380"/>
<stop offset="1" stop-color="#22317F"/>
</linearGradient>
<linearGradient id="paint5_linear" x1="60.3632" y1="98.0311" x2="60.3632" y2="68.8789" gradientUnits="userSpaceOnUse">
<stop stop-color="#0075BF"/>
<stop offset="0.118" stop-color="#0066AF"/>
<stop offset="0.3714" stop-color="#113E89"/>
<stop offset="0.4505" stop-color="#22317F"/>
<stop offset="0.6014" stop-color="#202E78"/>
<stop offset="0.8381" stop-color="#1E2A6E"/>
<stop offset="0.989" stop-color="#1D286B"/>
</linearGradient>
</defs>
</svg>
