<svg width="215" height="142" viewBox="0 0 215 142" fill="none" xmlns="http://www.w3.org/2000/svg">
<rect y="0.344727" width="214.995" height="141.655" fill="white"/>
<path d="M140.389 31.5292H157.73V74.4751H140.389V73.2173H156.472V32.6073H140.389V31.5292ZM123.049 31.5292H140.389V32.6073H124.307V73.2173H140.389V74.4751H123.049V31.5292Z" fill="#021E4E"/>
<path d="M126.738 35.2123H153.961V39.7944C143.359 37.2787 133.656 47.7008 130.601 56.5954C135.992 50.2164 148.57 44.2866 153.422 51.2047C156.476 56.3259 143.718 72.0488 126.738 66.119V35.2123Z" fill="#0678BE"/>
<path d="M139.756 70.0727C145.416 68.6351 150.088 65.1312 153.862 60.3694V70.0727H139.756Z" fill="#0678BE"/>
<path d="M88.0116 37.8196C88.0116 38.3587 87.9218 38.8977 87.6522 39.2571C87.3827 39.7063 87.1132 39.9759 86.7538 40.2454C86.3944 40.515 85.9452 40.6946 85.496 40.7845C85.0467 40.9642 84.5077 40.9642 83.9686 40.9642H78.488V28.7452H83.3397C83.8787 28.7452 84.328 28.8351 84.7772 28.9249C85.2264 29.0148 85.6756 29.1945 86.1249 29.464C86.4843 29.7335 86.8436 30.0031 87.1132 30.4523C87.3827 30.8117 87.4726 31.3508 87.4726 31.8898C87.4726 32.339 87.3827 32.6984 87.2929 32.968C87.1132 33.2375 86.9335 33.507 86.7538 33.7766C86.4843 33.9563 86.2147 34.1359 85.9452 34.3156C85.5858 34.4953 85.3163 34.5852 84.867 34.675C85.3163 34.7649 85.6756 34.9446 86.035 35.0344C86.3944 35.2141 86.7538 35.3938 87.0233 35.6633C87.2929 35.9328 87.5624 36.2024 87.6522 36.5618C87.9218 36.9211 88.0116 37.2805 88.0116 37.8196ZM84.6873 31.9797C84.6873 31.5304 84.5975 31.0812 84.5077 30.8117C84.4178 30.5421 84.2381 30.2726 84.0584 30.1828C83.8787 30.0031 83.6092 29.9132 83.2498 29.9132C82.8904 29.8234 82.5311 29.8234 82.1717 29.8234L81.5428 30.8117V34.2258C81.6326 34.2258 81.8123 34.2258 81.9022 34.2258C82.0818 34.2258 82.2615 34.2258 82.4412 34.2258C82.6209 34.2258 82.8006 34.2258 82.8904 34.2258C83.0701 34.2258 83.16 34.2258 83.16 34.2258C83.6991 34.1359 84.0584 33.9563 84.328 33.5969C84.5077 33.2375 84.6873 32.6984 84.6873 31.9797ZM85.0467 37.8196C85.0467 36.9211 84.867 36.2922 84.5077 35.9329C84.1483 35.4836 83.6092 35.3039 82.8904 35.2141C82.8006 35.2141 82.7108 35.2141 82.6209 35.2141C82.5311 35.2141 82.3514 35.2141 82.1717 35.2141C81.992 35.2141 81.9022 35.2141 81.7225 35.2141C81.6326 35.2141 81.4529 35.2141 81.3631 35.2141V40.2454C81.4529 40.2454 81.5428 40.2454 81.6326 40.2454C81.8123 40.2454 81.9022 40.2454 82.0818 40.2454C82.2615 40.2454 82.3514 40.2454 82.5311 40.2454C82.6209 40.2454 82.8006 40.2454 82.8006 40.2454C83.16 40.2454 83.4295 40.1556 83.6991 40.0657C83.9686 39.9759 84.1483 39.886 84.328 39.7063C84.5077 39.5267 84.6874 39.347 84.7772 38.9876C84.9569 38.6282 85.0467 38.2688 85.0467 37.8196Z" fill="#021E4E"/>
<path d="M89.353 41.054V28.7452C89.8023 28.7452 90.2515 28.7452 90.7007 28.6554C91.1499 28.6554 91.5992 28.5656 92.0484 28.5656V41.054H89.353Z" fill="#021E4E"/>
<path d="M102.47 40.7835C102.11 40.8733 101.841 40.9632 101.482 41.053C101.122 41.1428 100.763 41.1428 100.403 41.1428C99.9542 41.1428 99.5948 41.053 99.2354 40.8733C98.8761 40.6936 98.6964 40.3342 98.6065 39.885C98.337 40.3342 97.9776 40.6936 97.6182 40.8733C97.2588 41.053 96.8096 41.1428 96.2705 41.1428C95.3721 41.1428 94.7432 40.8733 94.2041 40.4241C93.7549 39.885 93.4854 39.2561 93.4854 38.4475C93.4854 37.9084 93.5752 37.3693 93.8447 37.0998C94.1143 36.7404 94.3838 36.4709 94.7432 36.2912C95.1026 36.1115 95.5518 35.9318 95.9112 35.7521C96.3604 35.6623 96.7198 35.4826 97.0792 35.3029C97.4385 35.1232 97.7979 34.9435 97.9776 34.7638C98.2471 34.4943 98.337 34.2248 98.337 33.8654C98.337 33.4162 98.1573 33.0568 97.8878 32.7872C97.6182 32.5177 97.2588 32.338 96.8096 32.338C96.3604 32.338 95.9112 32.5177 95.6416 32.7872C95.2823 33.0568 95.1026 33.4162 95.1026 33.8654C95.1026 34.0451 95.1026 34.2248 95.1924 34.4045C95.1924 34.5842 95.2823 34.7638 95.3721 34.9435L94.1143 34.674C94.0244 34.4045 94.0244 34.2248 94.0244 33.9552C94.0244 33.506 94.1143 33.1466 94.3838 32.8771C94.6533 32.6076 94.9229 32.4279 95.2823 32.2482C95.6416 32.0685 96.001 31.9786 96.4502 31.8888C96.8096 31.799 97.2588 31.799 97.5284 31.799C97.8878 31.799 98.2471 31.799 98.6065 31.8888C99.0557 31.9786 99.4151 32.0685 99.7745 32.1583C100.134 32.2482 100.493 32.5177 100.673 32.7872C100.942 33.0568 101.032 33.4162 101.032 33.8654V39.4358C101.032 39.6155 101.032 39.885 101.212 40.0647C101.302 40.2444 101.482 40.3342 101.751 40.3342C101.841 40.3342 101.931 40.3342 102.021 40.2444C102.11 40.2444 102.2 40.1545 102.29 40.1545L102.47 40.7835ZM98.4268 35.3928C98.1573 35.7521 97.8878 35.9318 97.6182 36.1115C97.3487 36.2014 97.0792 36.3811 96.8995 36.5607C96.7198 36.7404 96.4502 36.9201 96.3604 37.1897C96.2705 37.4592 96.1807 37.9084 96.1807 38.5373C96.1807 38.717 96.1807 38.8967 96.1807 39.0764C96.1807 39.2561 96.2705 39.4358 96.2705 39.6155C96.3604 39.7952 96.4502 39.9749 96.5401 40.0647C96.6299 40.1545 96.8096 40.2444 96.9893 40.2444C97.2588 40.2444 97.4385 40.1545 97.6182 40.0647C97.7979 39.9749 97.9776 39.7952 98.0675 39.5256C98.1573 39.3459 98.2471 39.0764 98.337 38.8069C98.4268 38.5373 98.4268 38.3576 98.4268 38.0881V35.3928Z" fill="#021E4E"/>
<path d="M110.379 38.0881C110.379 38.6272 110.289 39.0764 110.109 39.5256C109.93 39.9749 109.66 40.2444 109.39 40.5139C109.031 40.7835 108.672 40.9632 108.223 41.053C107.773 41.2327 107.324 41.2327 106.785 41.2327C106.066 41.2327 105.437 41.1428 104.898 40.8733C104.359 40.6038 104 40.3342 103.64 39.885C103.281 39.4358 103.101 38.9866 102.922 38.3576C102.742 37.8186 102.742 37.1897 102.742 36.4709C102.742 35.842 102.832 35.2131 103.011 34.674C103.191 34.1349 103.461 33.5959 103.91 33.1466C104.269 32.6974 104.719 32.338 105.258 32.0685C105.797 31.7989 106.426 31.7091 107.055 31.7091C107.504 31.7091 107.863 31.799 108.223 31.8888C108.582 31.9786 108.941 32.1583 109.211 32.338C109.48 32.6076 109.75 32.7872 109.84 33.1466C110.019 33.506 110.109 33.8654 110.109 34.3146L109.75 34.8537L108.941 35.2131C108.941 35.1232 108.941 34.9435 108.941 34.7638C108.941 34.5841 108.941 34.4943 108.941 34.3146C108.941 34.0451 108.941 33.8654 108.851 33.5959C108.762 33.3263 108.762 33.1466 108.582 32.9669C108.492 32.7872 108.312 32.6076 108.133 32.5177C107.953 32.4279 107.683 32.338 107.414 32.338C106.965 32.338 106.605 32.5177 106.336 32.7872C106.066 33.0568 105.887 33.4162 105.707 33.8654C105.617 34.3146 105.527 34.674 105.437 35.1232C105.437 35.5724 105.437 35.9318 105.437 36.2912V36.5607C105.437 36.8303 105.437 37.01 105.437 37.2795C105.437 37.549 105.437 37.8186 105.437 38.0881C105.437 38.3576 105.527 38.6272 105.527 38.8967C105.617 39.1663 105.617 39.3459 105.707 39.5256C105.887 39.885 106.066 40.0647 106.336 40.2444C106.605 40.4241 106.875 40.5139 107.234 40.5139C107.504 40.5139 107.863 40.4241 108.043 40.3342C108.312 40.2444 108.492 40.0647 108.672 39.7952C108.851 39.5256 108.941 39.2561 109.031 38.9866C109.121 38.717 109.121 38.4475 109.121 38.0881C109.121 37.9084 109.121 37.7287 109.121 37.549C109.121 37.3693 109.031 37.1897 109.031 37.01L110.199 37.3693V38.0881H110.379Z" fill="#021E4E"/>
<path d="M116.938 41.0532L115.141 36.7406L114.422 37.6391V40.9633H111.727V28.7444C112.176 28.7444 112.625 28.7444 113.074 28.6545C113.524 28.6545 113.973 28.5647 114.422 28.4749V36.4711L118.016 31.9788H119.094L116.938 34.5843L119.723 41.0532H116.938Z" fill="#021E4E"/>
<path d="M100.041 54.62C100.041 55.2489 99.8617 55.8778 99.5922 56.4169C99.2328 56.956 98.8734 57.3154 98.3343 57.6747C97.8851 57.9443 97.5257 58.124 96.9867 58.2138C96.5374 58.3037 95.9984 58.3935 95.5491 58.3935C95.0101 58.3935 94.5608 58.3037 94.0218 58.2138C93.5725 58.0341 93.1233 57.8544 92.6741 57.5849C92.3147 57.3154 91.9553 56.956 91.7756 56.5068C91.5061 56.1474 91.4163 55.6083 91.4163 55.0692C91.4163 54.8895 91.4163 54.7997 91.4163 54.7099C91.4163 54.62 91.4163 54.4403 91.4163 54.3505L92.8538 53.9911C92.7639 54.2606 92.7639 54.4403 92.6741 54.7099C92.6741 54.9794 92.6741 55.1591 92.6741 55.4286C92.6741 55.788 92.7639 56.0575 92.9436 56.3271C93.1233 56.5966 93.303 56.8661 93.5725 57.0458C93.8421 57.2255 94.1116 57.4052 94.3812 57.4951C94.7405 57.5849 95.0101 57.6747 95.2796 57.6747C95.5491 57.6747 95.8187 57.6747 96.0882 57.5849C96.3577 57.4951 96.6273 57.4052 96.807 57.2255C97.0765 57.0458 97.2562 56.8661 97.346 56.5966C97.4359 56.3271 97.5257 56.0575 97.5257 55.788C97.5257 55.3388 97.346 54.8895 97.0765 54.62C96.807 54.3505 96.4476 54.0809 95.9984 53.9012C95.5491 53.7216 95.0999 53.452 94.5608 53.2723C94.0218 53.0926 93.5725 52.8231 93.1233 52.5536C92.6741 52.284 92.3147 51.8348 91.9553 51.3856C91.596 50.9364 91.5061 50.3074 91.4163 49.5887C91.4163 49.0496 91.5061 48.5105 91.6858 48.0613C91.8655 47.6121 92.135 47.2527 92.4944 46.8933C92.8538 46.5339 93.303 46.3543 93.7522 46.1746C94.2015 45.9949 94.7405 45.905 95.2796 45.905C95.9984 45.905 96.6273 45.9949 97.1663 46.1746C97.7953 46.3543 98.2445 46.7136 98.6937 47.2527C98.9633 47.5222 99.0531 47.8816 99.1429 48.241C99.2328 48.6004 99.2328 49.0496 99.2328 49.409L97.8851 49.7684C97.8851 49.5887 97.975 49.4988 97.975 49.3191C97.975 49.1395 97.975 49.0496 97.975 48.8699C97.975 48.5105 97.8851 48.241 97.7054 47.9715C97.5257 47.7019 97.346 47.5222 97.0765 47.3426C96.807 47.1629 96.5374 47.073 96.1781 46.9832C95.9085 46.8933 95.5491 46.8933 95.1898 46.8933C94.9202 46.8933 94.6507 46.8933 94.471 46.9832C94.2015 47.073 94.0218 47.1629 93.7522 47.2527C93.5725 47.4324 93.3929 47.6121 93.303 47.7918C93.2132 47.9715 93.1233 48.241 93.1233 48.5105C93.1233 48.9598 93.303 49.409 93.5725 49.6785C93.8421 49.9481 94.2913 50.2176 94.7405 50.3973C95.1898 50.577 95.8187 50.8465 96.3577 51.0262C96.8968 51.2059 97.4359 51.4754 97.975 51.8348C98.4242 52.1942 98.8734 52.5536 99.2328 53.0028C99.8617 53.1825 100.041 53.8114 100.041 54.62Z" fill="#021E4E"/>
<path d="M108.762 55.0683C108.762 56.1465 108.403 56.9551 107.864 57.4043C107.325 57.9434 106.516 58.1231 105.438 58.1231C104.629 58.1231 104.001 58.0332 103.372 57.7637C102.743 57.4942 102.293 57.0449 101.934 56.5957C101.665 56.1465 101.395 55.6973 101.305 55.1582C101.215 54.6191 101.125 54.08 101.125 53.4511C101.125 52.8222 101.215 52.2831 101.395 51.6542C101.575 51.1152 101.844 50.5761 102.204 50.1269C102.563 49.6776 103.012 49.3182 103.551 49.0487C104.001 48.7792 104.629 48.6893 105.258 48.6893C106.067 48.6893 106.786 48.869 107.325 49.3182C107.864 49.7675 108.313 50.3964 108.493 51.1152C108.583 51.5644 108.672 51.9238 108.762 52.373C108.762 52.8222 108.762 53.1816 108.762 53.6308H103.911C103.911 53.9902 103.911 54.4394 104.001 54.8886C104.001 55.3379 104.09 55.7871 104.18 56.1465C104.27 56.5059 104.45 56.8652 104.719 57.1348C104.989 57.4043 105.348 57.4942 105.887 57.4942C106.157 57.4942 106.426 57.4942 106.696 57.3145C106.876 57.2246 107.055 57.0449 107.235 56.8652C107.415 56.6855 107.504 56.5059 107.594 56.2363C107.684 55.9668 107.684 55.7871 107.684 55.5176C107.684 55.3379 107.684 55.248 107.684 55.1582C107.684 55.0683 107.684 54.8886 107.684 54.7988L108.762 55.0683ZM106.426 52.8222C106.426 52.4628 106.426 52.1933 106.337 51.7441C106.337 51.3847 106.247 51.0253 106.157 50.6659C106.157 50.5761 106.067 50.3964 106.067 50.2167C105.977 50.1269 105.977 49.9472 105.887 49.8573C105.797 49.7675 105.708 49.6776 105.618 49.5878C105.528 49.4979 105.348 49.4979 105.258 49.4979C104.899 49.4979 104.629 49.6776 104.45 49.8573C104.27 50.1269 104.18 50.3964 104.09 50.7558C104.001 51.1152 104.001 51.4745 104.001 51.8339C104.001 52.1933 104.001 52.5527 103.911 52.8222H106.426Z" fill="#021E4E"/>
<path d="M118.818 57.7648C118.459 57.9445 118.19 58.0343 117.83 58.0343C117.471 58.1242 117.111 58.1242 116.752 58.1242C116.303 58.1242 115.943 58.0343 115.584 57.8546C115.225 57.6749 115.045 57.4054 114.955 56.8663C114.686 57.3156 114.326 57.6749 113.967 57.8546C113.607 58.0343 113.158 58.1242 112.619 58.1242C111.721 58.1242 111.092 57.8546 110.553 57.4054C110.104 56.9562 109.834 56.2374 109.834 55.4288C109.834 54.8897 109.924 54.4405 110.193 54.0811C110.463 53.7218 110.732 53.4522 111.092 53.2725C111.451 53.0928 111.9 52.9131 112.26 52.7335C112.709 52.6436 113.068 52.4639 113.428 52.2842C113.787 52.1045 114.147 51.9249 114.326 51.7452C114.596 51.4756 114.686 51.2061 114.686 50.8467C114.686 50.3975 114.596 50.0381 114.326 49.7686C114.057 49.499 113.697 49.3193 113.248 49.3193C112.799 49.3193 112.35 49.499 112.08 49.7686C111.721 50.0381 111.541 50.3975 111.541 50.8467C111.541 51.0264 111.541 51.2061 111.631 51.3858C111.631 51.5655 111.721 51.7452 111.811 51.9249L110.463 51.6553C110.373 51.3858 110.373 51.2061 110.373 50.9366C110.373 50.4873 110.463 50.128 110.732 49.8584C111.002 49.5889 111.272 49.4092 111.631 49.2295C111.99 49.0498 112.35 48.96 112.799 48.8701C113.248 48.7803 113.607 48.7803 113.877 48.7803C114.236 48.7803 114.596 48.7803 115.045 48.8701C115.494 48.8701 115.854 48.96 116.213 49.1397C116.572 49.3193 116.932 49.499 117.111 49.7686C117.381 50.0381 117.471 50.3975 117.471 50.8467V56.4171C117.471 56.5968 117.471 56.8663 117.561 57.046C117.651 57.2257 117.83 57.4054 118.1 57.4054C118.19 57.4054 118.279 57.4054 118.369 57.4054C118.459 57.4054 118.549 57.3156 118.639 57.3156L118.818 57.7648ZM114.775 52.3741C114.506 52.7335 114.236 52.9132 113.967 53.003C113.697 53.0928 113.428 53.2725 113.248 53.4522C113.068 53.6319 112.889 53.8116 112.709 54.0811C112.619 54.3507 112.529 54.7999 112.529 55.4288C112.529 55.6085 112.529 55.7882 112.529 55.9679C112.529 56.1476 112.619 56.3273 112.619 56.507C112.709 56.6866 112.799 56.8663 112.889 56.9562C112.979 57.046 113.158 57.1359 113.338 57.1359C113.607 57.1359 113.787 57.046 113.967 56.9562C114.147 56.8663 114.326 56.6866 114.416 56.4171C114.506 56.2374 114.596 55.9679 114.686 55.6983C114.686 55.4288 114.775 55.2491 114.775 54.9796V52.3741Z" fill="#021E4E"/>
<path d="M64.379 63.784V75.0146H61.2344V63.784H58.2695V62.7058H67.3439V63.784H64.379Z" fill="#021E4E"/>
<path d="M74.3446 67.2881C74.3446 67.5576 74.3446 67.917 74.2547 68.1866C74.1649 68.4561 74.1649 68.7256 73.9852 69.085H72.0984C72.1883 68.8155 72.2781 68.6358 72.2781 68.3663C72.368 68.0967 72.368 67.8272 72.368 67.6475C72.368 67.5576 72.368 67.378 72.2781 67.1983C72.2781 67.0186 72.0985 66.9287 72.0086 66.9287C71.7391 66.9287 71.5594 67.0186 71.3797 67.1983C71.2 67.378 71.1102 67.6475 71.0203 67.917C70.9305 68.1866 70.8406 68.5459 70.8406 68.8155C70.7508 69.085 70.7508 69.3546 70.7508 69.5342V75.0148H68.0554V65.9404C68.5046 65.9404 68.9539 65.9404 69.4031 65.9404C69.8523 65.9404 70.3015 65.8506 70.7508 65.7607V67.4678C70.8406 67.2881 70.9305 67.0186 71.1102 66.8389C71.2 66.6592 71.3797 66.4795 71.5594 66.2998C71.7391 66.1201 71.9188 66.0303 72.1883 65.9404C72.368 65.8506 72.6375 65.7607 72.9071 65.7607C73.3563 65.7607 73.7157 65.9404 73.8954 66.2998C74.2547 66.5693 74.3446 66.9287 74.3446 67.2881Z" fill="#021E4E"/>
<path d="M83.966 74.7455C83.6066 74.8353 83.2472 74.9252 82.9777 75.015C82.6183 75.1049 82.2589 75.1049 81.8995 75.1049C81.4503 75.1049 81.0011 75.015 80.7315 74.8353C80.3722 74.6557 80.1925 74.2963 80.1026 73.847C79.8331 74.2963 79.4737 74.6557 79.1143 74.8353C78.7549 75.015 78.3057 75.1049 77.7666 75.1049C76.958 75.1049 76.2393 74.8353 75.79 74.3861C75.251 73.9369 75.0713 73.2181 75.0713 72.4095C75.0713 71.8705 75.251 71.3314 75.4307 71.0619C75.7002 70.7025 75.9697 70.4329 76.3291 70.2532C76.6885 70.0736 77.0479 69.8939 77.4971 69.7142C77.9463 69.6243 78.3057 69.4446 78.6651 69.2649C79.0245 69.0853 79.294 68.9056 79.5635 68.7259C79.8331 68.4563 79.9229 68.1868 79.9229 67.8274C79.9229 67.3782 79.7432 67.0188 79.4737 66.7493C79.2042 66.4797 78.8448 66.3001 78.3956 66.3001C77.9463 66.3001 77.4971 66.4797 77.2276 66.7493C76.8682 67.0188 76.7783 67.3782 76.7783 67.8274C76.7783 68.0071 76.7783 68.1868 76.8682 68.3665C76.958 68.5462 76.958 68.7259 77.0479 68.9056L75.6104 68.636C75.5205 68.3665 75.5205 68.1868 75.5205 67.9173C75.5205 67.468 75.6104 67.1087 75.8799 66.8391C76.0596 66.5696 76.419 66.3899 76.7783 66.2102C77.1377 66.0305 77.4971 65.9407 77.9463 65.8508C78.3956 65.761 78.7549 65.761 79.0245 65.761C79.3839 65.761 79.7432 65.761 80.1925 65.8508C80.6417 65.8508 81.0011 65.9407 81.3604 66.1204C81.7198 66.2102 82.0792 66.4797 82.2589 66.7493C82.5284 67.0188 82.6183 67.3782 82.6183 67.8274V73.3978C82.6183 73.5775 82.6183 73.8471 82.7081 74.0267C82.798 74.2064 82.9777 74.3861 83.2472 74.3861C83.337 74.3861 83.4269 74.3861 83.5167 74.3861C83.6066 74.3861 83.6964 74.2963 83.7863 74.2963L83.966 74.7455ZM79.9229 69.3548C79.6534 69.7142 79.3839 69.8939 79.1143 69.9837C78.8448 70.0736 78.5752 70.2532 78.3956 70.4329C78.2159 70.6126 78.0362 70.7923 77.8565 71.0619C77.6768 71.3314 77.6768 71.7806 77.6768 72.4095C77.6768 72.5892 77.6768 72.7689 77.6768 72.9486C77.6768 73.1283 77.7666 73.3978 77.7666 73.5775C77.8565 73.7572 77.8565 73.9369 78.0362 74.0267C78.126 74.1166 78.3057 74.2064 78.4854 74.2064C78.7549 74.2064 78.9346 74.1166 79.1143 74.0267C79.294 73.9369 79.3839 73.7572 79.5635 73.4877C79.6534 73.308 79.7432 73.0384 79.8331 72.7689C79.8331 72.4994 79.9229 72.3197 79.9229 72.0501V69.3548Z" fill="#021E4E"/>
<path d="M89.5296 75.0146V74.1161C89.2601 74.4755 88.9007 74.7451 88.6312 74.9248C88.3616 75.1044 87.9124 75.1943 87.3733 75.1943C86.7444 75.1943 86.2054 75.0146 85.7561 74.7451C85.3069 74.4755 85.0374 74.0263 84.7678 73.5771C84.4983 73.1279 84.4085 72.5888 84.3186 72.0497C84.2288 71.5106 84.2288 70.9716 84.2288 70.4325C84.2288 69.8934 84.2288 69.4442 84.4085 68.8153C84.4983 68.2762 84.678 67.7371 84.9475 67.2879C85.2171 66.8387 85.5764 66.4793 85.9358 66.1199C86.385 65.8504 86.9241 65.6707 87.4632 65.6707C88.0023 65.6707 88.4515 65.8504 88.721 66.0301C88.9906 66.2996 89.2601 66.659 89.5296 67.1082V62.7058C89.9788 62.7058 90.4281 62.7058 90.8773 62.7058C91.3265 62.7058 91.7758 62.616 92.225 62.5261V75.0146H89.5296ZM89.5296 70.4325C89.5296 70.0731 89.5296 69.8036 89.5296 69.4442C89.5296 69.0848 89.5296 68.8153 89.4398 68.4559C89.4398 68.2762 89.3499 68.0965 89.3499 67.9168C89.2601 67.7371 89.1702 67.5575 89.0804 67.3778C88.9906 67.1981 88.8109 67.1082 88.721 66.9285C88.5413 66.8387 88.3616 66.7488 88.1819 66.7488C88.0023 66.7488 87.8226 66.7488 87.6429 66.9285C87.553 67.0184 87.3733 67.1981 87.2835 67.2879C87.1937 67.4676 87.1038 67.6473 87.1038 67.827C87.1038 68.0067 87.014 68.1864 87.014 68.3661C87.014 68.4559 87.014 68.5457 86.9241 68.8153C86.9241 68.995 86.9241 69.2645 86.8343 69.534C86.8343 69.8036 86.8343 69.9833 86.8343 70.163C86.8343 70.3426 86.8343 70.5223 86.8343 70.5223V71.6903C86.8343 71.87 86.8343 72.1396 86.8343 72.4091C86.8343 72.6786 86.9241 72.9482 87.014 73.2177C87.1038 73.4872 87.1936 73.6669 87.3733 73.8466C87.553 74.0263 87.7327 74.1161 88.0023 74.1161C88.2718 74.1161 88.4515 74.0263 88.5413 73.9365C88.721 73.8466 88.8109 73.6669 88.9906 73.4872C89.0804 73.3075 89.1702 73.1278 89.2601 72.9482C89.2601 72.7685 89.3499 72.4989 89.3499 72.3192C89.3499 72.2294 89.3499 72.1396 89.3499 71.9599C89.3499 71.7802 89.3499 71.6005 89.3499 71.3309C89.3499 71.1513 89.3499 70.9716 89.3499 70.702C89.5296 70.6122 89.5296 70.4325 89.5296 70.4325Z" fill="#021E4E"/>
<path d="M101.389 72.0494C101.389 73.1276 101.029 73.9362 100.49 74.3854C99.9513 74.9245 99.0528 75.1041 98.0645 75.1041C97.2559 75.1041 96.5372 74.9245 95.9981 74.6549C95.3692 74.3854 94.9199 74.026 94.5606 73.4869C94.291 73.0377 94.1113 72.5885 93.9316 72.0494C93.8418 71.5103 93.752 70.9713 93.752 70.3424C93.752 69.7134 93.8418 69.1744 94.0215 68.5455C94.2012 68.0064 94.4707 67.4673 94.8301 67.0181C95.1895 66.5689 95.6387 66.2095 96.0879 65.9399C96.627 65.6704 97.1661 65.5806 97.8848 65.5806C98.6934 65.5806 99.4122 65.7603 99.9513 66.2095C100.49 66.6587 100.85 67.2876 101.119 68.0064C101.299 68.4556 101.299 68.815 101.389 69.2642C101.389 69.7134 101.389 70.0728 101.389 70.522H96.5372C96.5372 70.8814 96.5372 71.3307 96.5372 71.7799C96.5372 72.2291 96.627 72.5885 96.7168 73.0377C96.8067 73.3971 96.9864 73.7565 97.2559 74.026C97.5254 74.2955 97.8848 74.3854 98.4239 74.3854C98.6934 74.3854 98.963 74.2955 99.1427 74.2057C99.3223 74.1159 99.5919 73.9362 99.6817 73.7565C99.8614 73.5768 99.9513 73.3971 100.041 73.1276C100.131 72.858 100.221 72.6783 100.221 72.4088C100.221 72.319 100.221 72.1393 100.221 72.0494C100.221 71.9596 100.221 71.7799 100.221 71.69L101.389 72.0494ZM98.963 69.8033C98.963 69.4439 98.963 69.1744 98.963 68.7251C98.963 68.3658 98.8731 68.0064 98.7833 67.5572C98.7833 67.3775 98.6934 67.2876 98.6934 67.1079C98.6036 66.9282 98.6036 66.8384 98.5137 66.7485C98.4239 66.6587 98.3341 66.5689 98.2442 66.479C98.1544 66.3892 97.9747 66.3892 97.8848 66.3892C97.5254 66.3892 97.2559 66.479 97.0762 66.7485C96.8965 67.0181 96.8067 67.2876 96.7168 67.647C96.627 68.0064 96.5372 68.3658 96.5372 68.7251C96.5372 69.0845 96.5372 69.4439 96.5372 69.7134H98.963V69.8033Z" fill="#021E4E"/>
<path d="M114.868 75.0146L114.328 74.1161C113.879 74.4755 113.52 74.7451 113.071 74.9248C112.621 75.1044 112.082 75.1943 111.543 75.1943C111.004 75.1943 110.555 75.1044 110.106 74.9248C109.657 74.7451 109.207 74.4755 108.848 74.1161C108.489 73.7568 108.219 73.3974 107.949 72.9482C107.77 72.4989 107.68 72.0497 107.68 71.5106C107.68 71.0614 107.77 70.6122 107.949 70.2528C108.129 69.8934 108.309 69.534 108.668 69.2645C108.938 68.995 109.297 68.7254 109.657 68.5457C110.016 68.3661 110.375 68.0965 110.735 67.9168C110.465 67.5574 110.196 67.1082 110.016 66.659C109.836 66.2098 109.657 65.7605 109.657 65.3113C109.657 64.8621 109.746 64.5027 109.926 64.1433C110.106 63.784 110.285 63.5144 110.645 63.2449C110.914 62.9754 111.274 62.7957 111.633 62.7058C111.992 62.616 112.352 62.5261 112.801 62.5261C113.16 62.5261 113.43 62.616 113.789 62.7058C114.149 62.7957 114.418 62.9753 114.598 63.155C114.868 63.3347 115.047 63.6043 115.137 63.8738C115.317 64.1433 115.317 64.5027 115.317 64.8621C115.317 65.491 115.137 66.0301 114.778 66.4793C114.418 66.9285 113.969 67.2879 113.43 67.5574L115.676 71.3309C116.125 70.6122 116.395 69.8934 116.575 69.1747C116.754 68.4559 116.934 67.6473 117.024 66.8387H117.832C117.832 67.827 117.653 68.7254 117.383 69.6239C117.114 70.5223 116.664 71.3309 116.215 72.1395L118.012 74.9248H114.868V75.0146ZM111.004 68.8153C110.645 68.995 110.375 69.1747 110.106 69.534C109.836 69.7137 109.746 70.0731 109.746 70.5223C109.746 70.8817 109.836 71.2411 109.926 71.6903C110.106 72.1395 110.285 72.4989 110.555 72.8583C110.825 73.2177 111.094 73.5771 111.364 73.7568C111.723 74.0263 112.082 74.1161 112.442 74.1161C112.711 74.1161 112.981 74.0263 113.25 73.9365C113.52 73.7568 113.7 73.5771 113.879 73.3974L111.004 68.8153ZM114.239 65.1316C114.239 64.9519 114.239 64.6824 114.149 64.5027C114.059 64.323 113.969 64.1433 113.789 63.9636C113.7 63.784 113.52 63.6941 113.34 63.6043C113.16 63.4246 112.981 63.4246 112.801 63.4246C112.442 63.4246 112.262 63.5144 111.993 63.784C111.813 63.9636 111.633 64.2332 111.633 64.5926C111.633 64.7723 111.633 65.0418 111.723 65.2215C111.813 65.491 111.903 65.6707 112.082 65.8504C112.172 66.0301 112.352 66.2996 112.442 66.4793C112.621 66.659 112.711 66.8387 112.801 67.0184C113.16 66.8387 113.52 66.5692 113.789 66.2098C114.149 65.9402 114.239 65.5809 114.239 65.1316Z" fill="#021E4E"/>
<path d="M69.2294 85.8852C69.2294 86.7837 69.1396 87.5923 68.9599 88.311C68.7802 89.0298 68.4208 89.7486 67.9716 90.2876C67.5223 90.8267 66.9833 91.2759 66.2645 91.5455C65.5457 91.815 64.7371 91.9947 63.7488 91.9947H59.4363V79.6859H63.9285C64.827 79.6859 65.6356 79.8656 66.3544 80.1351C67.0731 80.4047 67.6122 80.8539 68.0614 81.393C68.5106 81.932 68.7802 82.561 69.0497 83.3696C69.1396 84.1782 69.2294 84.9868 69.2294 85.8852ZM66.1747 85.9751C66.1747 85.3462 66.1747 84.7172 66.0848 84.0883C65.995 83.4594 65.9051 82.8305 65.7254 82.2914C65.6356 81.7524 65.3661 81.393 64.9168 81.0336C64.5575 80.6742 64.0184 80.5844 63.3895 80.5844H62.2215V91.0064H63.3895C64.2879 91.0064 65.0067 90.647 65.4559 89.9283C65.6356 89.6587 65.7254 89.3892 65.8153 89.1197C65.9051 88.7603 65.995 88.4907 65.995 88.1314C66.0848 87.772 66.0848 87.4126 66.0848 87.0532C66.1747 86.6938 66.1747 86.3345 66.1747 85.9751Z" fill="#021E4E"/>
<path d="M78.1232 89.0296C78.1232 90.1078 77.7638 90.9164 77.2247 91.3656C76.6856 91.9047 75.877 92.0844 74.7989 92.0844C73.9903 92.0844 73.3614 91.9047 72.7325 91.725C72.1035 91.4555 71.6543 91.0062 71.2949 90.557C71.0254 90.1078 70.7559 89.6586 70.666 89.1195C70.5762 88.5804 70.4863 88.0413 70.4863 87.4124C70.4863 86.7835 70.5762 86.2444 70.7559 85.6155C70.9356 85.0764 71.2051 84.5374 71.5645 84.0882C71.9239 83.6389 72.3731 83.2796 72.9121 83.01C73.4512 82.7405 73.9903 82.6506 74.6192 82.6506C75.4278 82.6506 76.1466 82.8303 76.6856 83.2795C77.2247 83.7288 77.5841 84.2678 77.8536 85.0765C77.9435 85.5257 78.0333 85.8851 78.1232 86.3343C78.1232 86.7835 78.1232 87.1429 78.1232 87.5921H73.2715C73.2715 87.9515 73.2715 88.4007 73.3614 88.85C73.3614 89.2992 73.4512 89.7484 73.5411 90.1078C73.6309 90.4672 73.8106 90.8265 74.0801 91.0961C74.3497 91.3656 74.709 91.4555 75.2481 91.4555C75.5177 91.4555 75.7872 91.3656 76.0567 91.2758C76.3263 91.1859 76.506 91.0062 76.5958 90.8265C76.7755 90.6469 76.8653 90.4672 76.9552 90.1976C77.045 89.9281 77.045 89.7484 77.045 89.389C77.045 89.2992 77.045 89.1195 77.045 89.0296C77.045 88.9398 77.045 88.7601 77.045 88.6703L78.1232 89.0296ZM75.6973 86.7835C75.6973 86.4241 75.6973 86.1546 75.6973 85.7054C75.6973 85.346 75.6075 84.8968 75.5177 84.5374C75.5177 84.4475 75.4278 84.2678 75.4278 84.0882C75.338 83.9085 75.338 83.8186 75.2481 83.7288C75.1583 83.6389 75.0684 83.5491 74.9786 83.4592C74.8887 83.3694 74.7091 83.3694 74.6192 83.3694C74.2598 83.3694 73.9903 83.4592 73.8106 83.7288C73.6309 83.9983 73.5411 84.2678 73.4512 84.6272C73.3614 84.9866 73.3614 85.346 73.2715 85.7054C73.2715 86.0648 73.2715 86.4241 73.1817 86.6038H75.6973V86.7835Z" fill="#021E4E"/>
<path d="M83.4295 91.9954H81.5428L78.488 82.921H81.2732L83.3397 89.4797L85.4061 82.921H86.3046L83.4295 91.9954Z" fill="#021E4E"/>
<path d="M94.3876 89.0296C94.3876 90.1078 94.0282 90.9164 93.4891 91.3656C92.95 91.9047 92.1414 92.0844 91.0633 92.0844C90.2547 92.0844 89.5359 91.9047 88.9969 91.725C88.3679 91.4555 87.9187 91.0062 87.5593 90.557C87.2898 90.1078 87.0203 89.6586 86.9304 89.1195C86.8406 88.5804 86.7507 88.0413 86.7507 87.4124C86.7507 86.7835 86.8406 86.2444 87.0203 85.6155C87.2 85.0764 87.4695 84.5374 87.8289 84.0882C88.1883 83.6389 88.6375 83.2796 89.1765 83.01C89.7156 82.7405 90.2547 82.6506 90.8836 82.6506C91.6922 82.6506 92.411 82.8303 92.95 83.2795C93.4891 83.7288 93.8485 84.2678 94.118 85.0765C94.2079 85.5257 94.2977 85.8851 94.3876 86.3343C94.3876 86.7835 94.3876 87.1429 94.3876 87.5921H89.5359C89.5359 87.9515 89.5359 88.4007 89.6258 88.85C89.6258 89.2992 89.7156 89.7484 89.8055 90.1078C89.8953 90.4672 90.1648 90.8265 90.3445 91.0961C90.6141 91.3656 90.9735 91.4555 91.5125 91.4555C91.7821 91.4555 92.0516 91.3656 92.2313 91.2758C92.411 91.1859 92.6805 91.0062 92.8602 90.8265C93.0399 90.6469 93.1297 90.4672 93.2196 90.1976C93.3094 89.9281 93.3094 89.7484 93.3094 89.389C93.3094 89.2992 93.3094 89.1195 93.3094 89.0296C93.3094 88.9398 93.3094 88.7601 93.3094 88.6703L94.3876 89.0296ZM92.0516 86.7835C92.0516 86.4241 92.0516 86.1546 92.0516 85.7054C92.0516 85.346 91.9617 84.8968 91.9617 84.5374C91.9617 84.4475 91.8719 84.2678 91.8719 84.0882C91.8719 83.9085 91.7821 83.8186 91.6922 83.7288C91.6024 83.6389 91.5125 83.5491 91.4227 83.4592C91.3328 83.3694 91.1531 83.3694 91.0633 83.3694C90.7039 83.3694 90.4344 83.4592 90.2547 83.7288C90.075 83.9983 89.9852 84.2678 89.8953 84.6272C89.8055 84.9866 89.8055 85.346 89.8055 85.7054C89.8055 86.0648 89.8055 86.4241 89.7156 86.6038H92.0516V86.7835Z" fill="#021E4E"/>
<path d="M95.9077 91.9947V79.6859C96.3569 79.6859 96.8062 79.6859 97.2554 79.5961C97.7046 79.5961 98.1538 79.5062 98.6031 79.5062V91.9947H95.9077Z" fill="#021E4E"/>
<path d="M108.312 87.4124C108.312 88.0413 108.223 88.6703 108.043 89.2992C107.863 89.8382 107.594 90.3773 107.324 90.8265C106.965 91.2758 106.515 91.5453 106.066 91.8148C105.527 92.0844 104.898 92.1742 104.18 92.1742C103.461 92.1742 102.832 92.0844 102.293 91.8148C101.754 91.5453 101.304 91.2758 101.035 90.8265C100.676 90.3773 100.496 89.9281 100.316 89.2992C100.136 88.7601 100.047 88.1312 100.047 87.4124C100.047 86.6937 100.136 86.0647 100.316 85.5257C100.496 84.9866 100.676 84.4475 101.035 83.9983C101.394 83.5491 101.754 83.2796 102.293 83.01C102.832 82.7405 103.461 82.6506 104.18 82.6506C104.898 82.6506 105.527 82.7405 106.066 83.01C106.605 83.2796 107.055 83.5491 107.324 83.9983C107.683 84.4475 107.863 84.8968 108.043 85.5257C108.223 86.1546 108.312 86.7835 108.312 87.4124ZM105.527 87.4124C105.527 87.053 105.527 86.6038 105.527 86.1546C105.527 85.7054 105.437 85.2561 105.347 84.8069C105.347 84.6272 105.258 84.5374 105.168 84.3577C105.168 84.178 105.078 83.9983 104.988 83.9085C104.898 83.7288 104.808 83.6389 104.629 83.5491C104.449 83.4592 104.359 83.3694 104.18 83.3694C103.91 83.3694 103.73 83.4592 103.64 83.5491C103.551 83.7288 103.371 83.9085 103.281 84.0882C103.191 84.2678 103.101 84.5374 103.101 84.7171C103.101 84.9866 103.012 85.1663 103.012 85.346C103.012 85.7054 102.922 86.0647 102.922 86.4241C102.922 86.7835 102.922 87.1429 102.922 87.4124C102.922 87.7718 102.922 88.221 102.922 88.6703C102.922 89.1195 103.012 89.5687 103.101 90.0179C103.101 90.1976 103.191 90.2875 103.191 90.4672C103.281 90.6468 103.281 90.8265 103.371 90.9164C103.461 91.0961 103.551 91.1859 103.73 91.2758C103.82 91.3656 104 91.4555 104.18 91.4555C104.449 91.4555 104.629 91.3656 104.719 91.2758C104.898 91.0961 104.988 91.0062 105.078 90.7367C105.168 90.557 105.258 90.2875 105.258 90.1078C105.258 89.8382 105.347 89.6586 105.347 89.4789C105.347 89.1195 105.437 88.7601 105.437 88.4007C105.527 88.0413 105.527 87.7718 105.527 87.4124Z" fill="#021E4E"/>
<path d="M117.929 87.4127C117.929 87.9517 117.929 88.4908 117.749 89.1197C117.659 89.6588 117.48 90.1979 117.21 90.6471C116.941 91.0963 116.671 91.4557 116.222 91.8151C115.773 92.0846 115.233 92.2643 114.515 92.2643C113.976 92.2643 113.616 92.1745 113.347 91.9948C113.077 91.8151 112.808 91.5455 112.448 91.1862V95.1394H109.753V82.9204C110.202 82.9204 110.651 82.9204 111.101 82.8306C111.55 82.8306 111.999 82.7407 112.448 82.6509V84.2681C112.718 83.8189 113.077 83.4595 113.437 83.1001C113.796 82.8306 114.245 82.6509 114.874 82.6509C115.413 82.6509 115.773 82.8306 116.222 83.0103C116.581 83.2798 116.941 83.6392 117.12 83.9986C117.39 84.4478 117.569 84.9868 117.749 85.6158C117.839 86.3345 117.929 86.8736 117.929 87.4127ZM115.144 87.772C115.144 87.4127 115.144 86.9634 115.144 86.5142C115.144 86.065 115.054 85.6158 114.964 85.1665C114.964 84.9868 114.874 84.897 114.874 84.7173C114.874 84.5376 114.784 84.3579 114.694 84.2681C114.605 84.0884 114.515 83.9986 114.425 83.9087C114.245 83.8189 114.155 83.729 113.976 83.729C113.706 83.729 113.437 83.8189 113.257 83.9986C113.077 84.1782 112.898 84.4478 112.808 84.8072C112.628 85.2564 112.538 85.7056 112.538 86.1548C112.538 86.6041 112.538 87.0533 112.538 87.4127C112.538 87.5924 112.538 87.8619 112.538 88.2213C112.538 88.5807 112.538 88.8502 112.628 89.0299C112.628 89.2096 112.628 89.2994 112.628 89.4791C112.628 89.6588 112.628 89.8385 112.718 89.9283C112.808 90.2877 112.898 90.5572 113.167 90.8268C113.347 91.0963 113.616 91.1862 113.976 91.1862C114.155 91.1862 114.335 91.1862 114.425 91.0963C114.605 91.0065 114.694 90.9166 114.784 90.8268C114.874 90.7369 114.964 90.5572 114.964 90.3776C115.054 90.1979 115.054 90.0182 115.054 89.9283C115.144 89.569 115.144 89.2096 115.144 88.8502C115.144 88.4908 115.144 88.1314 115.144 87.772Z" fill="#021E4E"/>
<path d="M129.158 91.9945V84.9866C129.158 84.8968 129.158 84.7171 129.158 84.6272C129.158 84.5374 129.068 84.3577 129.068 84.2678C129.068 84.178 128.978 84.0882 128.888 83.9983C128.798 83.9085 128.708 83.9085 128.529 83.9085C128.259 83.9085 127.99 83.9983 127.81 84.178C127.63 84.3577 127.451 84.6272 127.361 84.8968C127.271 85.1663 127.181 85.4358 127.091 85.7952C127.091 86.0647 127.001 86.3343 127.001 86.6038V91.9047H124.306V85.2561V84.8069C124.306 84.6272 124.306 84.3577 124.216 84.178C124.126 83.9983 123.947 83.9085 123.677 83.9085C123.318 83.9085 123.138 83.9983 122.868 84.178C122.689 84.3577 122.509 84.6272 122.419 84.8968C122.329 85.1663 122.24 85.4358 122.15 85.7952C122.15 86.0647 122.06 86.3343 122.06 86.6038V91.9047H119.365V82.9202C120.263 82.9202 121.161 82.8303 122.06 82.7405V84.4475C122.419 83.9983 122.779 83.6389 123.228 83.2795C123.677 82.9202 124.126 82.8303 124.755 82.8303C125.115 82.8303 125.384 82.8303 125.564 82.9202C125.833 83.01 126.013 83.0999 126.103 83.1897C126.283 83.2795 126.372 83.4592 126.552 83.6389C126.732 83.8186 126.822 84.0882 126.911 84.3577C127.181 83.9085 127.63 83.5491 128.079 83.1897C128.529 82.9202 128.978 82.7405 129.607 82.7405C130.236 82.7405 130.775 82.9202 131.224 83.2795C131.583 83.6389 131.853 84.178 131.853 84.8968V91.9945H129.158Z" fill="#021E4E"/>
<path d="M141.02 89.0299C141.02 90.108 140.661 90.9166 140.121 91.3659C139.582 91.9049 138.774 92.0846 137.696 92.0846C136.887 92.0846 136.168 91.9049 135.629 91.7252C135 91.4557 134.551 91.0065 134.192 90.5572C133.922 90.108 133.653 89.6588 133.563 89.1197C133.383 88.5807 133.383 88.0416 133.383 87.4127C133.383 86.7838 133.473 86.2447 133.653 85.6158C133.832 85.0767 134.102 84.5376 134.461 84.0884C134.821 83.6392 135.27 83.2798 135.719 83.0103C136.258 82.7407 136.797 82.6509 137.426 82.6509C138.235 82.6509 138.953 82.8306 139.493 83.2798C140.032 83.729 140.481 84.2681 140.661 85.0767C140.75 85.5259 140.84 85.8853 140.93 86.3345C140.93 86.7838 140.93 87.1431 140.93 87.5924H136.078C136.078 87.9517 136.078 88.401 136.168 88.8502C136.168 89.2994 136.258 89.7486 136.348 90.108C136.438 90.4674 136.707 90.8268 136.977 91.0963C137.246 91.3659 137.606 91.4557 138.145 91.4557C138.414 91.4557 138.684 91.3659 138.864 91.276C139.133 91.1862 139.313 91.0065 139.493 90.8268C139.672 90.6471 139.762 90.4674 139.852 90.1979C139.942 89.9283 139.942 89.7486 139.942 89.3893C139.942 89.2994 139.942 89.1197 139.942 89.0299C139.942 88.94 139.942 88.7603 139.942 88.6705L141.02 89.0299ZM138.684 86.7838C138.684 86.4244 138.684 86.1548 138.684 85.7056C138.684 85.3462 138.594 84.897 138.504 84.5376C138.504 84.4478 138.414 84.2681 138.414 84.0884C138.414 83.9087 138.325 83.8189 138.235 83.729C138.145 83.6392 138.055 83.5493 137.965 83.4595C137.875 83.3696 137.696 83.3696 137.516 83.3696C137.157 83.3696 136.887 83.4595 136.797 83.729C136.617 83.9986 136.438 84.2681 136.438 84.6275C136.348 84.9868 136.348 85.3462 136.258 85.7056C136.258 86.065 136.258 86.4244 136.168 86.6041H138.684V86.7838Z" fill="#021E4E"/>
<path d="M147.85 91.9945V85.1663C147.85 85.0764 147.85 84.8968 147.85 84.7171C147.85 84.5374 147.76 84.4475 147.76 84.3577C147.67 84.2678 147.67 84.178 147.491 84.0882C147.401 83.9983 147.221 83.9983 147.131 83.9983C146.862 83.9983 146.592 84.0882 146.323 84.2678C146.053 84.4475 145.873 84.7171 145.783 84.9866C145.604 85.2561 145.514 85.6155 145.424 85.8851C145.334 86.1546 145.244 86.514 145.244 86.6937V91.9945H142.549V82.9202C142.998 82.9202 143.448 82.9202 143.897 82.8303C144.346 82.8303 144.795 82.7405 145.244 82.6506V84.5374C145.604 83.9983 146.053 83.5491 146.502 83.1897C146.951 82.8303 147.58 82.6506 148.209 82.6506C148.928 82.6506 149.467 82.8303 149.827 83.1897C150.186 83.5491 150.366 84.178 150.366 84.8069V91.9047H147.85V91.9945Z" fill="#021E4E"/>
<path d="M156.822 90.7377C156.732 91.2768 156.463 91.6362 156.103 91.8159C155.744 91.9955 155.295 92.0854 154.756 92.0854C154.127 92.0854 153.678 91.9057 153.228 91.6362C152.869 91.3666 152.599 90.8276 152.599 90.1986V83.8196H151.611V83.011H152.599V81.3938C153.049 81.304 153.498 81.1243 153.947 80.9446C154.396 80.7649 154.846 80.4954 155.205 80.2258V82.9212H156.463V83.7298H155.205V90.4682C155.205 90.6479 155.205 90.7377 155.295 90.9174C155.295 91.0971 155.474 91.1869 155.564 91.1869C155.744 91.1869 155.834 91.1869 155.834 91.0971C155.924 91.0073 155.924 90.9174 155.924 90.7377H156.822Z" fill="#021E4E"/>
<path d="M128.892 105.652C128.892 106.191 128.802 106.73 128.533 107.089C128.263 107.538 127.994 107.808 127.634 108.078C127.275 108.347 126.826 108.527 126.376 108.617C125.927 108.706 125.388 108.796 124.939 108.796H119.458V96.6672H124.31C124.849 96.6672 125.298 96.7571 125.837 96.8469C126.286 96.9368 126.736 97.1165 127.185 97.386C127.544 97.6555 127.904 97.9251 128.173 98.3743C128.443 98.7337 128.533 99.2727 128.533 99.8118C128.533 100.261 128.443 100.62 128.353 100.89C128.263 101.159 128.083 101.429 127.814 101.699C127.544 101.878 127.275 102.058 127.005 102.238C126.646 102.417 126.376 102.507 126.017 102.597C126.466 102.687 126.826 102.777 127.185 102.956C127.544 103.136 127.904 103.316 128.173 103.585C128.443 103.855 128.712 104.124 128.802 104.484C128.802 104.753 128.892 105.203 128.892 105.652ZM125.568 99.8118C125.568 99.3626 125.478 98.9134 125.388 98.6438C125.298 98.3743 125.118 98.1048 124.939 98.0149C124.759 97.8352 124.49 97.7454 124.13 97.7454C123.771 97.6555 123.411 97.6555 123.052 97.6555L122.423 98.6438V102.058C122.513 102.058 122.693 102.058 122.783 102.058C122.962 102.058 123.142 102.058 123.322 102.058C123.501 102.058 123.681 102.058 123.771 102.058C123.861 102.058 124.04 102.058 124.04 102.058C124.579 101.968 124.939 101.788 125.208 101.429C125.388 101.07 125.568 100.531 125.568 99.8118ZM125.927 105.652C125.927 104.753 125.747 104.124 125.388 103.765C125.029 103.316 124.49 103.136 123.861 103.046C123.861 103.046 123.681 103.046 123.591 103.046C123.411 103.046 123.322 103.046 123.142 103.046C122.962 103.046 122.872 103.046 122.693 103.046C122.603 103.046 122.423 103.046 122.333 103.046V108.078C122.423 108.078 122.513 108.078 122.603 108.078C122.783 108.078 122.872 108.078 123.052 108.078C123.232 108.078 123.322 108.078 123.501 108.078C123.591 108.078 123.681 108.078 123.771 108.078C124.13 108.078 124.4 107.988 124.669 107.898C124.939 107.808 125.118 107.718 125.388 107.538C125.568 107.359 125.658 107.089 125.837 106.82C125.837 106.46 125.927 106.101 125.927 105.652Z" fill="#021E4E"/>
<path d="M138.771 108.706C138.412 108.886 138.142 108.886 137.783 108.976C137.423 109.065 137.064 109.065 136.704 109.065C136.255 109.065 135.896 108.976 135.536 108.796C135.177 108.616 134.997 108.257 134.908 107.808C134.638 108.257 134.279 108.616 133.919 108.796C133.56 108.976 133.111 109.065 132.572 109.065C131.763 109.065 131.044 108.796 130.595 108.347C130.056 107.897 129.876 107.179 129.876 106.37C129.876 105.831 129.966 105.292 130.236 105.022C130.505 104.663 130.775 104.394 131.134 104.214C131.493 104.034 131.943 103.854 132.302 103.675C132.751 103.585 133.111 103.405 133.47 103.226C133.829 103.046 134.099 102.866 134.368 102.686C134.638 102.417 134.728 102.147 134.728 101.788C134.728 101.339 134.638 100.979 134.368 100.71C134.099 100.44 133.74 100.261 133.29 100.261C132.841 100.261 132.392 100.44 132.122 100.71C131.763 100.979 131.583 101.339 131.583 101.788C131.583 101.968 131.583 102.147 131.673 102.327C131.763 102.507 131.763 102.686 131.853 102.866L130.505 102.597C130.415 102.327 130.415 102.147 130.415 101.878C130.415 101.429 130.505 101.069 130.775 100.8C131.044 100.53 131.314 100.261 131.583 100.171C131.943 99.9911 132.302 99.9012 132.751 99.8114C133.2 99.7216 133.56 99.7216 133.829 99.7216C134.189 99.7216 134.548 99.7216 134.997 99.8114C135.447 99.9012 135.806 99.9012 136.165 100.081C136.525 100.261 136.884 100.44 137.064 100.71C137.333 100.979 137.423 101.339 137.423 101.788V107.358C137.423 107.628 137.423 107.808 137.513 107.987C137.603 108.167 137.783 108.257 138.052 108.257C138.142 108.257 138.232 108.257 138.322 108.167C138.412 108.167 138.501 108.077 138.591 108.077L138.771 108.706ZM134.728 103.315C134.458 103.675 134.189 103.854 133.919 103.944C133.65 104.034 133.38 104.214 133.2 104.394C132.931 104.573 132.841 104.753 132.661 105.022C132.572 105.292 132.482 105.741 132.482 106.37C132.482 106.55 132.482 106.729 132.482 106.909C132.482 107.089 132.572 107.269 132.661 107.448C132.751 107.628 132.841 107.808 132.931 107.897C133.021 107.987 133.2 108.077 133.38 108.077C133.65 108.077 133.829 107.987 134.009 107.897C134.189 107.718 134.368 107.628 134.458 107.358C134.548 107.179 134.638 106.909 134.728 106.64C134.728 106.37 134.818 106.19 134.818 105.921V103.315H134.728Z" fill="#021E4E"/>
<path d="M144.787 108.975V102.147C144.787 102.057 144.787 101.878 144.787 101.698C144.787 101.518 144.787 101.428 144.697 101.339C144.608 101.249 144.518 101.159 144.428 101.069C144.338 100.979 144.158 100.979 143.979 100.979C143.709 100.979 143.44 101.069 143.17 101.249C142.9 101.428 142.721 101.698 142.631 101.967C142.451 102.237 142.361 102.596 142.272 102.866C142.182 103.135 142.182 103.495 142.182 103.675V108.975H139.486V99.901C139.936 99.901 140.385 99.901 140.834 99.8112C141.283 99.8112 141.732 99.7213 142.182 99.6315V101.518C142.541 100.979 142.9 100.53 143.44 100.171C143.889 99.8112 144.518 99.6315 145.147 99.6315C145.865 99.6315 146.404 99.8112 146.764 100.171C147.123 100.62 147.393 101.159 147.393 101.788V108.886H144.787V108.975Z" fill="#021E4E"/>
<path d="M154.586 108.976L152.789 104.753L152.07 105.652V108.976H149.464V96.6674C149.914 96.6674 150.363 96.6674 150.812 96.5775C151.261 96.5775 151.71 96.4877 152.16 96.3978V104.304L155.754 99.8119H156.832L154.765 102.417L157.55 108.886H154.586V108.976Z" fill="#021E4E"/>
</svg>
